solid RGT16_1P7X1P7
facet normal 0 0 -1
  outer loop
    vertex -49.60628 29.535 39.37008
    vertex -46.5654606725274 30.1398565712014 39.37008
    vertex -46.5058875 29.535 39.37008
  endloop
endfacet
facet normal 0 0 -1
  outer loop
    vertex -49.60628 29.535 39.37008
    vertex -46.7418908264985 30.721468843579 39.37008
    vertex -46.5654606725274 30.1398565712014 39.37008
  endloop
endfacet
facet normal 0 0 -1
  outer loop
    vertex -49.60628 29.535 39.37008
    vertex -47.0283978500393 31.2574857836772 39.37008
    vertex -46.7418908264985 30.721468843579 39.37008
  endloop
endfacet
facet normal 0 0 -1
  outer loop
    vertex -49.60628 29.535 39.37008
    vertex -47.4139714389101 31.7273085610899 39.37008
    vertex -47.0283978500393 31.2574857836772 39.37008
  endloop
endfacet
facet normal 0 0 -1
  outer loop
    vertex -49.60628 29.535 39.37008
    vertex -47.8837942163228 32.1128821499607 39.37008
    vertex -47.4139714389101 31.7273085610899 39.37008
  endloop
endfacet
facet normal 0 0 -1
  outer loop
    vertex -49.60628 29.535 39.37008
    vertex -48.419811156421 32.3993891735015 39.37008
    vertex -47.8837942163228 32.1128821499607 39.37008
  endloop
endfacet
facet normal 0 0 -1
  outer loop
    vertex -49.60628 29.535 39.37008
    vertex -49.0014234287986 32.5758193274726 39.37008
    vertex -48.419811156421 32.3993891735015 39.37008
  endloop
endfacet
facet normal 0 0 -1
  outer loop
    vertex -49.60628 29.535 39.37008
    vertex -49.60628 32.6353925 39.37008
    vertex -49.0014234287986 32.5758193274726 39.37008
  endloop
endfacet
facet normal 0 0 -1
  outer loop
    vertex -49.60628 29.535 39.37008
    vertex -50.2111365712014 32.5758193274726 39.37008
    vertex -49.60628 32.6353925 39.37008
  endloop
endfacet
facet normal 0 0 -1
  outer loop
    vertex -49.60628 29.535 39.37008
    vertex -50.792748843579 32.3993891735015 39.37008
    vertex -50.2111365712014 32.5758193274726 39.37008
  endloop
endfacet
facet normal 0 0 -1
  outer loop
    vertex -49.60628 29.535 39.37008
    vertex -51.3287657836772 32.1128821499607 39.37008
    vertex -50.792748843579 32.3993891735015 39.37008
  endloop
endfacet
facet normal 0 0 -1
  outer loop
    vertex -49.60628 29.535 39.37008
    vertex -51.7985885610899 31.7273085610899 39.37008
    vertex -51.3287657836772 32.1128821499607 39.37008
  endloop
endfacet
facet normal 0 0 -1
  outer loop
    vertex -49.60628 29.535 39.37008
    vertex -52.1841621499607 31.2574857836772 39.37008
    vertex -51.7985885610899 31.7273085610899 39.37008
  endloop
endfacet
facet normal 0 0 -1
  outer loop
    vertex -49.60628 29.535 39.37008
    vertex -52.4706691735015 30.721468843579 39.37008
    vertex -52.1841621499607 31.2574857836772 39.37008
  endloop
endfacet
facet normal 0 0 -1
  outer loop
    vertex -49.60628 29.535 39.37008
    vertex -52.6470993274726 30.1398565712014 39.37008
    vertex -52.4706691735015 30.721468843579 39.37008
  endloop
endfacet
facet normal 0 0 -1
  outer loop
    vertex -49.60628 29.535 39.37008
    vertex -52.7066725 29.535 39.37008
    vertex -52.6470993274726 30.1398565712014 39.37008
  endloop
endfacet
facet normal 0 0 -1
  outer loop
    vertex -49.60628 29.535 39.37008
    vertex -52.6470993274726 28.9301434287986 39.37008
    vertex -52.7066725 29.535 39.37008
  endloop
endfacet
facet normal 0 0 -1
  outer loop
    vertex -49.60628 29.535 39.37008
    vertex -52.4706691735015 28.348531156421 39.37008
    vertex -52.6470993274726 28.9301434287986 39.37008
  endloop
endfacet
facet normal 0 0 -1
  outer loop
    vertex -49.60628 29.535 39.37008
    vertex -52.1841621499607 27.8125142163228 39.37008
    vertex -52.4706691735015 28.348531156421 39.37008
  endloop
endfacet
facet normal 0 0 -1
  outer loop
    vertex -49.60628 29.535 39.37008
    vertex -51.7985885610899 27.3426914389101 39.37008
    vertex -52.1841621499607 27.8125142163228 39.37008
  endloop
endfacet
facet normal 0 0 -1
  outer loop
    vertex -49.60628 29.535 39.37008
    vertex -51.3287657836772 26.9571178500393 39.37008
    vertex -51.7985885610899 27.3426914389101 39.37008
  endloop
endfacet
facet normal 0 0 -1
  outer loop
    vertex -49.60628 29.535 39.37008
    vertex -50.792748843579 26.6706108264985 39.37008
    vertex -51.3287657836772 26.9571178500393 39.37008
  endloop
endfacet
facet normal 0 0 -1
  outer loop
    vertex -49.60628 29.535 39.37008
    vertex -50.2111365712014 26.4941806725274 39.37008
    vertex -50.792748843579 26.6706108264985 39.37008
  endloop
endfacet
facet normal 0 0 -1
  outer loop
    vertex -49.60628 29.535 39.37008
    vertex -49.60628 26.4346075 39.37008
    vertex -50.2111365712014 26.4941806725274 39.37008
  endloop
endfacet
facet normal 0 0 -1
  outer loop
    vertex -49.60628 29.535 39.37008
    vertex -49.0014234287986 26.4941806725274 39.37008
    vertex -49.60628 26.4346075 39.37008
  endloop
endfacet
facet normal 0 0 -1
  outer loop
    vertex -49.60628 29.535 39.37008
    vertex -48.419811156421 26.6706108264985 39.37008
    vertex -49.0014234287986 26.4941806725274 39.37008
  endloop
endfacet
facet normal 0 0 -1
  outer loop
    vertex -49.60628 29.535 39.37008
    vertex -47.8837942163228 26.9571178500393 39.37008
    vertex -48.419811156421 26.6706108264985 39.37008
  endloop
endfacet
facet normal 0 0 -1
  outer loop
    vertex -49.60628 29.535 39.37008
    vertex -47.4139714389101 27.3426914389101 39.37008
    vertex -47.8837942163228 26.9571178500393 39.37008
  endloop
endfacet
facet normal 0 0 -1
  outer loop
    vertex -49.60628 29.535 39.37008
    vertex -47.0283978500393 27.8125142163228 39.37008
    vertex -47.4139714389101 27.3426914389101 39.37008
  endloop
endfacet
facet normal 0 0 -1
  outer loop
    vertex -49.60628 29.535 39.37008
    vertex -46.7418908264985 28.348531156421 39.37008
    vertex -47.0283978500393 27.8125142163228 39.37008
  endloop
endfacet
facet normal 0 0 -1
  outer loop
    vertex -49.60628 29.535 39.37008
    vertex -46.5654606725274 28.9301434287986 39.37008
    vertex -46.7418908264985 28.348531156421 39.37008
  endloop
endfacet
facet normal 0 0 -1
  outer loop
    vertex -49.60628 29.535 39.37008
    vertex -46.5058875 29.535 39.37008
    vertex -46.5654606725274 28.9301434287986 39.37008
  endloop
endfacet
facet normal 0 0 1
  outer loop
    vertex -49.60628 29.535 39.47008
    vertex -46.5058875 29.535 39.47008
    vertex -46.5654606725274 30.1398565712014 39.47008
  endloop
endfacet
facet normal 0 0 1
  outer loop
    vertex -49.60628 29.535 39.47008
    vertex -46.5654606725274 30.1398565712014 39.47008
    vertex -46.7418908264985 30.721468843579 39.47008
  endloop
endfacet
facet normal 0 0 1
  outer loop
    vertex -49.60628 29.535 39.47008
    vertex -46.7418908264985 30.721468843579 39.47008
    vertex -47.0283978500393 31.2574857836772 39.47008
  endloop
endfacet
facet normal 0 0 1
  outer loop
    vertex -49.60628 29.535 39.47008
    vertex -47.0283978500393 31.2574857836772 39.47008
    vertex -47.4139714389101 31.7273085610899 39.47008
  endloop
endfacet
facet normal 0 0 1
  outer loop
    vertex -49.60628 29.535 39.47008
    vertex -47.4139714389101 31.7273085610899 39.47008
    vertex -47.8837942163228 32.1128821499607 39.47008
  endloop
endfacet
facet normal 0 0 1
  outer loop
    vertex -49.60628 29.535 39.47008
    vertex -47.8837942163228 32.1128821499607 39.47008
    vertex -48.419811156421 32.3993891735015 39.47008
  endloop
endfacet
facet normal 0 0 1
  outer loop
    vertex -49.60628 29.535 39.47008
    vertex -48.419811156421 32.3993891735015 39.47008
    vertex -49.0014234287986 32.5758193274726 39.47008
  endloop
endfacet
facet normal 0 0 1
  outer loop
    vertex -49.60628 29.535 39.47008
    vertex -49.0014234287986 32.5758193274726 39.47008
    vertex -49.60628 32.6353925 39.47008
  endloop
endfacet
facet normal 0 0 1
  outer loop
    vertex -49.60628 29.535 39.47008
    vertex -49.60628 32.6353925 39.47008
    vertex -50.2111365712014 32.5758193274726 39.47008
  endloop
endfacet
facet normal 0 0 1
  outer loop
    vertex -49.60628 29.535 39.47008
    vertex -50.2111365712014 32.5758193274726 39.47008
    vertex -50.792748843579 32.3993891735015 39.47008
  endloop
endfacet
facet normal 0 0 1
  outer loop
    vertex -49.60628 29.535 39.47008
    vertex -50.792748843579 32.3993891735015 39.47008
    vertex -51.3287657836772 32.1128821499607 39.47008
  endloop
endfacet
facet normal 0 0 1
  outer loop
    vertex -49.60628 29.535 39.47008
    vertex -51.3287657836772 32.1128821499607 39.47008
    vertex -51.7985885610899 31.7273085610899 39.47008
  endloop
endfacet
facet normal 0 0 1
  outer loop
    vertex -49.60628 29.535 39.47008
    vertex -51.7985885610899 31.7273085610899 39.47008
    vertex -52.1841621499607 31.2574857836772 39.47008
  endloop
endfacet
facet normal 0 0 1
  outer loop
    vertex -49.60628 29.535 39.47008
    vertex -52.1841621499607 31.2574857836772 39.47008
    vertex -52.4706691735015 30.721468843579 39.47008
  endloop
endfacet
facet normal 0 0 1
  outer loop
    vertex -49.60628 29.535 39.47008
    vertex -52.4706691735015 30.721468843579 39.47008
    vertex -52.6470993274726 30.1398565712014 39.47008
  endloop
endfacet
facet normal 0 0 1
  outer loop
    vertex -49.60628 29.535 39.47008
    vertex -52.6470993274726 30.1398565712014 39.47008
    vertex -52.7066725 29.535 39.47008
  endloop
endfacet
facet normal 0 0 1
  outer loop
    vertex -49.60628 29.535 39.47008
    vertex -52.7066725 29.535 39.47008
    vertex -52.6470993274726 28.9301434287986 39.47008
  endloop
endfacet
facet normal 0 0 1
  outer loop
    vertex -49.60628 29.535 39.47008
    vertex -52.6470993274726 28.9301434287986 39.47008
    vertex -52.4706691735015 28.348531156421 39.47008
  endloop
endfacet
facet normal 0 0 1
  outer loop
    vertex -49.60628 29.535 39.47008
    vertex -52.4706691735015 28.348531156421 39.47008
    vertex -52.1841621499607 27.8125142163228 39.47008
  endloop
endfacet
facet normal 0 0 1
  outer loop
    vertex -49.60628 29.535 39.47008
    vertex -52.1841621499607 27.8125142163228 39.47008
    vertex -51.7985885610899 27.3426914389101 39.47008
  endloop
endfacet
facet normal 0 0 1
  outer loop
    vertex -49.60628 29.535 39.47008
    vertex -51.7985885610899 27.3426914389101 39.47008
    vertex -51.3287657836772 26.9571178500393 39.47008
  endloop
endfacet
facet normal 0 0 1
  outer loop
    vertex -49.60628 29.535 39.47008
    vertex -51.3287657836772 26.9571178500393 39.47008
    vertex -50.792748843579 26.6706108264985 39.47008
  endloop
endfacet
facet normal 0 0 1
  outer loop
    vertex -49.60628 29.535 39.47008
    vertex -50.792748843579 26.6706108264985 39.47008
    vertex -50.2111365712014 26.4941806725274 39.47008
  endloop
endfacet
facet normal 0 0 1
  outer loop
    vertex -49.60628 29.535 39.47008
    vertex -50.2111365712014 26.4941806725274 39.47008
    vertex -49.60628 26.4346075 39.47008
  endloop
endfacet
facet normal 0 0 1
  outer loop
    vertex -49.60628 29.535 39.47008
    vertex -49.60628 26.4346075 39.47008
    vertex -49.0014234287986 26.4941806725274 39.47008
  endloop
endfacet
facet normal 0 0 1
  outer loop
    vertex -49.60628 29.535 39.47008
    vertex -49.0014234287986 26.4941806725274 39.47008
    vertex -48.419811156421 26.6706108264985 39.47008
  endloop
endfacet
facet normal 0 0 1
  outer loop
    vertex -49.60628 29.535 39.47008
    vertex -48.419811156421 26.6706108264985 39.47008
    vertex -47.8837942163228 26.9571178500393 39.47008
  endloop
endfacet
facet normal 0 0 1
  outer loop
    vertex -49.60628 29.535 39.47008
    vertex -47.8837942163228 26.9571178500393 39.47008
    vertex -47.4139714389101 27.3426914389101 39.47008
  endloop
endfacet
facet normal 0 0 1
  outer loop
    vertex -49.60628 29.535 39.47008
    vertex -47.4139714389101 27.3426914389101 39.47008
    vertex -47.0283978500393 27.8125142163228 39.47008
  endloop
endfacet
facet normal 0 0 1
  outer loop
    vertex -49.60628 29.535 39.47008
    vertex -47.0283978500393 27.8125142163228 39.47008
    vertex -46.7418908264985 28.348531156421 39.47008
  endloop
endfacet
facet normal 0 0 1
  outer loop
    vertex -49.60628 29.535 39.47008
    vertex -46.7418908264985 28.348531156421 39.47008
    vertex -46.5654606725274 28.9301434287986 39.47008
  endloop
endfacet
facet normal 0 0 1
  outer loop
    vertex -49.60628 29.535 39.47008
    vertex -46.5654606725274 28.9301434287986 39.47008
    vertex -46.5058875 29.535 39.47008
  endloop
endfacet
facet normal .995184726672201 9.80171403295156E-02 0
  outer loop
    vertex -46.5058875 29.535 39.37008
    vertex -46.5654606725274 30.1398565712014 39.47008
    vertex -46.5058875 29.535 39.47008
  endloop
endfacet
facet normal .956940335732199 .290284677254495 0
  outer loop
    vertex -46.5654606725274 30.1398565712014 39.37008
    vertex -46.7418908264985 30.721468843579 39.47008
    vertex -46.5654606725274 30.1398565712014 39.47008
  endloop
endfacet
facet normal .881921264348325 .471396736826053 0
  outer loop
    vertex -46.7418908264985 30.721468843579 39.37008
    vertex -47.0283978500393 31.2574857836772 39.47008
    vertex -46.7418908264985 30.721468843579 39.47008
  endloop
endfacet
facet normal .773010453362746 .634393284163635 0
  outer loop
    vertex -47.0283978500393 31.2574857836772 39.37008
    vertex -47.4139714389101 31.7273085610899 39.47008
    vertex -47.0283978500393 31.2574857836772 39.47008
  endloop
endfacet
facet normal .634393284163631 .773010453362749 0
  outer loop
    vertex -47.4139714389101 31.7273085610899 39.37008
    vertex -47.8837942163228 32.1128821499607 39.47008
    vertex -47.4139714389101 31.7273085610899 39.47008
  endloop
endfacet
facet normal .471396736826053 .881921264348325 0
  outer loop
    vertex -47.8837942163228 32.1128821499607 39.37008
    vertex -48.419811156421 32.3993891735015 39.47008
    vertex -47.8837942163228 32.1128821499607 39.47008
  endloop
endfacet
facet normal .290284677254504 .956940335732196 0
  outer loop
    vertex -48.419811156421 32.3993891735015 39.37008
    vertex -49.0014234287986 32.5758193274726 39.47008
    vertex -48.419811156421 32.3993891735015 39.47008
  endloop
endfacet
facet normal 9.80171403295161E-02 .995184726672201 0
  outer loop
    vertex -49.0014234287986 32.5758193274726 39.37008
    vertex -49.60628 32.6353925 39.47008
    vertex -49.0014234287986 32.5758193274726 39.47008
  endloop
endfacet
facet normal -.098017140329515 .995184726672201 0
  outer loop
    vertex -49.60628 32.6353925 39.37008
    vertex -50.2111365712014 32.5758193274726 39.47008
    vertex -49.60628 32.6353925 39.47008
  endloop
endfacet
facet normal -.290284677254507 .956940335732195 0
  outer loop
    vertex -50.2111365712014 32.5758193274726 39.37008
    vertex -50.792748843579 32.3993891735015 39.47008
    vertex -50.2111365712014 32.5758193274726 39.47008
  endloop
endfacet
facet normal -.471396736826053 .881921264348325 0
  outer loop
    vertex -50.792748843579 32.3993891735015 39.37008
    vertex -51.3287657836772 32.1128821499607 39.47008
    vertex -50.792748843579 32.3993891735015 39.47008
  endloop
endfacet
facet normal -.634393284163625 .773010453362754 0
  outer loop
    vertex -51.3287657836772 32.1128821499607 39.37008
    vertex -51.7985885610899 31.7273085610899 39.47008
    vertex -51.3287657836772 32.1128821499607 39.47008
  endloop
endfacet
facet normal -.773010453362751 .634393284163628 0
  outer loop
    vertex -51.7985885610899 31.7273085610899 39.37008
    vertex -52.1841621499607 31.2574857836772 39.47008
    vertex -51.7985885610899 31.7273085610899 39.47008
  endloop
endfacet
facet normal -.881921264348325 .471396736826053 0
  outer loop
    vertex -52.1841621499607 31.2574857836772 39.37008
    vertex -52.4706691735015 30.721468843579 39.47008
    vertex -52.1841621499607 31.2574857836772 39.47008
  endloop
endfacet
facet normal -.956940335732196 .290284677254505 0
  outer loop
    vertex -52.4706691735015 30.721468843579 39.37008
    vertex -52.6470993274726 30.1398565712014 39.47008
    vertex -52.4706691735015 30.721468843579 39.47008
  endloop
endfacet
facet normal -.995184726672201 9.80171403295156E-02 0
  outer loop
    vertex -52.6470993274726 30.1398565712014 39.37008
    vertex -52.7066725 29.535 39.47008
    vertex -52.6470993274726 30.1398565712014 39.47008
  endloop
endfacet
facet normal -.995184726672201 -9.80171403295156E-02 0
  outer loop
    vertex -52.7066725 29.535 39.37008
    vertex -52.6470993274726 28.9301434287986 39.47008
    vertex -52.7066725 29.535 39.47008
  endloop
endfacet
facet normal -.956940335732196 -.290284677254505 0
  outer loop
    vertex -52.6470993274726 28.9301434287986 39.37008
    vertex -52.4706691735015 28.348531156421 39.47008
    vertex -52.6470993274726 28.9301434287986 39.47008
  endloop
endfacet
facet normal -.881921264348325 -.471396736826053 0
  outer loop
    vertex -52.4706691735015 28.348531156421 39.37008
    vertex -52.1841621499607 27.8125142163228 39.47008
    vertex -52.4706691735015 28.348531156421 39.47008
  endloop
endfacet
facet normal -.773010453362751 -.634393284163628 0
  outer loop
    vertex -52.1841621499607 27.8125142163228 39.37008
    vertex -51.7985885610899 27.3426914389101 39.47008
    vertex -52.1841621499607 27.8125142163228 39.47008
  endloop
endfacet
facet normal -.634393284163629 -.773010453362751 0
  outer loop
    vertex -51.7985885610899 27.3426914389101 39.37008
    vertex -51.3287657836772 26.9571178500393 39.47008
    vertex -51.7985885610899 27.3426914389101 39.47008
  endloop
endfacet
facet normal -.471396736826053 -.881921264348325 0
  outer loop
    vertex -51.3287657836772 26.9571178500393 39.37008
    vertex -50.792748843579 26.6706108264985 39.47008
    vertex -51.3287657836772 26.9571178500393 39.47008
  endloop
endfacet
facet normal -.290284677254502 -.956940335732197 0
  outer loop
    vertex -50.792748843579 26.6706108264985 39.37008
    vertex -50.2111365712014 26.4941806725274 39.47008
    vertex -50.792748843579 26.6706108264985 39.47008
  endloop
endfacet
facet normal -.098017140329515 -.995184726672201 0
  outer loop
    vertex -50.2111365712014 26.4941806725274 39.37008
    vertex -49.60628 26.4346075 39.47008
    vertex -50.2111365712014 26.4941806725274 39.47008
  endloop
endfacet
facet normal 9.80171403295161E-02 -.995184726672201 0
  outer loop
    vertex -49.60628 26.4346075 39.37008
    vertex -49.0014234287986 26.4941806725274 39.47008
    vertex -49.60628 26.4346075 39.47008
  endloop
endfacet
facet normal .290284677254498 -.956940335732198 0
  outer loop
    vertex -49.0014234287986 26.4941806725274 39.37008
    vertex -48.419811156421 26.6706108264985 39.47008
    vertex -49.0014234287986 26.4941806725274 39.47008
  endloop
endfacet
facet normal .471396736826053 -.881921264348325 0
  outer loop
    vertex -48.419811156421 26.6706108264985 39.37008
    vertex -47.8837942163228 26.9571178500393 39.47008
    vertex -48.419811156421 26.6706108264985 39.47008
  endloop
endfacet
facet normal .634393284163634 -.773010453362746 0
  outer loop
    vertex -47.8837942163228 26.9571178500393 39.37008
    vertex -47.4139714389101 27.3426914389101 39.47008
    vertex -47.8837942163228 26.9571178500393 39.47008
  endloop
endfacet
facet normal .773010453362746 -.634393284163635 0
  outer loop
    vertex -47.4139714389101 27.3426914389101 39.37008
    vertex -47.0283978500393 27.8125142163228 39.47008
    vertex -47.4139714389101 27.3426914389101 39.47008
  endloop
endfacet
facet normal .881921264348325 -.471396736826053 0
  outer loop
    vertex -47.0283978500393 27.8125142163228 39.37008
    vertex -46.7418908264985 28.348531156421 39.47008
    vertex -47.0283978500393 27.8125142163228 39.47008
  endloop
endfacet
facet normal .956940335732199 -.290284677254495 0
  outer loop
    vertex -46.7418908264985 28.348531156421 39.37008
    vertex -46.5654606725274 28.9301434287986 39.47008
    vertex -46.7418908264985 28.348531156421 39.47008
  endloop
endfacet
facet normal .995184726672201 -9.80171403295156E-02 0
  outer loop
    vertex -46.5654606725274 28.9301434287986 39.37008
    vertex -46.5058875 29.535 39.47008
    vertex -46.5654606725274 28.9301434287986 39.47008
  endloop
endfacet
facet normal .995184726672201 9.80171403295156E-02 0
  outer loop
    vertex -46.5654606725274 30.1398565712014 39.37008
    vertex -46.5654606725274 30.1398565712014 39.47008
    vertex -46.5058875 29.535 39.37008
  endloop
endfacet
facet normal .956940335732199 .290284677254495 0
  outer loop
    vertex -46.7418908264985 30.721468843579 39.37008
    vertex -46.7418908264985 30.721468843579 39.47008
    vertex -46.5654606725274 30.1398565712014 39.37008
  endloop
endfacet
facet normal .881921264348325 .471396736826053 0
  outer loop
    vertex -47.0283978500393 31.2574857836772 39.37008
    vertex -47.0283978500393 31.2574857836772 39.47008
    vertex -46.7418908264985 30.721468843579 39.37008
  endloop
endfacet
facet normal .773010453362746 .634393284163635 0
  outer loop
    vertex -47.4139714389101 31.7273085610899 39.37008
    vertex -47.4139714389101 31.7273085610899 39.47008
    vertex -47.0283978500393 31.2574857836772 39.37008
  endloop
endfacet
facet normal .634393284163631 .773010453362749 0
  outer loop
    vertex -47.8837942163228 32.1128821499607 39.37008
    vertex -47.8837942163228 32.1128821499607 39.47008
    vertex -47.4139714389101 31.7273085610899 39.37008
  endloop
endfacet
facet normal .471396736826053 .881921264348325 0
  outer loop
    vertex -48.419811156421 32.3993891735015 39.37008
    vertex -48.419811156421 32.3993891735015 39.47008
    vertex -47.8837942163228 32.1128821499607 39.37008
  endloop
endfacet
facet normal .290284677254504 .956940335732196 0
  outer loop
    vertex -49.0014234287986 32.5758193274726 39.37008
    vertex -49.0014234287986 32.5758193274726 39.47008
    vertex -48.419811156421 32.3993891735015 39.37008
  endloop
endfacet
facet normal 9.80171403295161E-02 .995184726672201 0
  outer loop
    vertex -49.60628 32.6353925 39.37008
    vertex -49.60628 32.6353925 39.47008
    vertex -49.0014234287986 32.5758193274726 39.37008
  endloop
endfacet
facet normal -.098017140329515 .995184726672201 0
  outer loop
    vertex -50.2111365712014 32.5758193274726 39.37008
    vertex -50.2111365712014 32.5758193274726 39.47008
    vertex -49.60628 32.6353925 39.37008
  endloop
endfacet
facet normal -.290284677254507 .956940335732195 0
  outer loop
    vertex -50.792748843579 32.3993891735015 39.37008
    vertex -50.792748843579 32.3993891735015 39.47008
    vertex -50.2111365712014 32.5758193274726 39.37008
  endloop
endfacet
facet normal -.471396736826053 .881921264348325 0
  outer loop
    vertex -51.3287657836772 32.1128821499607 39.37008
    vertex -51.3287657836772 32.1128821499607 39.47008
    vertex -50.792748843579 32.3993891735015 39.37008
  endloop
endfacet
facet normal -.634393284163625 .773010453362754 0
  outer loop
    vertex -51.7985885610899 31.7273085610899 39.37008
    vertex -51.7985885610899 31.7273085610899 39.47008
    vertex -51.3287657836772 32.1128821499607 39.37008
  endloop
endfacet
facet normal -.773010453362751 .634393284163628 0
  outer loop
    vertex -52.1841621499607 31.2574857836772 39.37008
    vertex -52.1841621499607 31.2574857836772 39.47008
    vertex -51.7985885610899 31.7273085610899 39.37008
  endloop
endfacet
facet normal -.881921264348325 .471396736826053 0
  outer loop
    vertex -52.4706691735015 30.721468843579 39.37008
    vertex -52.4706691735015 30.721468843579 39.47008
    vertex -52.1841621499607 31.2574857836772 39.37008
  endloop
endfacet
facet normal -.956940335732196 .290284677254505 0
  outer loop
    vertex -52.6470993274726 30.1398565712014 39.37008
    vertex -52.6470993274726 30.1398565712014 39.47008
    vertex -52.4706691735015 30.721468843579 39.37008
  endloop
endfacet
facet normal -.995184726672201 9.80171403295156E-02 0
  outer loop
    vertex -52.7066725 29.535 39.37008
    vertex -52.7066725 29.535 39.47008
    vertex -52.6470993274726 30.1398565712014 39.37008
  endloop
endfacet
facet normal -.995184726672201 -9.80171403295156E-02 0
  outer loop
    vertex -52.6470993274726 28.9301434287986 39.37008
    vertex -52.6470993274726 28.9301434287986 39.47008
    vertex -52.7066725 29.535 39.37008
  endloop
endfacet
facet normal -.956940335732196 -.290284677254505 0
  outer loop
    vertex -52.4706691735015 28.348531156421 39.37008
    vertex -52.4706691735015 28.348531156421 39.47008
    vertex -52.6470993274726 28.9301434287986 39.37008
  endloop
endfacet
facet normal -.881921264348325 -.471396736826053 0
  outer loop
    vertex -52.1841621499607 27.8125142163228 39.37008
    vertex -52.1841621499607 27.8125142163228 39.47008
    vertex -52.4706691735015 28.348531156421 39.37008
  endloop
endfacet
facet normal -.773010453362751 -.634393284163628 0
  outer loop
    vertex -51.7985885610899 27.3426914389101 39.37008
    vertex -51.7985885610899 27.3426914389101 39.47008
    vertex -52.1841621499607 27.8125142163228 39.37008
  endloop
endfacet
facet normal -.634393284163629 -.773010453362751 0
  outer loop
    vertex -51.3287657836772 26.9571178500393 39.37008
    vertex -51.3287657836772 26.9571178500393 39.47008
    vertex -51.7985885610899 27.3426914389101 39.37008
  endloop
endfacet
facet normal -.471396736826053 -.881921264348325 0
  outer loop
    vertex -50.792748843579 26.6706108264985 39.37008
    vertex -50.792748843579 26.6706108264985 39.47008
    vertex -51.3287657836772 26.9571178500393 39.37008
  endloop
endfacet
facet normal -.290284677254502 -.956940335732197 0
  outer loop
    vertex -50.2111365712014 26.4941806725274 39.37008
    vertex -50.2111365712014 26.4941806725274 39.47008
    vertex -50.792748843579 26.6706108264985 39.37008
  endloop
endfacet
facet normal -.098017140329515 -.995184726672201 0
  outer loop
    vertex -49.60628 26.4346075 39.37008
    vertex -49.60628 26.4346075 39.47008
    vertex -50.2111365712014 26.4941806725274 39.37008
  endloop
endfacet
facet normal 9.80171403295161E-02 -.995184726672201 0
  outer loop
    vertex -49.0014234287986 26.4941806725274 39.37008
    vertex -49.0014234287986 26.4941806725274 39.47008
    vertex -49.60628 26.4346075 39.37008
  endloop
endfacet
facet normal .290284677254498 -.956940335732198 0
  outer loop
    vertex -48.419811156421 26.6706108264985 39.37008
    vertex -48.419811156421 26.6706108264985 39.47008
    vertex -49.0014234287986 26.4941806725274 39.37008
  endloop
endfacet
facet normal .471396736826053 -.881921264348325 0
  outer loop
    vertex -47.8837942163228 26.9571178500393 39.37008
    vertex -47.8837942163228 26.9571178500393 39.47008
    vertex -48.419811156421 26.6706108264985 39.37008
  endloop
endfacet
facet normal .634393284163634 -.773010453362746 0
  outer loop
    vertex -47.4139714389101 27.3426914389101 39.37008
    vertex -47.4139714389101 27.3426914389101 39.47008
    vertex -47.8837942163228 26.9571178500393 39.37008
  endloop
endfacet
facet normal .773010453362746 -.634393284163635 0
  outer loop
    vertex -47.0283978500393 27.8125142163228 39.37008
    vertex -47.0283978500393 27.8125142163228 39.47008
    vertex -47.4139714389101 27.3426914389101 39.37008
  endloop
endfacet
facet normal .881921264348325 -.471396736826053 0
  outer loop
    vertex -46.7418908264985 28.348531156421 39.37008
    vertex -46.7418908264985 28.348531156421 39.47008
    vertex -47.0283978500393 27.8125142163228 39.37008
  endloop
endfacet
facet normal .956940335732199 -.290284677254495 0
  outer loop
    vertex -46.5654606725274 28.9301434287986 39.37008
    vertex -46.5654606725274 28.9301434287986 39.47008
    vertex -46.7418908264985 28.348531156421 39.37008
  endloop
endfacet
facet normal .995184726672201 -9.80171403295156E-02 0
  outer loop
    vertex -46.5058875 29.535 39.37008
    vertex -46.5058875 29.535 39.47008
    vertex -46.5654606725274 28.9301434287986 39.37008
  endloop
endfacet
facet normal 1 0 0
  outer loop
    vertex 62.00785 -62.00785 2
    vertex 62.00785 62.00785 39.37008
    vertex 62.00785 -62.00785 39.37008
  endloop
endfacet
facet normal 1 0 0
  outer loop
    vertex 62.00785 -62.00785 2
    vertex 62.00785 62.00785 2
    vertex 62.00785 62.00785 39.37008
  endloop
endfacet
facet normal -1 0 0
  outer loop
    vertex -62.00785 62.00785 2
    vertex -62.00785 -62.00785 39.37008
    vertex -62.00785 62.00785 39.37008
  endloop
endfacet
facet normal -1 0 0
  outer loop
    vertex -62.00785 62.00785 2
    vertex -62.00785 -62.00785 2
    vertex -62.00785 -62.00785 39.37008
  endloop
endfacet
facet normal 0 -1 0
  outer loop
    vertex -62.00785 -62.00785 2
    vertex 62.00785 -62.00785 39.37008
    vertex -62.00785 -62.00785 39.37008
  endloop
endfacet
facet normal 0 -1 0
  outer loop
    vertex -62.00785 -62.00785 2
    vertex 62.00785 -62.00785 2
    vertex 62.00785 -62.00785 39.37008
  endloop
endfacet
facet normal 0 1 0
  outer loop
    vertex 62.00785 62.00785 2
    vertex -62.00785 62.00785 39.37008
    vertex 62.00785 62.00785 39.37008
  endloop
endfacet
facet normal 0 1 0
  outer loop
    vertex 62.00785 62.00785 2
    vertex -62.00785 62.00785 2
    vertex -62.00785 62.00785 39.37008
  endloop
endfacet
facet normal 0 0 -1
  outer loop
    vertex 62.00785 -62.00785 2
    vertex -62.00785 62.00785 2
    vertex 62.00785 62.00785 2
  endloop
endfacet
facet normal 0 0 -1
  outer loop
    vertex 62.00785 -62.00785 2
    vertex -62.00785 -62.00785 2
    vertex -62.00785 62.00785 2
  endloop
endfacet
facet normal 0 0 1
  outer loop
    vertex 62.00785 -62.00785 39.37008
    vertex 62.00785 62.00785 39.37008
    vertex -62.00785 62.00785 39.37008
  endloop
endfacet
facet normal 0 0 1
  outer loop
    vertex 62.00785 -62.00785 39.37008
    vertex -62.00785 62.00785 39.37008
    vertex -62.00785 -62.00785 39.37008
  endloop
endfacet
facet normal 1 0 0
  outer loop
    vertex 64.00785 24.01575 0
    vertex 64.00785 35.03937 19.68504
    vertex 64.00785 24.01575 19.68504
  endloop
endfacet
facet normal 1 0 0
  outer loop
    vertex 64.00785 24.01575 0
    vertex 64.00785 35.03937 0
    vertex 64.00785 35.03937 19.68504
  endloop
endfacet
facet normal 0 1 0
  outer loop
    vertex 64.00785 35.03937 19.68504
    vertex 64.00785 35.03937 0
    vertex 62.00785 35.03937 19.68504
  endloop
endfacet
facet normal 0 1 0
  outer loop
    vertex 62.00785 35.03937 19.68504
    vertex 64.00785 35.03937 0
    vertex 62.00785 35.03937 2
  endloop
endfacet
facet normal 0 1 0
  outer loop
    vertex 62.00785 35.03937 2
    vertex 64.00785 35.03937 0
    vertex 41.338565 35.03937 2
  endloop
endfacet
facet normal 0 1 0
  outer loop
    vertex 41.338565 35.03937 0
    vertex 41.338565 35.03937 2
    vertex 64.00785 35.03937 0
  endloop
endfacet
facet normal -1 0 0
  outer loop
    vertex 41.338565 35.03937 0
    vertex 41.338565 24.01575 2
    vertex 41.338565 35.03937 2
  endloop
endfacet
facet normal -1 0 0
  outer loop
    vertex 41.338565 35.03937 0
    vertex 41.338565 24.01575 0
    vertex 41.338565 24.01575 2
  endloop
endfacet
facet normal 0 -1 0
  outer loop
    vertex 62.00785 24.01575 2
    vertex 41.338565 24.01575 2
    vertex 41.338565 24.01575 0
  endloop
endfacet
facet normal 0 -1 0
  outer loop
    vertex 62.00785 24.01575 2
    vertex 41.338565 24.01575 0
    vertex 64.00785 24.01575 0
  endloop
endfacet
facet normal 0 -1 0
  outer loop
    vertex 62.00785 24.01575 2
    vertex 64.00785 24.01575 19.68504
    vertex 62.00785 24.01575 19.68504
  endloop
endfacet
facet normal 0 -1 0
  outer loop
    vertex 62.00785 24.01575 2
    vertex 64.00785 24.01575 0
    vertex 64.00785 24.01575 19.68504
  endloop
endfacet
facet normal -1 0 0
  outer loop
    vertex 62.00785 35.03937 19.68504
    vertex 62.00785 24.01575 2
    vertex 62.00785 24.01575 19.68504
  endloop
endfacet
facet normal -1 0 0
  outer loop
    vertex 62.00785 35.03937 19.68504
    vertex 62.00785 35.03937 2
    vertex 62.00785 24.01575 2
  endloop
endfacet
facet normal 0 0 1
  outer loop
    vertex 64.00785 24.01575 19.68504
    vertex 64.00785 35.03937 19.68504
    vertex 62.00785 24.01575 19.68504
  endloop
endfacet
facet normal 0 0 1
  outer loop
    vertex 62.00785 24.01575 19.68504
    vertex 64.00785 35.03937 19.68504
    vertex 62.00785 35.03937 19.68504
  endloop
endfacet
facet normal 0 0 1
  outer loop
    vertex 62.00785 24.01575 2
    vertex 62.00785 35.03937 2
    vertex 41.338565 24.01575 2
  endloop
endfacet
facet normal 0 0 1
  outer loop
    vertex 62.00785 35.03937 2
    vertex 41.338565 35.03937 2
    vertex 41.338565 24.01575 2
  endloop
endfacet
facet normal 0 0 -1
  outer loop
    vertex 64.00785 24.01575 0
    vertex 41.338565 24.01575 0
    vertex 64.00785 35.03937 0
  endloop
endfacet
facet normal 0 0 -1
  outer loop
    vertex 64.00785 35.03937 0
    vertex 41.338565 24.01575 0
    vertex 41.338565 35.03937 0
  endloop
endfacet
facet normal 1 0 0
  outer loop
    vertex 64.00785 4.33071 0
    vertex 64.00785 15.35433 19.68504
    vertex 64.00785 4.33071 19.68504
  endloop
endfacet
facet normal 1 0 0
  outer loop
    vertex 64.00785 4.33071 0
    vertex 64.00785 15.35433 0
    vertex 64.00785 15.35433 19.68504
  endloop
endfacet
facet normal 0 1 0
  outer loop
    vertex 64.00785 15.35433 19.68504
    vertex 64.00785 15.35433 0
    vertex 62.00785 15.35433 19.68504
  endloop
endfacet
facet normal 0 1 0
  outer loop
    vertex 62.00785 15.35433 19.68504
    vertex 64.00785 15.35433 0
    vertex 62.00785 15.35433 2
  endloop
endfacet
facet normal 0 1 0
  outer loop
    vertex 62.00785 15.35433 2
    vertex 64.00785 15.35433 0
    vertex 41.338565 15.35433 2
  endloop
endfacet
facet normal 0 1 0
  outer loop
    vertex 41.338565 15.35433 0
    vertex 41.338565 15.35433 2
    vertex 64.00785 15.35433 0
  endloop
endfacet
facet normal -1 0 0
  outer loop
    vertex 41.338565 15.35433 0
    vertex 41.338565 4.33071 2
    vertex 41.338565 15.35433 2
  endloop
endfacet
facet normal -1 0 0
  outer loop
    vertex 41.338565 15.35433 0
    vertex 41.338565 4.33071 0
    vertex 41.338565 4.33071 2
  endloop
endfacet
facet normal 0 -1 0
  outer loop
    vertex 62.00785 4.33071 2
    vertex 41.338565 4.33071 2
    vertex 41.338565 4.33071 0
  endloop
endfacet
facet normal 0 -1 0
  outer loop
    vertex 62.00785 4.33071 2
    vertex 41.338565 4.33071 0
    vertex 64.00785 4.33071 0
  endloop
endfacet
facet normal 0 -1 0
  outer loop
    vertex 62.00785 4.33071 2
    vertex 64.00785 4.33071 19.68504
    vertex 62.00785 4.33071 19.68504
  endloop
endfacet
facet normal 0 -1 0
  outer loop
    vertex 62.00785 4.33071 2
    vertex 64.00785 4.33071 0
    vertex 64.00785 4.33071 19.68504
  endloop
endfacet
facet normal -1 0 0
  outer loop
    vertex 62.00785 15.35433 19.68504
    vertex 62.00785 4.33071 2
    vertex 62.00785 4.33071 19.68504
  endloop
endfacet
facet normal -1 0 0
  outer loop
    vertex 62.00785 15.35433 19.68504
    vertex 62.00785 15.35433 2
    vertex 62.00785 4.33071 2
  endloop
endfacet
facet normal 0 0 1
  outer loop
    vertex 64.00785 4.33071 19.68504
    vertex 64.00785 15.35433 19.68504
    vertex 62.00785 4.33071 19.68504
  endloop
endfacet
facet normal 0 0 1
  outer loop
    vertex 62.00785 4.33071 19.68504
    vertex 64.00785 15.35433 19.68504
    vertex 62.00785 15.35433 19.68504
  endloop
endfacet
facet normal 0 0 1
  outer loop
    vertex 62.00785 4.33071 2
    vertex 62.00785 15.35433 2
    vertex 41.338565 4.33071 2
  endloop
endfacet
facet normal 0 0 1
  outer loop
    vertex 62.00785 15.35433 2
    vertex 41.338565 15.35433 2
    vertex 41.338565 4.33071 2
  endloop
endfacet
facet normal 0 0 -1
  outer loop
    vertex 64.00785 4.33071 0
    vertex 41.338565 4.33071 0
    vertex 64.00785 15.35433 0
  endloop
endfacet
facet normal 0 0 -1
  outer loop
    vertex 64.00785 15.35433 0
    vertex 41.338565 4.33071 0
    vertex 41.338565 15.35433 0
  endloop
endfacet
facet normal 1 0 0
  outer loop
    vertex 64.00785 -15.35433 0
    vertex 64.00785 -4.33071 19.68504
    vertex 64.00785 -15.35433 19.68504
  endloop
endfacet
facet normal 1 0 0
  outer loop
    vertex 64.00785 -15.35433 0
    vertex 64.00785 -4.33071 0
    vertex 64.00785 -4.33071 19.68504
  endloop
endfacet
facet normal 0 1 0
  outer loop
    vertex 64.00785 -4.33071 19.68504
    vertex 64.00785 -4.33071 0
    vertex 62.00785 -4.33071 19.68504
  endloop
endfacet
facet normal 0 1 0
  outer loop
    vertex 62.00785 -4.33071 19.68504
    vertex 64.00785 -4.33071 0
    vertex 62.00785 -4.33071 2
  endloop
endfacet
facet normal 0 1 0
  outer loop
    vertex 62.00785 -4.33071 2
    vertex 64.00785 -4.33071 0
    vertex 41.338565 -4.33071 2
  endloop
endfacet
facet normal 0 1 0
  outer loop
    vertex 41.338565 -4.33071 0
    vertex 41.338565 -4.33071 2
    vertex 64.00785 -4.33071 0
  endloop
endfacet
facet normal -1 0 0
  outer loop
    vertex 41.338565 -4.33071 0
    vertex 41.338565 -15.35433 2
    vertex 41.338565 -4.33071 2
  endloop
endfacet
facet normal -1 0 0
  outer loop
    vertex 41.338565 -4.33071 0
    vertex 41.338565 -15.35433 0
    vertex 41.338565 -15.35433 2
  endloop
endfacet
facet normal 0 -1 0
  outer loop
    vertex 62.00785 -15.35433 2
    vertex 41.338565 -15.35433 2
    vertex 41.338565 -15.35433 0
  endloop
endfacet
facet normal 0 -1 0
  outer loop
    vertex 62.00785 -15.35433 2
    vertex 41.338565 -15.35433 0
    vertex 64.00785 -15.35433 0
  endloop
endfacet
facet normal 0 -1 0
  outer loop
    vertex 62.00785 -15.35433 2
    vertex 64.00785 -15.35433 19.68504
    vertex 62.00785 -15.35433 19.68504
  endloop
endfacet
facet normal 0 -1 0
  outer loop
    vertex 62.00785 -15.35433 2
    vertex 64.00785 -15.35433 0
    vertex 64.00785 -15.35433 19.68504
  endloop
endfacet
facet normal -1 0 0
  outer loop
    vertex 62.00785 -4.33071 19.68504
    vertex 62.00785 -15.35433 2
    vertex 62.00785 -15.35433 19.68504
  endloop
endfacet
facet normal -1 0 0
  outer loop
    vertex 62.00785 -4.33071 19.68504
    vertex 62.00785 -4.33071 2
    vertex 62.00785 -15.35433 2
  endloop
endfacet
facet normal 0 0 1
  outer loop
    vertex 64.00785 -15.35433 19.68504
    vertex 64.00785 -4.33071 19.68504
    vertex 62.00785 -15.35433 19.68504
  endloop
endfacet
facet normal 0 0 1
  outer loop
    vertex 62.00785 -15.35433 19.68504
    vertex 64.00785 -4.33071 19.68504
    vertex 62.00785 -4.33071 19.68504
  endloop
endfacet
facet normal 0 0 1
  outer loop
    vertex 62.00785 -15.35433 2
    vertex 62.00785 -4.33071 2
    vertex 41.338565 -15.35433 2
  endloop
endfacet
facet normal 0 0 1
  outer loop
    vertex 62.00785 -4.33071 2
    vertex 41.338565 -4.33071 2
    vertex 41.338565 -15.35433 2
  endloop
endfacet
facet normal 0 0 -1
  outer loop
    vertex 64.00785 -15.35433 0
    vertex 41.338565 -15.35433 0
    vertex 64.00785 -4.33071 0
  endloop
endfacet
facet normal 0 0 -1
  outer loop
    vertex 64.00785 -4.33071 0
    vertex 41.338565 -15.35433 0
    vertex 41.338565 -4.33071 0
  endloop
endfacet
facet normal 1 0 0
  outer loop
    vertex 64.00785 -35.03937 0
    vertex 64.00785 -24.01575 19.68504
    vertex 64.00785 -35.03937 19.68504
  endloop
endfacet
facet normal 1 0 0
  outer loop
    vertex 64.00785 -35.03937 0
    vertex 64.00785 -24.01575 0
    vertex 64.00785 -24.01575 19.68504
  endloop
endfacet
facet normal 0 1 0
  outer loop
    vertex 64.00785 -24.01575 19.68504
    vertex 64.00785 -24.01575 0
    vertex 62.00785 -24.01575 19.68504
  endloop
endfacet
facet normal 0 1 0
  outer loop
    vertex 62.00785 -24.01575 19.68504
    vertex 64.00785 -24.01575 0
    vertex 62.00785 -24.01575 2
  endloop
endfacet
facet normal 0 1 0
  outer loop
    vertex 62.00785 -24.01575 2
    vertex 64.00785 -24.01575 0
    vertex 41.338565 -24.01575 2
  endloop
endfacet
facet normal 0 1 0
  outer loop
    vertex 41.338565 -24.01575 0
    vertex 41.338565 -24.01575 2
    vertex 64.00785 -24.01575 0
  endloop
endfacet
facet normal -1 0 0
  outer loop
    vertex 41.338565 -24.01575 0
    vertex 41.338565 -35.03937 2
    vertex 41.338565 -24.01575 2
  endloop
endfacet
facet normal -1 0 0
  outer loop
    vertex 41.338565 -24.01575 0
    vertex 41.338565 -35.03937 0
    vertex 41.338565 -35.03937 2
  endloop
endfacet
facet normal 0 -1 0
  outer loop
    vertex 62.00785 -35.03937 2
    vertex 41.338565 -35.03937 2
    vertex 41.338565 -35.03937 0
  endloop
endfacet
facet normal 0 -1 0
  outer loop
    vertex 62.00785 -35.03937 2
    vertex 41.338565 -35.03937 0
    vertex 64.00785 -35.03937 0
  endloop
endfacet
facet normal 0 -1 0
  outer loop
    vertex 62.00785 -35.03937 2
    vertex 64.00785 -35.03937 19.68504
    vertex 62.00785 -35.03937 19.68504
  endloop
endfacet
facet normal 0 -1 0
  outer loop
    vertex 62.00785 -35.03937 2
    vertex 64.00785 -35.03937 0
    vertex 64.00785 -35.03937 19.68504
  endloop
endfacet
facet normal -1 0 0
  outer loop
    vertex 62.00785 -24.01575 19.68504
    vertex 62.00785 -35.03937 2
    vertex 62.00785 -35.03937 19.68504
  endloop
endfacet
facet normal -1 0 0
  outer loop
    vertex 62.00785 -24.01575 19.68504
    vertex 62.00785 -24.01575 2
    vertex 62.00785 -35.03937 2
  endloop
endfacet
facet normal 0 0 1
  outer loop
    vertex 64.00785 -35.03937 19.68504
    vertex 64.00785 -24.01575 19.68504
    vertex 62.00785 -35.03937 19.68504
  endloop
endfacet
facet normal 0 0 1
  outer loop
    vertex 62.00785 -35.03937 19.68504
    vertex 64.00785 -24.01575 19.68504
    vertex 62.00785 -24.01575 19.68504
  endloop
endfacet
facet normal 0 0 1
  outer loop
    vertex 62.00785 -35.03937 2
    vertex 62.00785 -24.01575 2
    vertex 41.338565 -35.03937 2
  endloop
endfacet
facet normal 0 0 1
  outer loop
    vertex 62.00785 -24.01575 2
    vertex 41.338565 -24.01575 2
    vertex 41.338565 -35.03937 2
  endloop
endfacet
facet normal 0 0 -1
  outer loop
    vertex 64.00785 -35.03937 0
    vertex 41.338565 -35.03937 0
    vertex 64.00785 -24.01575 0
  endloop
endfacet
facet normal 0 0 -1
  outer loop
    vertex 64.00785 -24.01575 0
    vertex 41.338565 -35.03937 0
    vertex 41.338565 -24.01575 0
  endloop
endfacet
facet normal -1 0 0
  outer loop
    vertex -64.00785 -24.01575 0
    vertex -64.00785 -35.03937 19.68504
    vertex -64.00785 -24.01575 19.68504
  endloop
endfacet
facet normal -1 0 0
  outer loop
    vertex -64.00785 -24.01575 0
    vertex -64.00785 -35.03937 0
    vertex -64.00785 -35.03937 19.68504
  endloop
endfacet
facet normal 0 -1 0
  outer loop
    vertex -64.00785 -35.03937 19.68504
    vertex -64.00785 -35.03937 0
    vertex -62.00785 -35.03937 19.68504
  endloop
endfacet
facet normal 0 -1 0
  outer loop
    vertex -62.00785 -35.03937 19.68504
    vertex -64.00785 -35.03937 0
    vertex -62.00785 -35.03937 2
  endloop
endfacet
facet normal 0 -1 0
  outer loop
    vertex -62.00785 -35.03937 2
    vertex -64.00785 -35.03937 0
    vertex -41.338565 -35.03937 2
  endloop
endfacet
facet normal 0 -1 0
  outer loop
    vertex -41.338565 -35.03937 0
    vertex -41.338565 -35.03937 2
    vertex -64.00785 -35.03937 0
  endloop
endfacet
facet normal 1 0 0
  outer loop
    vertex -41.338565 -35.03937 0
    vertex -41.338565 -24.01575 2
    vertex -41.338565 -35.03937 2
  endloop
endfacet
facet normal 1 0 0
  outer loop
    vertex -41.338565 -35.03937 0
    vertex -41.338565 -24.01575 0
    vertex -41.338565 -24.01575 2
  endloop
endfacet
facet normal 0 1 0
  outer loop
    vertex -62.00785 -24.01575 2
    vertex -41.338565 -24.01575 2
    vertex -41.338565 -24.01575 0
  endloop
endfacet
facet normal 0 1 0
  outer loop
    vertex -62.00785 -24.01575 2
    vertex -41.338565 -24.01575 0
    vertex -64.00785 -24.01575 0
  endloop
endfacet
facet normal 0 1 0
  outer loop
    vertex -62.00785 -24.01575 2
    vertex -64.00785 -24.01575 19.68504
    vertex -62.00785 -24.01575 19.68504
  endloop
endfacet
facet normal 0 1 0
  outer loop
    vertex -62.00785 -24.01575 2
    vertex -64.00785 -24.01575 0
    vertex -64.00785 -24.01575 19.68504
  endloop
endfacet
facet normal 1 0 0
  outer loop
    vertex -62.00785 -35.03937 19.68504
    vertex -62.00785 -24.01575 2
    vertex -62.00785 -24.01575 19.68504
  endloop
endfacet
facet normal 1 0 0
  outer loop
    vertex -62.00785 -35.03937 19.68504
    vertex -62.00785 -35.03937 2
    vertex -62.00785 -24.01575 2
  endloop
endfacet
facet normal 0 0 1
  outer loop
    vertex -64.00785 -24.01575 19.68504
    vertex -64.00785 -35.03937 19.68504
    vertex -62.00785 -24.01575 19.68504
  endloop
endfacet
facet normal 0 0 1
  outer loop
    vertex -62.00785 -24.01575 19.68504
    vertex -64.00785 -35.03937 19.68504
    vertex -62.00785 -35.03937 19.68504
  endloop
endfacet
facet normal 0 0 1
  outer loop
    vertex -62.00785 -24.01575 2
    vertex -62.00785 -35.03937 2
    vertex -41.338565 -24.01575 2
  endloop
endfacet
facet normal 0 0 1
  outer loop
    vertex -62.00785 -35.03937 2
    vertex -41.338565 -35.03937 2
    vertex -41.338565 -24.01575 2
  endloop
endfacet
facet normal 0 0 -1
  outer loop
    vertex -64.00785 -24.01575 0
    vertex -41.338565 -24.01575 0
    vertex -64.00785 -35.03937 0
  endloop
endfacet
facet normal 0 0 -1
  outer loop
    vertex -64.00785 -35.03937 0
    vertex -41.338565 -24.01575 0
    vertex -41.338565 -35.03937 0
  endloop
endfacet
facet normal -1 0 0
  outer loop
    vertex -64.00785 -4.33071 0
    vertex -64.00785 -15.35433 19.68504
    vertex -64.00785 -4.33071 19.68504
  endloop
endfacet
facet normal -1 0 0
  outer loop
    vertex -64.00785 -4.33071 0
    vertex -64.00785 -15.35433 0
    vertex -64.00785 -15.35433 19.68504
  endloop
endfacet
facet normal 0 -1 0
  outer loop
    vertex -64.00785 -15.35433 19.68504
    vertex -64.00785 -15.35433 0
    vertex -62.00785 -15.35433 19.68504
  endloop
endfacet
facet normal 0 -1 0
  outer loop
    vertex -62.00785 -15.35433 19.68504
    vertex -64.00785 -15.35433 0
    vertex -62.00785 -15.35433 2
  endloop
endfacet
facet normal 0 -1 0
  outer loop
    vertex -62.00785 -15.35433 2
    vertex -64.00785 -15.35433 0
    vertex -41.338565 -15.35433 2
  endloop
endfacet
facet normal 0 -1 0
  outer loop
    vertex -41.338565 -15.35433 0
    vertex -41.338565 -15.35433 2
    vertex -64.00785 -15.35433 0
  endloop
endfacet
facet normal 1 0 0
  outer loop
    vertex -41.338565 -15.35433 0
    vertex -41.338565 -4.33071 2
    vertex -41.338565 -15.35433 2
  endloop
endfacet
facet normal 1 0 0
  outer loop
    vertex -41.338565 -15.35433 0
    vertex -41.338565 -4.33071 0
    vertex -41.338565 -4.33071 2
  endloop
endfacet
facet normal 0 1 0
  outer loop
    vertex -62.00785 -4.33071 2
    vertex -41.338565 -4.33071 2
    vertex -41.338565 -4.33071 0
  endloop
endfacet
facet normal 0 1 0
  outer loop
    vertex -62.00785 -4.33071 2
    vertex -41.338565 -4.33071 0
    vertex -64.00785 -4.33071 0
  endloop
endfacet
facet normal 0 1 0
  outer loop
    vertex -62.00785 -4.33071 2
    vertex -64.00785 -4.33071 19.68504
    vertex -62.00785 -4.33071 19.68504
  endloop
endfacet
facet normal 0 1 0
  outer loop
    vertex -62.00785 -4.33071 2
    vertex -64.00785 -4.33071 0
    vertex -64.00785 -4.33071 19.68504
  endloop
endfacet
facet normal 1 0 0
  outer loop
    vertex -62.00785 -15.35433 19.68504
    vertex -62.00785 -4.33071 2
    vertex -62.00785 -4.33071 19.68504
  endloop
endfacet
facet normal 1 0 0
  outer loop
    vertex -62.00785 -15.35433 19.68504
    vertex -62.00785 -15.35433 2
    vertex -62.00785 -4.33071 2
  endloop
endfacet
facet normal 0 0 1
  outer loop
    vertex -64.00785 -4.33071 19.68504
    vertex -64.00785 -15.35433 19.68504
    vertex -62.00785 -4.33071 19.68504
  endloop
endfacet
facet normal 0 0 1
  outer loop
    vertex -62.00785 -4.33071 19.68504
    vertex -64.00785 -15.35433 19.68504
    vertex -62.00785 -15.35433 19.68504
  endloop
endfacet
facet normal 0 0 1
  outer loop
    vertex -62.00785 -4.33071 2
    vertex -62.00785 -15.35433 2
    vertex -41.338565 -4.33071 2
  endloop
endfacet
facet normal 0 0 1
  outer loop
    vertex -62.00785 -15.35433 2
    vertex -41.338565 -15.35433 2
    vertex -41.338565 -4.33071 2
  endloop
endfacet
facet normal 0 0 -1
  outer loop
    vertex -64.00785 -4.33071 0
    vertex -41.338565 -4.33071 0
    vertex -64.00785 -15.35433 0
  endloop
endfacet
facet normal 0 0 -1
  outer loop
    vertex -64.00785 -15.35433 0
    vertex -41.338565 -4.33071 0
    vertex -41.338565 -15.35433 0
  endloop
endfacet
facet normal -1 0 0
  outer loop
    vertex -64.00785 15.35433 0
    vertex -64.00785 4.33071 19.68504
    vertex -64.00785 15.35433 19.68504
  endloop
endfacet
facet normal -1 0 0
  outer loop
    vertex -64.00785 15.35433 0
    vertex -64.00785 4.33071 0
    vertex -64.00785 4.33071 19.68504
  endloop
endfacet
facet normal 0 -1 0
  outer loop
    vertex -64.00785 4.33071 19.68504
    vertex -64.00785 4.33071 0
    vertex -62.00785 4.33071 19.68504
  endloop
endfacet
facet normal 0 -1 0
  outer loop
    vertex -62.00785 4.33071 19.68504
    vertex -64.00785 4.33071 0
    vertex -62.00785 4.33071 2
  endloop
endfacet
facet normal 0 -1 0
  outer loop
    vertex -62.00785 4.33071 2
    vertex -64.00785 4.33071 0
    vertex -41.338565 4.33071 2
  endloop
endfacet
facet normal 0 -1 0
  outer loop
    vertex -41.338565 4.33071 0
    vertex -41.338565 4.33071 2
    vertex -64.00785 4.33071 0
  endloop
endfacet
facet normal 1 0 0
  outer loop
    vertex -41.338565 4.33071 0
    vertex -41.338565 15.35433 2
    vertex -41.338565 4.33071 2
  endloop
endfacet
facet normal 1 0 0
  outer loop
    vertex -41.338565 4.33071 0
    vertex -41.338565 15.35433 0
    vertex -41.338565 15.35433 2
  endloop
endfacet
facet normal 0 1 0
  outer loop
    vertex -62.00785 15.35433 2
    vertex -41.338565 15.35433 2
    vertex -41.338565 15.35433 0
  endloop
endfacet
facet normal 0 1 0
  outer loop
    vertex -62.00785 15.35433 2
    vertex -41.338565 15.35433 0
    vertex -64.00785 15.35433 0
  endloop
endfacet
facet normal 0 1 0
  outer loop
    vertex -62.00785 15.35433 2
    vertex -64.00785 15.35433 19.68504
    vertex -62.00785 15.35433 19.68504
  endloop
endfacet
facet normal 0 1 0
  outer loop
    vertex -62.00785 15.35433 2
    vertex -64.00785 15.35433 0
    vertex -64.00785 15.35433 19.68504
  endloop
endfacet
facet normal 1 0 0
  outer loop
    vertex -62.00785 4.33071 19.68504
    vertex -62.00785 15.35433 2
    vertex -62.00785 15.35433 19.68504
  endloop
endfacet
facet normal 1 0 0
  outer loop
    vertex -62.00785 4.33071 19.68504
    vertex -62.00785 4.33071 2
    vertex -62.00785 15.35433 2
  endloop
endfacet
facet normal 0 0 1
  outer loop
    vertex -64.00785 15.35433 19.68504
    vertex -64.00785 4.33071 19.68504
    vertex -62.00785 15.35433 19.68504
  endloop
endfacet
facet normal 0 0 1
  outer loop
    vertex -62.00785 15.35433 19.68504
    vertex -64.00785 4.33071 19.68504
    vertex -62.00785 4.33071 19.68504
  endloop
endfacet
facet normal 0 0 1
  outer loop
    vertex -62.00785 15.35433 2
    vertex -62.00785 4.33071 2
    vertex -41.338565 15.35433 2
  endloop
endfacet
facet normal 0 0 1
  outer loop
    vertex -62.00785 4.33071 2
    vertex -41.338565 4.33071 2
    vertex -41.338565 15.35433 2
  endloop
endfacet
facet normal 0 0 -1
  outer loop
    vertex -64.00785 15.35433 0
    vertex -41.338565 15.35433 0
    vertex -64.00785 4.33071 0
  endloop
endfacet
facet normal 0 0 -1
  outer loop
    vertex -64.00785 4.33071 0
    vertex -41.338565 15.35433 0
    vertex -41.338565 4.33071 0
  endloop
endfacet
facet normal -1 0 0
  outer loop
    vertex -64.00785 35.03937 0
    vertex -64.00785 24.01575 19.68504
    vertex -64.00785 35.03937 19.68504
  endloop
endfacet
facet normal -1 0 0
  outer loop
    vertex -64.00785 35.03937 0
    vertex -64.00785 24.01575 0
    vertex -64.00785 24.01575 19.68504
  endloop
endfacet
facet normal 0 -1 0
  outer loop
    vertex -64.00785 24.01575 19.68504
    vertex -64.00785 24.01575 0
    vertex -62.00785 24.01575 19.68504
  endloop
endfacet
facet normal 0 -1 0
  outer loop
    vertex -62.00785 24.01575 19.68504
    vertex -64.00785 24.01575 0
    vertex -62.00785 24.01575 2
  endloop
endfacet
facet normal 0 -1 0
  outer loop
    vertex -62.00785 24.01575 2
    vertex -64.00785 24.01575 0
    vertex -41.338565 24.01575 2
  endloop
endfacet
facet normal 0 -1 0
  outer loop
    vertex -41.338565 24.01575 0
    vertex -41.338565 24.01575 2
    vertex -64.00785 24.01575 0
  endloop
endfacet
facet normal 1 0 0
  outer loop
    vertex -41.338565 24.01575 0
    vertex -41.338565 35.03937 2
    vertex -41.338565 24.01575 2
  endloop
endfacet
facet normal 1 0 0
  outer loop
    vertex -41.338565 24.01575 0
    vertex -41.338565 35.03937 0
    vertex -41.338565 35.03937 2
  endloop
endfacet
facet normal 0 1 0
  outer loop
    vertex -62.00785 35.03937 2
    vertex -41.338565 35.03937 2
    vertex -41.338565 35.03937 0
  endloop
endfacet
facet normal 0 1 0
  outer loop
    vertex -62.00785 35.03937 2
    vertex -41.338565 35.03937 0
    vertex -64.00785 35.03937 0
  endloop
endfacet
facet normal 0 1 0
  outer loop
    vertex -62.00785 35.03937 2
    vertex -64.00785 35.03937 19.68504
    vertex -62.00785 35.03937 19.68504
  endloop
endfacet
facet normal 0 1 0
  outer loop
    vertex -62.00785 35.03937 2
    vertex -64.00785 35.03937 0
    vertex -64.00785 35.03937 19.68504
  endloop
endfacet
facet normal 1 0 0
  outer loop
    vertex -62.00785 24.01575 19.68504
    vertex -62.00785 35.03937 2
    vertex -62.00785 35.03937 19.68504
  endloop
endfacet
facet normal 1 0 0
  outer loop
    vertex -62.00785 24.01575 19.68504
    vertex -62.00785 24.01575 2
    vertex -62.00785 35.03937 2
  endloop
endfacet
facet normal 0 0 1
  outer loop
    vertex -64.00785 35.03937 19.68504
    vertex -64.00785 24.01575 19.68504
    vertex -62.00785 35.03937 19.68504
  endloop
endfacet
facet normal 0 0 1
  outer loop
    vertex -62.00785 35.03937 19.68504
    vertex -64.00785 24.01575 19.68504
    vertex -62.00785 24.01575 19.68504
  endloop
endfacet
facet normal 0 0 1
  outer loop
    vertex -62.00785 35.03937 2
    vertex -62.00785 24.01575 2
    vertex -41.338565 35.03937 2
  endloop
endfacet
facet normal 0 0 1
  outer loop
    vertex -62.00785 24.01575 2
    vertex -41.338565 24.01575 2
    vertex -41.338565 35.03937 2
  endloop
endfacet
facet normal 0 0 -1
  outer loop
    vertex -64.00785 35.03937 0
    vertex -41.338565 35.03937 0
    vertex -64.00785 24.01575 0
  endloop
endfacet
facet normal 0 0 -1
  outer loop
    vertex -64.00785 24.01575 0
    vertex -41.338565 35.03937 0
    vertex -41.338565 24.01575 0
  endloop
endfacet
facet normal 0 -1 0
  outer loop
    vertex 24.02319 -64.00785 0
    vertex 35.04681 -64.00785 19.68504
    vertex 24.02319 -64.00785 19.68504
  endloop
endfacet
facet normal 0 -1 0
  outer loop
    vertex 24.02319 -64.00785 0
    vertex 35.04681 -64.00785 0
    vertex 35.04681 -64.00785 19.68504
  endloop
endfacet
facet normal 1 0 0
  outer loop
    vertex 35.04681 -64.00785 19.68504
    vertex 35.04681 -64.00785 0
    vertex 35.04681 -62.00785 19.68504
  endloop
endfacet
facet normal 1 0 0
  outer loop
    vertex 35.04681 -62.00785 19.68504
    vertex 35.04681 -64.00785 0
    vertex 35.04681 -62.00785 2
  endloop
endfacet
facet normal 1 0 0
  outer loop
    vertex 35.04681 -62.00785 2
    vertex 35.04681 -64.00785 0
    vertex 35.04681 -41.338565 2
  endloop
endfacet
facet normal 1 0 0
  outer loop
    vertex 35.04681 -41.338565 0
    vertex 35.04681 -41.338565 2
    vertex 35.04681 -64.00785 0
  endloop
endfacet
facet normal 0 1 0
  outer loop
    vertex 35.04681 -41.338565 0
    vertex 24.02319 -41.338565 2
    vertex 35.04681 -41.338565 2
  endloop
endfacet
facet normal 0 1 0
  outer loop
    vertex 35.04681 -41.338565 0
    vertex 24.02319 -41.338565 0
    vertex 24.02319 -41.338565 2
  endloop
endfacet
facet normal -1 0 0
  outer loop
    vertex 24.02319 -62.00785 2
    vertex 24.02319 -41.338565 2
    vertex 24.02319 -41.338565 0
  endloop
endfacet
facet normal -1 0 0
  outer loop
    vertex 24.02319 -62.00785 2
    vertex 24.02319 -41.338565 0
    vertex 24.02319 -64.00785 0
  endloop
endfacet
facet normal -1 0 0
  outer loop
    vertex 24.02319 -62.00785 2
    vertex 24.02319 -64.00785 19.68504
    vertex 24.02319 -62.00785 19.68504
  endloop
endfacet
facet normal -1 0 0
  outer loop
    vertex 24.02319 -62.00785 2
    vertex 24.02319 -64.00785 0
    vertex 24.02319 -64.00785 19.68504
  endloop
endfacet
facet normal 0 1 0
  outer loop
    vertex 35.04681 -62.00785 19.68504
    vertex 24.02319 -62.00785 2
    vertex 24.02319 -62.00785 19.68504
  endloop
endfacet
facet normal 0 1 0
  outer loop
    vertex 35.04681 -62.00785 19.68504
    vertex 35.04681 -62.00785 2
    vertex 24.02319 -62.00785 2
  endloop
endfacet
facet normal 0 0 1
  outer loop
    vertex 24.02319 -64.00785 19.68504
    vertex 35.04681 -64.00785 19.68504
    vertex 24.02319 -62.00785 19.68504
  endloop
endfacet
facet normal 0 0 1
  outer loop
    vertex 24.02319 -62.00785 19.68504
    vertex 35.04681 -64.00785 19.68504
    vertex 35.04681 -62.00785 19.68504
  endloop
endfacet
facet normal 0 0 1
  outer loop
    vertex 24.02319 -62.00785 2
    vertex 35.04681 -62.00785 2
    vertex 24.02319 -41.338565 2
  endloop
endfacet
facet normal 0 0 1
  outer loop
    vertex 35.04681 -62.00785 2
    vertex 35.04681 -41.338565 2
    vertex 24.02319 -41.338565 2
  endloop
endfacet
facet normal 0 0 -1
  outer loop
    vertex 24.02319 -64.00785 0
    vertex 24.02319 -41.338565 0
    vertex 35.04681 -64.00785 0
  endloop
endfacet
facet normal 0 0 -1
  outer loop
    vertex 35.04681 -64.00785 0
    vertex 24.02319 -41.338565 0
    vertex 35.04681 -41.338565 0
  endloop
endfacet
facet normal 0 -1 0
  outer loop
    vertex 4.33319 -64.00785 0
    vertex 15.35681 -64.00785 19.68504
    vertex 4.33319 -64.00785 19.68504
  endloop
endfacet
facet normal 0 -1 0
  outer loop
    vertex 4.33319 -64.00785 0
    vertex 15.35681 -64.00785 0
    vertex 15.35681 -64.00785 19.68504
  endloop
endfacet
facet normal 1 0 0
  outer loop
    vertex 15.35681 -64.00785 19.68504
    vertex 15.35681 -64.00785 0
    vertex 15.35681 -62.00785 19.68504
  endloop
endfacet
facet normal 1 0 0
  outer loop
    vertex 15.35681 -62.00785 19.68504
    vertex 15.35681 -64.00785 0
    vertex 15.35681 -62.00785 2
  endloop
endfacet
facet normal 1 0 0
  outer loop
    vertex 15.35681 -62.00785 2
    vertex 15.35681 -64.00785 0
    vertex 15.35681 -41.338565 2
  endloop
endfacet
facet normal 1 0 0
  outer loop
    vertex 15.35681 -41.338565 0
    vertex 15.35681 -41.338565 2
    vertex 15.35681 -64.00785 0
  endloop
endfacet
facet normal 0 1 0
  outer loop
    vertex 15.35681 -41.338565 0
    vertex 4.33319 -41.338565 2
    vertex 15.35681 -41.338565 2
  endloop
endfacet
facet normal 0 1 0
  outer loop
    vertex 15.35681 -41.338565 0
    vertex 4.33319 -41.338565 0
    vertex 4.33319 -41.338565 2
  endloop
endfacet
facet normal -1 0 0
  outer loop
    vertex 4.33319 -62.00785 2
    vertex 4.33319 -41.338565 2
    vertex 4.33319 -41.338565 0
  endloop
endfacet
facet normal -1 0 0
  outer loop
    vertex 4.33319 -62.00785 2
    vertex 4.33319 -41.338565 0
    vertex 4.33319 -64.00785 0
  endloop
endfacet
facet normal -1 0 0
  outer loop
    vertex 4.33319 -62.00785 2
    vertex 4.33319 -64.00785 19.68504
    vertex 4.33319 -62.00785 19.68504
  endloop
endfacet
facet normal -1 0 0
  outer loop
    vertex 4.33319 -62.00785 2
    vertex 4.33319 -64.00785 0
    vertex 4.33319 -64.00785 19.68504
  endloop
endfacet
facet normal 0 1 0
  outer loop
    vertex 15.35681 -62.00785 19.68504
    vertex 4.33319 -62.00785 2
    vertex 4.33319 -62.00785 19.68504
  endloop
endfacet
facet normal 0 1 0
  outer loop
    vertex 15.35681 -62.00785 19.68504
    vertex 15.35681 -62.00785 2
    vertex 4.33319 -62.00785 2
  endloop
endfacet
facet normal 0 0 1
  outer loop
    vertex 4.33319 -64.00785 19.68504
    vertex 15.35681 -64.00785 19.68504
    vertex 4.33319 -62.00785 19.68504
  endloop
endfacet
facet normal 0 0 1
  outer loop
    vertex 4.33319 -62.00785 19.68504
    vertex 15.35681 -64.00785 19.68504
    vertex 15.35681 -62.00785 19.68504
  endloop
endfacet
facet normal 0 0 1
  outer loop
    vertex 4.33319 -62.00785 2
    vertex 15.35681 -62.00785 2
    vertex 4.33319 -41.338565 2
  endloop
endfacet
facet normal 0 0 1
  outer loop
    vertex 15.35681 -62.00785 2
    vertex 15.35681 -41.338565 2
    vertex 4.33319 -41.338565 2
  endloop
endfacet
facet normal 0 0 -1
  outer loop
    vertex 4.33319 -64.00785 0
    vertex 4.33319 -41.338565 0
    vertex 15.35681 -64.00785 0
  endloop
endfacet
facet normal 0 0 -1
  outer loop
    vertex 15.35681 -64.00785 0
    vertex 4.33319 -41.338565 0
    vertex 15.35681 -41.338565 0
  endloop
endfacet
facet normal 0 -1 0
  outer loop
    vertex -15.35681 -64.00785 0
    vertex -4.33319 -64.00785 19.68504
    vertex -15.35681 -64.00785 19.68504
  endloop
endfacet
facet normal 0 -1 0
  outer loop
    vertex -15.35681 -64.00785 0
    vertex -4.33319 -64.00785 0
    vertex -4.33319 -64.00785 19.68504
  endloop
endfacet
facet normal 1 0 0
  outer loop
    vertex -4.33319 -64.00785 19.68504
    vertex -4.33319 -64.00785 0
    vertex -4.33319 -62.00785 19.68504
  endloop
endfacet
facet normal 1 0 0
  outer loop
    vertex -4.33319 -62.00785 19.68504
    vertex -4.33319 -64.00785 0
    vertex -4.33319 -62.00785 2
  endloop
endfacet
facet normal 1 0 0
  outer loop
    vertex -4.33319 -62.00785 2
    vertex -4.33319 -64.00785 0
    vertex -4.33319 -41.338565 2
  endloop
endfacet
facet normal 1 0 0
  outer loop
    vertex -4.33319 -41.338565 0
    vertex -4.33319 -41.338565 2
    vertex -4.33319 -64.00785 0
  endloop
endfacet
facet normal 0 1 0
  outer loop
    vertex -4.33319 -41.338565 0
    vertex -15.35681 -41.338565 2
    vertex -4.33319 -41.338565 2
  endloop
endfacet
facet normal 0 1 0
  outer loop
    vertex -4.33319 -41.338565 0
    vertex -15.35681 -41.338565 0
    vertex -15.35681 -41.338565 2
  endloop
endfacet
facet normal -1 0 0
  outer loop
    vertex -15.35681 -62.00785 2
    vertex -15.35681 -41.338565 2
    vertex -15.35681 -41.338565 0
  endloop
endfacet
facet normal -1 0 0
  outer loop
    vertex -15.35681 -62.00785 2
    vertex -15.35681 -41.338565 0
    vertex -15.35681 -64.00785 0
  endloop
endfacet
facet normal -1 0 0
  outer loop
    vertex -15.35681 -62.00785 2
    vertex -15.35681 -64.00785 19.68504
    vertex -15.35681 -62.00785 19.68504
  endloop
endfacet
facet normal -1 0 0
  outer loop
    vertex -15.35681 -62.00785 2
    vertex -15.35681 -64.00785 0
    vertex -15.35681 -64.00785 19.68504
  endloop
endfacet
facet normal 0 1 0
  outer loop
    vertex -4.33319 -62.00785 19.68504
    vertex -15.35681 -62.00785 2
    vertex -15.35681 -62.00785 19.68504
  endloop
endfacet
facet normal 0 1 0
  outer loop
    vertex -4.33319 -62.00785 19.68504
    vertex -4.33319 -62.00785 2
    vertex -15.35681 -62.00785 2
  endloop
endfacet
facet normal 0 0 1
  outer loop
    vertex -15.35681 -64.00785 19.68504
    vertex -4.33319 -64.00785 19.68504
    vertex -15.35681 -62.00785 19.68504
  endloop
endfacet
facet normal 0 0 1
  outer loop
    vertex -15.35681 -62.00785 19.68504
    vertex -4.33319 -64.00785 19.68504
    vertex -4.33319 -62.00785 19.68504
  endloop
endfacet
facet normal 0 0 1
  outer loop
    vertex -15.35681 -62.00785 2
    vertex -4.33319 -62.00785 2
    vertex -15.35681 -41.338565 2
  endloop
endfacet
facet normal 0 0 1
  outer loop
    vertex -4.33319 -62.00785 2
    vertex -4.33319 -41.338565 2
    vertex -15.35681 -41.338565 2
  endloop
endfacet
facet normal 0 0 -1
  outer loop
    vertex -15.35681 -64.00785 0
    vertex -15.35681 -41.338565 0
    vertex -4.33319 -64.00785 0
  endloop
endfacet
facet normal 0 0 -1
  outer loop
    vertex -4.33319 -64.00785 0
    vertex -15.35681 -41.338565 0
    vertex -4.33319 -41.338565 0
  endloop
endfacet
facet normal 0 -1 0
  outer loop
    vertex -35.04681 -64.00785 0
    vertex -24.02319 -64.00785 19.68504
    vertex -35.04681 -64.00785 19.68504
  endloop
endfacet
facet normal 0 -1 0
  outer loop
    vertex -35.04681 -64.00785 0
    vertex -24.02319 -64.00785 0
    vertex -24.02319 -64.00785 19.68504
  endloop
endfacet
facet normal 1 0 0
  outer loop
    vertex -24.02319 -64.00785 19.68504
    vertex -24.02319 -64.00785 0
    vertex -24.02319 -62.00785 19.68504
  endloop
endfacet
facet normal 1 0 0
  outer loop
    vertex -24.02319 -62.00785 19.68504
    vertex -24.02319 -64.00785 0
    vertex -24.02319 -62.00785 2
  endloop
endfacet
facet normal 1 0 0
  outer loop
    vertex -24.02319 -62.00785 2
    vertex -24.02319 -64.00785 0
    vertex -24.02319 -41.338565 2
  endloop
endfacet
facet normal 1 0 0
  outer loop
    vertex -24.02319 -41.338565 0
    vertex -24.02319 -41.338565 2
    vertex -24.02319 -64.00785 0
  endloop
endfacet
facet normal 0 1 0
  outer loop
    vertex -24.02319 -41.338565 0
    vertex -35.04681 -41.338565 2
    vertex -24.02319 -41.338565 2
  endloop
endfacet
facet normal 0 1 0
  outer loop
    vertex -24.02319 -41.338565 0
    vertex -35.04681 -41.338565 0
    vertex -35.04681 -41.338565 2
  endloop
endfacet
facet normal -1 0 0
  outer loop
    vertex -35.04681 -62.00785 2
    vertex -35.04681 -41.338565 2
    vertex -35.04681 -41.338565 0
  endloop
endfacet
facet normal -1 0 0
  outer loop
    vertex -35.04681 -62.00785 2
    vertex -35.04681 -41.338565 0
    vertex -35.04681 -64.00785 0
  endloop
endfacet
facet normal -1 0 0
  outer loop
    vertex -35.04681 -62.00785 2
    vertex -35.04681 -64.00785 19.68504
    vertex -35.04681 -62.00785 19.68504
  endloop
endfacet
facet normal -1 0 0
  outer loop
    vertex -35.04681 -62.00785 2
    vertex -35.04681 -64.00785 0
    vertex -35.04681 -64.00785 19.68504
  endloop
endfacet
facet normal 0 1 0
  outer loop
    vertex -24.02319 -62.00785 19.68504
    vertex -35.04681 -62.00785 2
    vertex -35.04681 -62.00785 19.68504
  endloop
endfacet
facet normal 0 1 0
  outer loop
    vertex -24.02319 -62.00785 19.68504
    vertex -24.02319 -62.00785 2
    vertex -35.04681 -62.00785 2
  endloop
endfacet
facet normal 0 0 1
  outer loop
    vertex -35.04681 -64.00785 19.68504
    vertex -24.02319 -64.00785 19.68504
    vertex -35.04681 -62.00785 19.68504
  endloop
endfacet
facet normal 0 0 1
  outer loop
    vertex -35.04681 -62.00785 19.68504
    vertex -24.02319 -64.00785 19.68504
    vertex -24.02319 -62.00785 19.68504
  endloop
endfacet
facet normal 0 0 1
  outer loop
    vertex -35.04681 -62.00785 2
    vertex -24.02319 -62.00785 2
    vertex -35.04681 -41.338565 2
  endloop
endfacet
facet normal 0 0 1
  outer loop
    vertex -24.02319 -62.00785 2
    vertex -24.02319 -41.338565 2
    vertex -35.04681 -41.338565 2
  endloop
endfacet
facet normal 0 0 -1
  outer loop
    vertex -35.04681 -64.00785 0
    vertex -35.04681 -41.338565 0
    vertex -24.02319 -64.00785 0
  endloop
endfacet
facet normal 0 0 -1
  outer loop
    vertex -24.02319 -64.00785 0
    vertex -35.04681 -41.338565 0
    vertex -24.02319 -41.338565 0
  endloop
endfacet
facet normal 0 1 0
  outer loop
    vertex -24.02319 64.00785 0
    vertex -35.04681 64.00785 19.68504
    vertex -24.02319 64.00785 19.68504
  endloop
endfacet
facet normal 0 1 0
  outer loop
    vertex -24.02319 64.00785 0
    vertex -35.04681 64.00785 0
    vertex -35.04681 64.00785 19.68504
  endloop
endfacet
facet normal -1 0 0
  outer loop
    vertex -35.04681 64.00785 19.68504
    vertex -35.04681 64.00785 0
    vertex -35.04681 62.00785 19.68504
  endloop
endfacet
facet normal -1 0 0
  outer loop
    vertex -35.04681 62.00785 19.68504
    vertex -35.04681 64.00785 0
    vertex -35.04681 62.00785 2
  endloop
endfacet
facet normal -1 0 0
  outer loop
    vertex -35.04681 62.00785 2
    vertex -35.04681 64.00785 0
    vertex -35.04681 41.338565 2
  endloop
endfacet
facet normal -1 0 0
  outer loop
    vertex -35.04681 41.338565 0
    vertex -35.04681 41.338565 2
    vertex -35.04681 64.00785 0
  endloop
endfacet
facet normal 0 -1 0
  outer loop
    vertex -35.04681 41.338565 0
    vertex -24.02319 41.338565 2
    vertex -35.04681 41.338565 2
  endloop
endfacet
facet normal 0 -1 0
  outer loop
    vertex -35.04681 41.338565 0
    vertex -24.02319 41.338565 0
    vertex -24.02319 41.338565 2
  endloop
endfacet
facet normal 1 0 0
  outer loop
    vertex -24.02319 62.00785 2
    vertex -24.02319 41.338565 2
    vertex -24.02319 41.338565 0
  endloop
endfacet
facet normal 1 0 0
  outer loop
    vertex -24.02319 62.00785 2
    vertex -24.02319 41.338565 0
    vertex -24.02319 64.00785 0
  endloop
endfacet
facet normal 1 0 0
  outer loop
    vertex -24.02319 62.00785 2
    vertex -24.02319 64.00785 19.68504
    vertex -24.02319 62.00785 19.68504
  endloop
endfacet
facet normal 1 0 0
  outer loop
    vertex -24.02319 62.00785 2
    vertex -24.02319 64.00785 0
    vertex -24.02319 64.00785 19.68504
  endloop
endfacet
facet normal 0 -1 0
  outer loop
    vertex -35.04681 62.00785 19.68504
    vertex -24.02319 62.00785 2
    vertex -24.02319 62.00785 19.68504
  endloop
endfacet
facet normal 0 -1 0
  outer loop
    vertex -35.04681 62.00785 19.68504
    vertex -35.04681 62.00785 2
    vertex -24.02319 62.00785 2
  endloop
endfacet
facet normal 0 0 1
  outer loop
    vertex -24.02319 64.00785 19.68504
    vertex -35.04681 64.00785 19.68504
    vertex -24.02319 62.00785 19.68504
  endloop
endfacet
facet normal 0 0 1
  outer loop
    vertex -24.02319 62.00785 19.68504
    vertex -35.04681 64.00785 19.68504
    vertex -35.04681 62.00785 19.68504
  endloop
endfacet
facet normal 0 0 1
  outer loop
    vertex -24.02319 62.00785 2
    vertex -35.04681 62.00785 2
    vertex -24.02319 41.338565 2
  endloop
endfacet
facet normal 0 0 1
  outer loop
    vertex -35.04681 62.00785 2
    vertex -35.04681 41.338565 2
    vertex -24.02319 41.338565 2
  endloop
endfacet
facet normal 0 0 -1
  outer loop
    vertex -24.02319 64.00785 0
    vertex -24.02319 41.338565 0
    vertex -35.04681 64.00785 0
  endloop
endfacet
facet normal 0 0 -1
  outer loop
    vertex -35.04681 64.00785 0
    vertex -24.02319 41.338565 0
    vertex -35.04681 41.338565 0
  endloop
endfacet
facet normal 0 1 0
  outer loop
    vertex -4.33319 64.00785 0
    vertex -15.35681 64.00785 19.68504
    vertex -4.33319 64.00785 19.68504
  endloop
endfacet
facet normal 0 1 0
  outer loop
    vertex -4.33319 64.00785 0
    vertex -15.35681 64.00785 0
    vertex -15.35681 64.00785 19.68504
  endloop
endfacet
facet normal -1 0 0
  outer loop
    vertex -15.35681 64.00785 19.68504
    vertex -15.35681 64.00785 0
    vertex -15.35681 62.00785 19.68504
  endloop
endfacet
facet normal -1 0 0
  outer loop
    vertex -15.35681 62.00785 19.68504
    vertex -15.35681 64.00785 0
    vertex -15.35681 62.00785 2
  endloop
endfacet
facet normal -1 0 0
  outer loop
    vertex -15.35681 62.00785 2
    vertex -15.35681 64.00785 0
    vertex -15.35681 41.338565 2
  endloop
endfacet
facet normal -1 0 0
  outer loop
    vertex -15.35681 41.338565 0
    vertex -15.35681 41.338565 2
    vertex -15.35681 64.00785 0
  endloop
endfacet
facet normal 0 -1 0
  outer loop
    vertex -15.35681 41.338565 0
    vertex -4.33319 41.338565 2
    vertex -15.35681 41.338565 2
  endloop
endfacet
facet normal 0 -1 0
  outer loop
    vertex -15.35681 41.338565 0
    vertex -4.33319 41.338565 0
    vertex -4.33319 41.338565 2
  endloop
endfacet
facet normal 1 0 0
  outer loop
    vertex -4.33319 62.00785 2
    vertex -4.33319 41.338565 2
    vertex -4.33319 41.338565 0
  endloop
endfacet
facet normal 1 0 0
  outer loop
    vertex -4.33319 62.00785 2
    vertex -4.33319 41.338565 0
    vertex -4.33319 64.00785 0
  endloop
endfacet
facet normal 1 0 0
  outer loop
    vertex -4.33319 62.00785 2
    vertex -4.33319 64.00785 19.68504
    vertex -4.33319 62.00785 19.68504
  endloop
endfacet
facet normal 1 0 0
  outer loop
    vertex -4.33319 62.00785 2
    vertex -4.33319 64.00785 0
    vertex -4.33319 64.00785 19.68504
  endloop
endfacet
facet normal 0 -1 0
  outer loop
    vertex -15.35681 62.00785 19.68504
    vertex -4.33319 62.00785 2
    vertex -4.33319 62.00785 19.68504
  endloop
endfacet
facet normal 0 -1 0
  outer loop
    vertex -15.35681 62.00785 19.68504
    vertex -15.35681 62.00785 2
    vertex -4.33319 62.00785 2
  endloop
endfacet
facet normal 0 0 1
  outer loop
    vertex -4.33319 64.00785 19.68504
    vertex -15.35681 64.00785 19.68504
    vertex -4.33319 62.00785 19.68504
  endloop
endfacet
facet normal 0 0 1
  outer loop
    vertex -4.33319 62.00785 19.68504
    vertex -15.35681 64.00785 19.68504
    vertex -15.35681 62.00785 19.68504
  endloop
endfacet
facet normal 0 0 1
  outer loop
    vertex -4.33319 62.00785 2
    vertex -15.35681 62.00785 2
    vertex -4.33319 41.338565 2
  endloop
endfacet
facet normal 0 0 1
  outer loop
    vertex -15.35681 62.00785 2
    vertex -15.35681 41.338565 2
    vertex -4.33319 41.338565 2
  endloop
endfacet
facet normal 0 0 -1
  outer loop
    vertex -4.33319 64.00785 0
    vertex -4.33319 41.338565 0
    vertex -15.35681 64.00785 0
  endloop
endfacet
facet normal 0 0 -1
  outer loop
    vertex -15.35681 64.00785 0
    vertex -4.33319 41.338565 0
    vertex -15.35681 41.338565 0
  endloop
endfacet
facet normal 0 1 0
  outer loop
    vertex 15.35681 64.00785 0
    vertex 4.33319 64.00785 19.68504
    vertex 15.35681 64.00785 19.68504
  endloop
endfacet
facet normal 0 1 0
  outer loop
    vertex 15.35681 64.00785 0
    vertex 4.33319 64.00785 0
    vertex 4.33319 64.00785 19.68504
  endloop
endfacet
facet normal -1 0 0
  outer loop
    vertex 4.33319 64.00785 19.68504
    vertex 4.33319 64.00785 0
    vertex 4.33319 62.00785 19.68504
  endloop
endfacet
facet normal -1 0 0
  outer loop
    vertex 4.33319 62.00785 19.68504
    vertex 4.33319 64.00785 0
    vertex 4.33319 62.00785 2
  endloop
endfacet
facet normal -1 0 0
  outer loop
    vertex 4.33319 62.00785 2
    vertex 4.33319 64.00785 0
    vertex 4.33319 41.338565 2
  endloop
endfacet
facet normal -1 0 0
  outer loop
    vertex 4.33319 41.338565 0
    vertex 4.33319 41.338565 2
    vertex 4.33319 64.00785 0
  endloop
endfacet
facet normal 0 -1 0
  outer loop
    vertex 4.33319 41.338565 0
    vertex 15.35681 41.338565 2
    vertex 4.33319 41.338565 2
  endloop
endfacet
facet normal 0 -1 0
  outer loop
    vertex 4.33319 41.338565 0
    vertex 15.35681 41.338565 0
    vertex 15.35681 41.338565 2
  endloop
endfacet
facet normal 1 0 0
  outer loop
    vertex 15.35681 62.00785 2
    vertex 15.35681 41.338565 2
    vertex 15.35681 41.338565 0
  endloop
endfacet
facet normal 1 0 0
  outer loop
    vertex 15.35681 62.00785 2
    vertex 15.35681 41.338565 0
    vertex 15.35681 64.00785 0
  endloop
endfacet
facet normal 1 0 0
  outer loop
    vertex 15.35681 62.00785 2
    vertex 15.35681 64.00785 19.68504
    vertex 15.35681 62.00785 19.68504
  endloop
endfacet
facet normal 1 0 0
  outer loop
    vertex 15.35681 62.00785 2
    vertex 15.35681 64.00785 0
    vertex 15.35681 64.00785 19.68504
  endloop
endfacet
facet normal 0 -1 0
  outer loop
    vertex 4.33319 62.00785 19.68504
    vertex 15.35681 62.00785 2
    vertex 15.35681 62.00785 19.68504
  endloop
endfacet
facet normal 0 -1 0
  outer loop
    vertex 4.33319 62.00785 19.68504
    vertex 4.33319 62.00785 2
    vertex 15.35681 62.00785 2
  endloop
endfacet
facet normal 0 0 1
  outer loop
    vertex 15.35681 64.00785 19.68504
    vertex 4.33319 64.00785 19.68504
    vertex 15.35681 62.00785 19.68504
  endloop
endfacet
facet normal 0 0 1
  outer loop
    vertex 15.35681 62.00785 19.68504
    vertex 4.33319 64.00785 19.68504
    vertex 4.33319 62.00785 19.68504
  endloop
endfacet
facet normal 0 0 1
  outer loop
    vertex 15.35681 62.00785 2
    vertex 4.33319 62.00785 2
    vertex 15.35681 41.338565 2
  endloop
endfacet
facet normal 0 0 1
  outer loop
    vertex 4.33319 62.00785 2
    vertex 4.33319 41.338565 2
    vertex 15.35681 41.338565 2
  endloop
endfacet
facet normal 0 0 -1
  outer loop
    vertex 15.35681 64.00785 0
    vertex 15.35681 41.338565 0
    vertex 4.33319 64.00785 0
  endloop
endfacet
facet normal 0 0 -1
  outer loop
    vertex 4.33319 64.00785 0
    vertex 15.35681 41.338565 0
    vertex 4.33319 41.338565 0
  endloop
endfacet
facet normal 0 1 0
  outer loop
    vertex 35.04681 64.00785 0
    vertex 24.02319 64.00785 19.68504
    vertex 35.04681 64.00785 19.68504
  endloop
endfacet
facet normal 0 1 0
  outer loop
    vertex 35.04681 64.00785 0
    vertex 24.02319 64.00785 0
    vertex 24.02319 64.00785 19.68504
  endloop
endfacet
facet normal -1 0 0
  outer loop
    vertex 24.02319 64.00785 19.68504
    vertex 24.02319 64.00785 0
    vertex 24.02319 62.00785 19.68504
  endloop
endfacet
facet normal -1 0 0
  outer loop
    vertex 24.02319 62.00785 19.68504
    vertex 24.02319 64.00785 0
    vertex 24.02319 62.00785 2
  endloop
endfacet
facet normal -1 0 0
  outer loop
    vertex 24.02319 62.00785 2
    vertex 24.02319 64.00785 0
    vertex 24.02319 41.338565 2
  endloop
endfacet
facet normal -1 0 0
  outer loop
    vertex 24.02319 41.338565 0
    vertex 24.02319 41.338565 2
    vertex 24.02319 64.00785 0
  endloop
endfacet
facet normal 0 -1 0
  outer loop
    vertex 24.02319 41.338565 0
    vertex 35.04681 41.338565 2
    vertex 24.02319 41.338565 2
  endloop
endfacet
facet normal 0 -1 0
  outer loop
    vertex 24.02319 41.338565 0
    vertex 35.04681 41.338565 0
    vertex 35.04681 41.338565 2
  endloop
endfacet
facet normal 1 0 0
  outer loop
    vertex 35.04681 62.00785 2
    vertex 35.04681 41.338565 2
    vertex 35.04681 41.338565 0
  endloop
endfacet
facet normal 1 0 0
  outer loop
    vertex 35.04681 62.00785 2
    vertex 35.04681 41.338565 0
    vertex 35.04681 64.00785 0
  endloop
endfacet
facet normal 1 0 0
  outer loop
    vertex 35.04681 62.00785 2
    vertex 35.04681 64.00785 19.68504
    vertex 35.04681 62.00785 19.68504
  endloop
endfacet
facet normal 1 0 0
  outer loop
    vertex 35.04681 62.00785 2
    vertex 35.04681 64.00785 0
    vertex 35.04681 64.00785 19.68504
  endloop
endfacet
facet normal 0 -1 0
  outer loop
    vertex 24.02319 62.00785 19.68504
    vertex 35.04681 62.00785 2
    vertex 35.04681 62.00785 19.68504
  endloop
endfacet
facet normal 0 -1 0
  outer loop
    vertex 24.02319 62.00785 19.68504
    vertex 24.02319 62.00785 2
    vertex 35.04681 62.00785 2
  endloop
endfacet
facet normal 0 0 1
  outer loop
    vertex 35.04681 64.00785 19.68504
    vertex 24.02319 64.00785 19.68504
    vertex 35.04681 62.00785 19.68504
  endloop
endfacet
facet normal 0 0 1
  outer loop
    vertex 35.04681 62.00785 19.68504
    vertex 24.02319 64.00785 19.68504
    vertex 24.02319 62.00785 19.68504
  endloop
endfacet
facet normal 0 0 1
  outer loop
    vertex 35.04681 62.00785 2
    vertex 24.02319 62.00785 2
    vertex 35.04681 41.338565 2
  endloop
endfacet
facet normal 0 0 1
  outer loop
    vertex 24.02319 62.00785 2
    vertex 24.02319 41.338565 2
    vertex 35.04681 41.338565 2
  endloop
endfacet
facet normal 0 0 -1
  outer loop
    vertex 35.04681 64.00785 0
    vertex 35.04681 41.338565 0
    vertex 24.02319 64.00785 0
  endloop
endfacet
facet normal 0 0 -1
  outer loop
    vertex 24.02319 64.00785 0
    vertex 35.04681 41.338565 0
    vertex 24.02319 41.338565 0
  endloop
endfacet
facet normal 0 0 -1
  outer loop
    vertex 33.46457 -33.46457 0
    vertex -33.46457 -33.46457 0
    vertex 33.46457 33.46457 0
  endloop
endfacet
facet normal 0 0 -1
  outer loop
    vertex 33.46457 33.46457 0
    vertex -33.46457 -33.46457 0
    vertex -33.46457 33.46457 0
  endloop
endfacet
facet normal 1 0 0
  outer loop
    vertex 33.46457 -33.46457 0
    vertex 33.46457 33.46457 0
    vertex 33.46457 33.46457 2
  endloop
endfacet
facet normal 0 1 0
  outer loop
    vertex 33.46457 33.46457 0
    vertex -33.46457 33.46457 0
    vertex -33.46457 33.46457 2
  endloop
endfacet
facet normal -1 0 0
  outer loop
    vertex -33.46457 33.46457 0
    vertex -33.46457 -33.46457 0
    vertex -33.46457 -33.46457 2
  endloop
endfacet
facet normal 0 -1 0
  outer loop
    vertex -33.46457 -33.46457 0
    vertex 33.46457 -33.46457 0
    vertex 33.46457 -33.46457 2
  endloop
endfacet
facet normal 1 0 0
  outer loop
    vertex 33.46457 -33.46457 2
    vertex 33.46457 -33.46457 0
    vertex 33.46457 33.46457 2
  endloop
endfacet
facet normal 0 1 0
  outer loop
    vertex 33.46457 33.46457 2
    vertex 33.46457 33.46457 0
    vertex -33.46457 33.46457 2
  endloop
endfacet
facet normal -1 0 0
  outer loop
    vertex -33.46457 33.46457 2
    vertex -33.46457 33.46457 0
    vertex -33.46457 -33.46457 2
  endloop
endfacet
facet normal 0 -1 0
  outer loop
    vertex -33.46457 -33.46457 2
    vertex -33.46457 -33.46457 0
    vertex 33.46457 -33.46457 2
  endloop
endfacet
facet normal 0 0 1
  outer loop
    vertex 33.46457 -33.46457 2
    vertex 33.46457 33.46457 2
    vertex -33.46457 -33.46457 2
  endloop
endfacet
facet normal 0 0 1
  outer loop
    vertex 33.46457 33.46457 2
    vertex -33.46457 33.46457 2
    vertex -33.46457 -33.46457 2
  endloop
endfacet
endsolid RGT16_1P7X1P7
