(module LOGO (layer F.Cu)
  (at 0 0)
 (fp_text reference "G***" (at 0 0) (layer F.SilkS) hide
  (effects (font (thickness 0.3)))
  )
  (fp_text value "LOGO" (at 0.75 0) (layer F.SilkS) hide
  (effects (font (thickness 0.3)))
  )
  (fp_poly (pts (xy -8.516171 -0.786743) (xy -8.354783 -0.735125) (xy -8.239835 -0.654409) (xy -8.149197 -0.544681) (xy -8.100074 -0.431789) (xy -8.102442 -0.356013) (xy -8.160901 -0.304193) (xy -8.257531 -0.296519)
     (xy -8.360757 -0.329140) (xy -8.438200 -0.396967) (xy -8.547248 -0.495652) (xy -8.687605 -0.532751) (xy -8.835232 -0.510747) (xy -8.966087 -0.432124) (xy -9.040163 -0.334806) (xy -9.078748 -0.216824)
     (xy -9.100141 -0.067176) (xy -9.101666 -0.021167) (xy -9.073429 0.195803) (xy -8.994182 0.358419) (xy -8.872129 0.459396) (xy -8.715470 0.491448) (xy -8.561151 0.459029) (xy -8.448660 0.401043)
     (xy -8.398016 0.326141) (xy -8.389771 0.284243) (xy -8.387937 0.211089) (xy -8.420102 0.178177) (xy -8.508291 0.169563) (xy -8.548521 0.169333) (xy -8.658262 0.164529) (xy -8.707501 0.138269)
     (xy -8.720321 0.072787) (xy -8.720666 0.042333) (xy -8.720666 -0.084667) (xy -8.039772 -0.084667) (xy -8.052136 0.243417) (xy -8.064500 0.571500) (xy -8.253386 0.666750) (xy -8.456189 0.735020)
     (xy -8.687077 0.760656) (xy -8.909420 0.741983) (xy -9.038166 0.702627) (xy -9.212151 0.583183) (xy -9.337143 0.411278) (xy -9.412318 0.204081) (xy -9.436850 -0.021239) (xy -9.409914 -0.247514)
     (xy -9.330686 -0.457574) (xy -9.198340 -0.634250) (xy -9.105989 -0.708742) (xy -8.937753 -0.778578) (xy -8.729897 -0.804974) (xy -8.516171 -0.786743) )(layer F.SilkS) (width  0.010000)
  )
  (fp_poly (pts (xy -3.097504 -0.786743) (xy -2.936116 -0.735125) (xy -2.821168 -0.654409) (xy -2.730530 -0.544681) (xy -2.681407 -0.431789) (xy -2.683775 -0.356013) (xy -2.742234 -0.304193) (xy -2.838864 -0.296519)
     (xy -2.942090 -0.329140) (xy -3.019534 -0.396967) (xy -3.128581 -0.495652) (xy -3.268939 -0.532751) (xy -3.416566 -0.510747) (xy -3.547420 -0.432124) (xy -3.621496 -0.334806) (xy -3.660082 -0.216824)
     (xy -3.681474 -0.067176) (xy -3.683000 -0.021167) (xy -3.654762 0.195803) (xy -3.575516 0.358419) (xy -3.453462 0.459396) (xy -3.296803 0.491448) (xy -3.142484 0.459029) (xy -3.029993 0.401043)
     (xy -2.979350 0.326141) (xy -2.971105 0.284243) (xy -2.969270 0.211089) (xy -3.001436 0.178177) (xy -3.089625 0.169563) (xy -3.129855 0.169333) (xy -3.239595 0.164529) (xy -3.288834 0.138269)
     (xy -3.301655 0.072787) (xy -3.302000 0.042333) (xy -3.302000 -0.084667) (xy -2.621105 -0.084667) (xy -2.633469 0.243417) (xy -2.645833 0.571500) (xy -2.834720 0.666750) (xy -3.037523 0.735020)
     (xy -3.268411 0.760656) (xy -3.490753 0.741983) (xy -3.619500 0.702627) (xy -3.793484 0.583183) (xy -3.918476 0.411278) (xy -3.993651 0.204081) (xy -4.018183 -0.021239) (xy -3.991247 -0.247514)
     (xy -3.912019 -0.457574) (xy -3.779674 -0.634250) (xy -3.687323 -0.708742) (xy -3.519086 -0.778578) (xy -3.311230 -0.804974) (xy -3.097504 -0.786743) )(layer F.SilkS) (width  0.010000)
  )
  (fp_poly (pts (xy 1.411440 -0.780157) (xy 1.582907 -0.726239) (xy 1.639961 -0.692098) (xy 1.790533 -0.544495) (xy 1.882524 -0.362391) (xy 1.922903 -0.129445) (xy 1.926167 -0.021167) (xy 1.903826 0.236675)
     (xy 1.832015 0.436824) (xy 1.703552 0.594939) (xy 1.610701 0.666606) (xy 1.441140 0.737995) (xy 1.233171 0.764113) (xy 1.020395 0.744219) (xy 0.847062 0.683457) (xy 0.690905 0.554991)
     (xy 0.582197 0.374794) (xy 0.520929 0.161254) (xy 0.508308 -0.047208) (xy 0.847291 -0.047208) (xy 0.867594 0.178858) (xy 0.929820 0.338762) (xy 1.038014 0.442061) (xy 1.059168 0.453625)
     (xy 1.194609 0.501253) (xy 1.309928 0.483825) (xy 1.434438 0.396564) (xy 1.439992 0.391583) (xy 1.542445 0.251819) (xy 1.594966 0.078407) (xy 1.599559 -0.106635) (xy 1.558229 -0.281285)
     (xy 1.472983 -0.423524) (xy 1.358205 -0.506535) (xy 1.189556 -0.539881) (xy 1.045182 -0.498091) (xy 0.934155 -0.389320) (xy 0.865543 -0.221722) (xy 0.847291 -0.047208) (xy 0.508308 -0.047208)
     (xy 0.507094 -0.067245) (xy 0.540681 -0.292317) (xy 0.621683 -0.495575) (xy 0.750091 -0.658634) (xy 0.847722 -0.728338) (xy 1.010589 -0.782728) (xy 1.209581 -0.799493) (xy 1.411440 -0.780157) )(layer F.SilkS) (width  0.010000)
  )
  (fp_poly (pts (xy 8.009663 -0.795510) (xy 8.228109 -0.752452) (xy 8.381451 -0.657796) (xy 8.473910 -0.508550) (xy 8.489828 -0.455083) (xy 8.502350 -0.380932) (xy 8.477813 -0.347675) (xy 8.396161 -0.338952)
     (xy 8.347109 -0.338667) (xy 8.227776 -0.348831) (xy 8.166912 -0.386305) (xy 8.149198 -0.423235) (xy 8.084421 -0.502523) (xy 7.971897 -0.539649) (xy 7.841213 -0.526921) (xy 7.804364 -0.512907)
     (xy 7.718227 -0.451986) (xy 7.715923 -0.385700) (xy 7.797635 -0.313815) (xy 7.963545 -0.236093) (xy 8.039925 -0.208031) (xy 8.271794 -0.111088) (xy 8.428136 -0.004765) (xy 8.518092 0.119983)
     (xy 8.550800 0.272200) (xy 8.551334 0.298026) (xy 8.527526 0.449404) (xy 8.444516 0.583437) (xy 8.429293 0.600918) (xy 8.356292 0.674537) (xy 8.284062 0.717045) (xy 8.184804 0.738435)
     (xy 8.030714 0.748700) (xy 8.016543 0.749285) (xy 7.855873 0.750088) (xy 7.719722 0.740683) (xy 7.641167 0.724195) (xy 7.500382 0.621883) (xy 7.391217 0.462606) (xy 7.371364 0.416274)
     (xy 7.349492 0.328960) (xy 7.376942 0.286120) (xy 7.393046 0.278768) (xy 7.537857 0.253060) (xy 7.648246 0.293809) (xy 7.695160 0.355874) (xy 7.766951 0.435893) (xy 7.876969 0.480839)
     (xy 8.000765 0.491228) (xy 8.113894 0.467580) (xy 8.191906 0.410413) (xy 8.212667 0.344898) (xy 8.197472 0.272077) (xy 8.141992 0.214756) (xy 8.031379 0.162833) (xy 7.869888 0.111642)
     (xy 7.641752 0.019919) (xy 7.491402 -0.102912) (xy 7.417288 -0.258393) (xy 7.408334 -0.347223) (xy 7.438209 -0.544645) (xy 7.528827 -0.685042) (xy 7.681680 -0.769523) (xy 7.898258 -0.799199)
     (xy 8.009663 -0.795510) )(layer F.SilkS) (width  0.010000)
  )
  (fp_poly (pts (xy -7.161230 -0.412436) (xy -7.059219 -0.367250) (xy -6.962939 -0.282739) (xy -6.840178 -0.111230) (xy -6.784164 0.076889) (xy -6.789359 0.265943) (xy -6.850229 0.440256) (xy -6.961237 0.584152)
     (xy -7.116848 0.681957) (xy -7.311526 0.717993) (xy -7.316331 0.717972) (xy -7.464639 0.703194) (xy -7.597190 0.668251) (xy -7.630051 0.653398) (xy -7.765280 0.533453) (xy -7.848377 0.354322)
     (xy -7.865840 0.213814) (xy -7.570515 0.213814) (xy -7.504913 0.376161) (xy -7.489927 0.396457) (xy -7.401442 0.485174) (xy -7.317479 0.499921) (xy -7.210270 0.444997) (xy -7.204087 0.440699)
     (xy -7.148619 0.390230) (xy -7.122208 0.322326) (xy -7.117474 0.209988) (xy -7.120584 0.135191) (xy -7.132858 -0.005902) (xy -7.158600 -0.089389) (xy -7.209540 -0.142313) (xy -7.252055 -0.167925)
     (xy -7.334379 -0.206023) (xy -7.390855 -0.197353) (xy -7.457564 -0.133171) (xy -7.474305 -0.114056) (xy -7.560073 0.042599) (xy -7.570515 0.213814) (xy -7.865840 0.213814) (xy -7.874000 0.148167)
     (xy -7.842650 -0.082138) (xy -7.749625 -0.254584) (xy -7.596467 -0.367637) (xy -7.384715 -0.419762) (xy -7.300369 -0.423334) (xy -7.161230 -0.412436) )(layer F.SilkS) (width  0.010000)
  )
  (fp_poly (pts (xy -5.672666 -0.169333) (xy -5.122333 -0.169333) (xy -5.122333 -0.762000) (xy -4.826000 -0.762000) (xy -4.826000 0.719667) (xy -5.122333 0.719667) (xy -5.122333 0.084667) (xy -5.672666 0.084667)
     (xy -5.672666 0.719667) (xy -6.011333 0.719667) (xy -6.011333 -0.762000) (xy -5.672666 -0.762000) (xy -5.672666 -0.169333) )(layer F.SilkS) (width  0.010000)
  )
  (fp_poly (pts (xy -4.191000 0.719667) (xy -4.529666 0.719667) (xy -4.529666 -0.762000) (xy -4.191000 -0.762000) (xy -4.191000 0.719667) )(layer F.SilkS) (width  0.010000)
  )
  (fp_poly (pts (xy -2.074333 -0.169333) (xy -1.524000 -0.169333) (xy -1.524000 -0.762000) (xy -1.227666 -0.762000) (xy -1.227666 0.719667) (xy -1.524000 0.719667) (xy -1.524000 0.084667) (xy -2.074333 0.084667)
     (xy -2.074333 0.719667) (xy -2.413000 0.719667) (xy -2.413000 -0.762000) (xy -2.074333 -0.762000) (xy -2.074333 -0.169333) )(layer F.SilkS) (width  0.010000)
  )
  (fp_poly (pts (xy -0.230753 -0.761285) (xy -0.086869 -0.756712) (xy 0.008470 -0.744642) (xy 0.073323 -0.721432) (xy 0.125751 -0.683442) (xy 0.172590 -0.638257) (xy 0.263506 -0.496774) (xy 0.289775 -0.336985)
     (xy 0.256034 -0.181527) (xy 0.166916 -0.053038) (xy 0.037252 0.022779) (xy -0.017504 0.044738) (xy -0.020447 0.075672) (xy 0.031020 0.139149) (xy 0.052693 0.162865) (xy 0.132387 0.262748)
     (xy 0.227835 0.400219) (xy 0.289113 0.497417) (xy 0.422551 0.719667) (xy 0.221859 0.719296) (xy 0.116023 0.716204) (xy 0.043856 0.697113) (xy -0.016701 0.646582) (xy -0.087708 0.549169)
     (xy -0.143267 0.463716) (xy -0.238324 0.326522) (xy -0.329241 0.212519) (xy -0.396103 0.146586) (xy -0.486839 0.092905) (xy -0.544951 0.090985) (xy -0.577308 0.149760) (xy -0.590781 0.278164)
     (xy -0.592666 0.402167) (xy -0.592666 0.719667) (xy -0.931333 0.719667) (xy -0.931333 -0.508000) (xy -0.592666 -0.508000) (xy -0.592666 -0.169333) (xy -0.399383 -0.169333) (xy -0.262406 -0.178753)
     (xy -0.150327 -0.202372) (xy -0.124217 -0.213156) (xy -0.057851 -0.282657) (xy -0.042333 -0.338667) (xy -0.080915 -0.429452) (xy -0.194479 -0.486366) (xy -0.379750 -0.507857) (xy -0.399383 -0.508000)
     (xy -0.592666 -0.508000) (xy -0.931333 -0.508000) (xy -0.931333 -0.762000) (xy -0.441243 -0.762000) (xy -0.230753 -0.761285) )(layer F.SilkS) (width  0.010000)
  )
  (fp_poly (pts (xy 2.455334 0.465667) (xy 3.175000 0.465667) (xy 3.175000 0.719667) (xy 2.116667 0.719667) (xy 2.116667 -0.762000) (xy 2.455334 -0.762000) (xy 2.455334 0.465667) )(layer F.SilkS) (width  0.010000)
  )
  (fp_poly (pts (xy 3.683000 0.465667) (xy 4.402667 0.465667) (xy 4.402667 0.719667) (xy 3.344334 0.719667) (xy 3.344334 -0.762000) (xy 3.683000 -0.762000) (xy 3.683000 0.465667) )(layer F.SilkS) (width  0.010000)
  )
  (fp_poly (pts (xy 5.715000 -0.508000) (xy 4.953000 -0.508000) (xy 4.953000 -0.169333) (xy 5.672667 -0.169333) (xy 5.672667 0.084667) (xy 4.953000 0.084667) (xy 4.953000 0.465667) (xy 5.757334 0.465667)
     (xy 5.757334 0.719667) (xy 4.614334 0.719667) (xy 4.614334 -0.762000) (xy 5.715000 -0.762000) (xy 5.715000 -0.508000) )(layer F.SilkS) (width  0.010000)
  )
  (fp_poly (pts (xy 6.669580 -0.761285) (xy 6.813464 -0.756712) (xy 6.908803 -0.744642) (xy 6.973656 -0.721432) (xy 7.026085 -0.683442) (xy 7.072923 -0.638257) (xy 7.163839 -0.496774) (xy 7.190109 -0.336985)
     (xy 7.156367 -0.181527) (xy 7.067249 -0.053038) (xy 6.937585 0.022779) (xy 6.882829 0.044738) (xy 6.879886 0.075672) (xy 6.931353 0.139149) (xy 6.953027 0.162865) (xy 7.032720 0.262748)
     (xy 7.128169 0.400219) (xy 7.189446 0.497417) (xy 7.322884 0.719667) (xy 7.122192 0.719296) (xy 7.016356 0.716204) (xy 6.944190 0.697113) (xy 6.883633 0.646582) (xy 6.812626 0.549169)
     (xy 6.757066 0.463716) (xy 6.662009 0.326522) (xy 6.571092 0.212519) (xy 6.504230 0.146586) (xy 6.413494 0.092905) (xy 6.355383 0.090985) (xy 6.323026 0.149760) (xy 6.309553 0.278164)
     (xy 6.307667 0.402167) (xy 6.307667 0.719667) (xy 5.969000 0.719667) (xy 5.969000 -0.508000) (xy 6.307667 -0.508000) (xy 6.307667 -0.169333) (xy 6.500950 -0.169333) (xy 6.637928 -0.178753)
     (xy 6.750006 -0.202372) (xy 6.776117 -0.213156) (xy 6.842482 -0.282657) (xy 6.858000 -0.338667) (xy 6.819418 -0.429452) (xy 6.705854 -0.486366) (xy 6.520583 -0.507857) (xy 6.500950 -0.508000)
     (xy 6.307667 -0.508000) (xy 5.969000 -0.508000) (xy 5.969000 -0.762000) (xy 6.459090 -0.762000) (xy 6.669580 -0.761285) )(layer F.SilkS) (width  0.010000)
  )
  (fp_poly (pts (xy 9.228667 0.719667) (xy 8.847667 0.719667) (xy 8.847667 0.381000) (xy 9.228667 0.381000) (xy 9.228667 0.719667) )(layer F.SilkS) (width  0.010000)
  )
  (fp_poly (pts (xy 9.180562 -1.098367) (xy 9.245155 -1.082412) (xy 9.268191 -1.039221) (xy 9.271210 -0.963083) (xy 9.267393 -0.868353) (xy 9.256835 -0.710949) (xy 9.241134 -0.512451) (xy 9.221887 -0.294441)
     (xy 9.221078 -0.285750) (xy 9.170737 0.254000) (xy 9.057289 0.254000) (xy 8.987389 0.245660) (xy 8.948325 0.206013) (xy 8.924629 0.113118) (xy 8.915535 0.052917) (xy 8.901369 -0.074124)
     (xy 8.885530 -0.257925) (xy 8.870260 -0.470673) (xy 8.860972 -0.624417) (xy 8.834715 -1.100667) (xy 9.052858 -1.100667) (xy 9.180562 -1.098367) )(layer F.SilkS) (width  0.010000)
  )
)
