(module ICM_20948_QFN-24_3x3mm_Pitch0.4mm (layer F.Cu) (tedit 5BC3B3D6)
  (descr "24-Lead Plastic QFN (3mm x 3mm); Pitch 0.4mm")
  (tags "QFN 0.4")
  (attr smd)
  (fp_text reference U3 (at 0 -3.25) (layer F.SilkS)
    (effects (font (size 1 1) (thickness 0.15)))
  )
  (fp_text value ICM-20948 (at 0 0.9) (layer F.Fab)
    (effects (font (size 0.3 0.3) (thickness 0.075)))
  )
  (fp_circle (center -1.6 -1.6) (end -1.4 -1.5) (layer F.SilkS) (width 0.1))
  (fp_line (start -0.5 -1.5) (end 1.5 -1.5) (layer F.Fab) (width 0.15))
  (fp_line (start 1.5 -1.5) (end 1.5 1.5) (layer F.Fab) (width 0.15))
  (fp_line (start 1.5 1.5) (end -1.5 1.5) (layer F.Fab) (width 0.15))
  (fp_line (start -1.5 1.5) (end -1.5 -0.5) (layer F.Fab) (width 0.15))
  (fp_line (start -1.5 -0.5) (end -0.5 -1.5) (layer F.Fab) (width 0.15))
  (fp_line (start 2.05 -2.05) (end 2.05 2.05) (layer F.CrtYd) (width 0.05))
  (fp_line (start 2.05 2.05) (end -2.05 2.05) (layer F.CrtYd) (width 0.05))
  (fp_line (start -2.05 2.05) (end -2.05 -2.05) (layer F.CrtYd) (width 0.05))
  (fp_line (start -2.05 -2.05) (end 2.05 -2.05) (layer F.CrtYd) (width 0.05))
  (fp_line (start -1.6 1.6) (end -1.6 1.2) (layer F.SilkS) (width 0.15))
  (fp_line (start -1.6 1.6) (end -1.2 1.6) (layer F.SilkS) (width 0.15))
  (fp_line (start 1.6 1.6) (end 1.6 1.2) (layer F.SilkS) (width 0.15))
  (fp_line (start 1.6 1.6) (end 1.2 1.6) (layer F.SilkS) (width 0.15))
  (fp_line (start 1.6 -1.6) (end 1.6 -1.2) (layer F.SilkS) (width 0.15))
  (fp_line (start 1.6 -1.6) (end 1.2 -1.6) (layer F.SilkS) (width 0.15))
  (pad 1 smd rect (at -1.5 -1) (size 0.5 0.2) (layers F.Cu F.Paste F.Mask))
  (pad 2 smd rect (at -1.5 -0.6) (size 0.55 0.2) (layers F.Cu F.Paste F.Mask))
  (pad 3 smd rect (at -1.5 -0.2) (size 0.55 0.2) (layers F.Cu F.Paste F.Mask))
  (pad 4 smd rect (at -1.5 0.2) (size 0.55 0.2) (layers F.Cu F.Paste F.Mask))
  (pad 5 smd rect (at -1.5 0.6) (size 0.55 0.2) (layers F.Cu F.Paste F.Mask))
  (pad 6 smd rect (at -1.5 1) (size 0.55 0.2) (layers F.Cu F.Paste F.Mask))
  (pad 7 smd rect (at -1 1.5 90) (size 0.5 0.2) (layers F.Cu F.Paste F.Mask))
  (pad 8 smd rect (at -0.6 1.5 90) (size 0.55 0.2) (layers F.Cu F.Paste F.Mask))
  (pad 9 smd rect (at -0.2 1.5 90) (size 0.55 0.2) (layers F.Cu F.Paste F.Mask))
  (pad 10 smd rect (at 0.2 1.5 90) (size 0.55 0.2) (layers F.Cu F.Paste F.Mask))
  (pad 11 smd rect (at 0.6 1.5 90) (size 0.55 0.2) (layers F.Cu F.Paste F.Mask))
  (pad 12 smd rect (at 1 1.5 90) (size 0.5 0.2) (layers F.Cu F.Paste F.Mask))
  (pad 13 smd rect (at 1.5 1) (size 0.55 0.2) (layers F.Cu F.Paste F.Mask))
  (pad 14 smd rect (at 1.5 0.6) (size 0.55 0.2) (layers F.Cu F.Paste F.Mask))
  (pad 15 smd rect (at 1.5 0.2) (size 0.55 0.2) (layers F.Cu F.Paste F.Mask))
  (pad 16 smd rect (at 1.5 -0.2) (size 0.55 0.2) (layers F.Cu F.Paste F.Mask))
  (pad 17 smd rect (at 1.5 -0.6) (size 0.55 0.2) (layers F.Cu F.Paste F.Mask))
  (pad 18 smd rect (at 1.5 -1) (size 0.55 0.2) (layers F.Cu F.Paste F.Mask))
  (pad 19 smd rect (at 1 -1.5 90) (size 0.5 0.2) (layers F.Cu F.Paste F.Mask))
  (pad 20 smd rect (at 0.6 -1.5 90) (size 0.55 0.2) (layers F.Cu F.Paste F.Mask))
  (pad 21 smd rect (at 0.2 -1.5 90) (size 0.55 0.2) (layers F.Cu F.Paste F.Mask))
  (pad 22 smd rect (at -0.2 -1.5 90) (size 0.55 0.2) (layers F.Cu F.Paste F.Mask))
  (pad 23 smd rect (at -0.6 -1.5 90) (size 0.55 0.2) (layers F.Cu F.Paste F.Mask))
  (pad 24 smd rect (at -1 -1.5 90) (size 0.55 0.2) (layers F.Cu F.Paste F.Mask))
  (model ${KISYS3DMOD}/Housings_DFN_QFN.3dshapes/QFN-24_3x3mm_Pitch0.4mm.wrl
    (at (xyz 0 0 0))
    (scale (xyz 1 1 1))
    (rotate (xyz 0 0 0))
  )
)
