(module "Inductor_0806(2016Metric)" (layer F.Cu) (tedit 5D609A33)
  (fp_text reference REF** (at 0.01 1.58) (layer F.SilkS)
    (effects (font (size 1 1) (thickness 0.15)))
  )
  (fp_text value "Inductor_0806(2016Metric)" (at 0.09 -1.15) (layer F.Fab)
    (effects (font (size 0.2 0.2) (thickness 0.05)))
  )
  (fp_line (start -1 -0.8) (end 1 -0.8) (layer F.CrtYd) (width 0.1))
  (fp_line (start -1 0.8) (end 1 0.8) (layer F.CrtYd) (width 0.1))
  (fp_line (start -1 -0.8) (end -1 0.8) (layer F.CrtYd) (width 0.12))
  (fp_line (start 1 0.8) (end 1 -0.8) (layer F.CrtYd) (width 0.12))
  (pad 1 smd roundrect (at -0.9 0) (size 0.8 1.6) (layers F.Cu F.Paste F.Mask) (roundrect_rratio 0.25))
  (pad 2 smd roundrect (at 0.9 0) (size 0.8 1.6) (layers F.Cu F.Paste F.Mask) (roundrect_rratio 0.25))
)
