(module "Inductor_1008(2520 Metric)" (layer F.Cu) (tedit 5CFD801B)
  (fp_text reference REF** (at 0 1.75) (layer F.SilkS)
    (effects (font (size 0.75 0.75) (thickness 0.15)))
  )
  (fp_text value "Inductor_1008(2520 Metric)" (at 0 -0.5) (layer F.Fab)
    (effects (font (size 0.15 0.15) (thickness 0.025)))
  )
  (fp_line (start -1.5 -1) (end 1.5 -1) (layer F.CrtYd) (width 0.15))
  (fp_line (start 1.5 -1) (end 1.5 1) (layer F.CrtYd) (width 0.15))
  (fp_line (start 1.5 1) (end -1.5 1) (layer F.CrtYd) (width 0.15))
  (fp_line (start -1.5 1) (end -1.5 -1) (layer F.CrtYd) (width 0.15))
  (pad 1 smd roundrect (at 1 0) (size 0.8 2) (layers F.Cu F.Paste F.Mask) (roundrect_rratio 0.25))
  (pad 2 smd roundrect (at -1 0) (size 0.8 2) (layers F.Cu F.Paste F.Mask) (roundrect_rratio 0.25))
)
