(module LOGO (layer F.Cu)
  (at 0 0)
 (fp_text reference "G***" (at 0 0) (layer F.SilkS) hide
  (effects (font (thickness 0.3)))
  )
  (fp_text value "LOGO" (at 0.75 0) (layer F.SilkS) hide
  (effects (font (thickness 0.3)))
  )
  (fp_poly (pts (xy 0.099395 -6.650655) (xy 0.783109 -6.598689) (xy 1.380582 -6.499659) (xy 1.453059 -6.482246) (xy 2.227558 -6.229378) (xy 3.033153 -5.863639) (xy 3.818978 -5.414281) (xy 4.534165 -4.910553)
     (xy 5.127847 -4.381708) (xy 5.155063 -4.353418) (xy 5.320236 -4.165256) (xy 5.558738 -3.874330) (xy 5.839912 -3.518844) (xy 6.133099 -3.137001) (xy 6.162305 -3.098299) (xy 6.443621 -2.738002)
     (xy 6.707571 -2.423576) (xy 6.927476 -2.185234) (xy 7.076652 -2.053187) (xy 7.094483 -2.042764) (xy 7.289178 -1.947201) (xy 7.574149 -1.808618) (xy 7.835126 -1.682403) (xy 8.325178 -1.390595)
     (xy 8.658354 -1.054344) (xy 8.851494 -0.651741) (xy 8.915846 -0.276430) (xy 8.919485 0.099618) (xy 8.856498 0.395019) (xy 8.774463 0.582050) (xy 8.654837 0.797553) (xy 8.526817 0.964666)
     (xy 8.355665 1.111172) (xy 8.106639 1.264855) (xy 7.745000 1.453500) (xy 7.585732 1.532759) (xy 7.301480 1.677591) (xy 7.080598 1.808542) (xy 6.891008 1.955049) (xy 6.700636 2.146546)
     (xy 6.477406 2.412470) (xy 6.189242 2.782257) (xy 6.106386 2.890345) (xy 5.694128 3.421228) (xy 5.354300 3.837160) (xy 5.059024 4.166799) (xy 4.780420 4.438805) (xy 4.490610 4.681834)
     (xy 4.161715 4.924545) (xy 4.055203 4.998853) (xy 3.122654 5.563174) (xy 2.158468 5.995372) (xy 1.453059 6.217228) (xy 0.790034 6.336440) (xy 0.036451 6.390857) (xy -0.739459 6.380573)
     (xy -1.469464 6.305679) (xy -1.925091 6.212652) (xy -2.789402 5.933101) (xy -3.590494 5.556992) (xy -4.349976 5.068860) (xy -5.089456 4.453239) (xy -5.830542 3.694663) (xy -6.425255 2.991730)
     (xy -6.783108 2.548498) (xy -7.056186 2.220808) (xy -7.268186 1.986651) (xy -7.442803 1.824022) (xy -7.603733 1.710912) (xy -7.774672 1.625314) (xy -7.979316 1.545220) (xy -7.984996 1.543125)
     (xy -8.411604 1.329886) (xy -8.797900 1.035342) (xy -9.101769 0.698684) (xy -9.281095 0.359102) (xy -9.289935 0.328815) (xy -9.347713 -0.131379) (xy -8.618483 -0.131379) (xy -8.561704 0.156269)
     (xy -8.380413 0.415558) (xy -8.058176 0.663004) (xy -7.578564 0.915122) (xy -7.576207 0.916208) (xy -7.333328 1.034563) (xy -7.121524 1.158676) (xy -6.919360 1.309124) (xy -6.705399 1.506487)
     (xy -6.458204 1.771343) (xy -6.156339 2.124271) (xy -5.778369 2.585849) (xy -5.576977 2.835438) (xy -4.771879 3.720605) (xy -3.907549 4.451933) (xy -2.991836 5.023951) (xy -2.032589 5.431186)
     (xy -1.718391 5.525623) (xy -1.163702 5.627284) (xy -0.508108 5.671251) (xy 0.185634 5.659306) (xy 0.854768 5.593231) (xy 1.436540 5.474807) (xy 1.576552 5.432069) (xy 1.946789 5.290773)
     (xy 2.377051 5.101343) (xy 2.776114 4.904015) (xy 2.787345 4.898022) (xy 3.449273 4.509865) (xy 4.026540 4.089916) (xy 4.555566 3.604850) (xy 5.072771 3.021344) (xy 5.603874 2.321035)
     (xy 5.983816 1.820820) (xy 6.320057 1.451807) (xy 6.642597 1.186284) (xy 6.981436 0.996539) (xy 7.085577 0.952311) (xy 7.500530 0.773737) (xy 7.784029 0.614912) (xy 7.973688 0.449750)
     (xy 8.107122 0.252164) (xy 8.113952 0.239112) (xy 8.218925 -0.119664) (xy 8.152378 -0.453239) (xy 7.916585 -0.758378) (xy 7.513817 -1.031847) (xy 7.089974 -1.219306) (xy 6.839282 -1.326386)
     (xy 6.616477 -1.459592) (xy 6.396240 -1.642918) (xy 6.153250 -1.900359) (xy 5.862187 -2.255912) (xy 5.511521 -2.715172) (xy 4.993020 -3.377130) (xy 4.516703 -3.912591) (xy 4.047050 -4.352053)
     (xy 3.548537 -4.726013) (xy 2.985642 -5.064969) (xy 2.463049 -5.332417) (xy 1.724094 -5.645361) (xy 1.018549 -5.841384) (xy 0.283611 -5.932935) (xy -0.543524 -5.932462) (xy -0.560259 -5.931657)
     (xy -1.588306 -5.796434) (xy -2.564881 -5.493913) (xy -3.489393 -5.024415) (xy -4.361252 -4.388261) (xy -5.179867 -3.585772) (xy -5.448642 -3.271828) (xy -5.751756 -2.902493) (xy -6.075571 -2.508151)
     (xy -6.363290 -2.157961) (xy -6.438499 -2.066475) (xy -6.739555 -1.734354) (xy -7.044729 -1.486975) (xy -7.428360 -1.266494) (xy -7.533326 -1.214564) (xy -8.015593 -0.954990) (xy -8.344505 -0.712268)
     (xy -8.538331 -0.468162) (xy -8.615340 -0.204437) (xy -8.618483 -0.131379) (xy -9.347713 -0.131379) (xy -9.355695 -0.194947) (xy -9.256547 -0.670902) (xy -8.990943 -1.101584) (xy -8.557335 -1.489525)
     (xy -7.971714 -1.828854) (xy -7.695190 -1.968193) (xy -7.475479 -2.101864) (xy -7.278618 -2.260248) (xy -7.070643 -2.473726) (xy -6.817591 -2.772680) (xy -6.565402 -3.086842) (xy -6.255544 -3.470923)
     (xy -5.950029 -3.839689) (xy -5.682175 -4.153531) (xy -5.485303 -4.372843) (xy -5.470575 -4.388287) (xy -4.862274 -4.939436) (xy -4.144539 -5.457123) (xy -3.367248 -5.912151) (xy -2.580277 -6.275320)
     (xy -1.833714 -6.517379) (xy -1.272564 -6.610680) (xy -0.607012 -6.654878) (xy 0.099395 -6.650655) )(layer F.SilkS) (width  0.010000)
  )
  (fp_poly (pts (xy -2.183656 -0.453214) (xy -2.156571 -0.265715) (xy -2.209813 0.065918) (xy -2.282072 0.362904) (xy -2.418842 1.128979) (xy -2.412749 1.854272) (xy -2.258312 2.563295) (xy -1.950051 3.280562)
     (xy -1.482484 4.030584) (xy -1.452607 4.072479) (xy -1.284979 4.330003) (xy -1.171060 4.550698) (xy -1.138621 4.663686) (xy -1.211825 4.779722) (xy -1.414971 4.814633) (xy -1.723359 4.769586)
     (xy -2.112291 4.645744) (xy -2.191771 4.614014) (xy -2.903198 4.253289) (xy -3.484274 3.816639) (xy -3.926795 3.317159) (xy -4.222557 2.767941) (xy -4.363359 2.182081) (xy -4.340996 1.572671)
     (xy -4.274245 1.289992) (xy -4.120592 0.972050) (xy -3.854462 0.609788) (xy -3.515162 0.246329) (xy -3.142001 -0.075204) (xy -2.853450 -0.268730) (xy -2.521438 -0.442941) (xy -2.301726 -0.508362)
     (xy -2.183656 -0.453214) )(layer F.SilkS) (width  0.010000)
  )
  (fp_poly (pts (xy -1.143469 1.544340) (xy -0.934595 1.652751) (xy -0.736135 1.779349) (xy -0.087634 2.178146) (xy 0.516947 2.441815) (xy 1.122872 2.585995) (xy 1.715817 2.626547) (xy 2.079640 2.600632)
     (xy 2.538736 2.530915) (xy 3.022933 2.431148) (xy 3.462057 2.315087) (xy 3.678621 2.241852) (xy 3.861635 2.240964) (xy 3.941185 2.274847) (xy 4.015457 2.349036) (xy 4.005161 2.461953)
     (xy 3.906209 2.666741) (xy 3.688372 2.978187) (xy 3.363414 3.331957) (xy 2.977777 3.686097) (xy 2.577906 3.998649) (xy 2.210242 4.227657) (xy 2.140999 4.261424) (xy 1.619479 4.439574)
     (xy 1.070648 4.523805) (xy 0.554448 4.508872) (xy 0.224030 4.429167) (xy -0.176924 4.242180) (xy -0.489204 3.994306) (xy -0.767881 3.638030) (xy -0.857172 3.496310) (xy -1.064919 3.100886)
     (xy -1.227578 2.688546) (xy -1.338411 2.292277) (xy -1.390681 1.945066) (xy -1.377649 1.679900) (xy -1.292578 1.529768) (xy -1.261871 1.514898) (xy -1.143469 1.544340) )(layer F.SilkS) (width  0.010000)
  )
  (fp_poly (pts (xy 3.600057 -3.159812) (xy 3.806968 -2.938091) (xy 4.017854 -2.606891) (xy 4.218661 -2.197580) (xy 4.395338 -1.741522) (xy 4.533832 -1.270083) (xy 4.620089 -0.814630) (xy 4.642069 -0.493310)
     (xy 4.564288 0.095382) (xy 4.344861 0.632683) (xy 4.004657 1.088996) (xy 3.564549 1.434724) (xy 3.158426 1.610651) (xy 2.817396 1.682071) (xy 2.399145 1.726960) (xy 1.960264 1.743880)
     (xy 1.557345 1.731393) (xy 1.246977 1.688062) (xy 1.160517 1.661409) (xy 0.993729 1.542941) (xy 0.984731 1.381000) (xy 1.135736 1.170409) (xy 1.448959 0.905991) (xy 1.499280 0.869148)
     (xy 2.119517 0.317896) (xy 2.596471 -0.331682) (xy 2.925280 -1.070559) (xy 3.101082 -1.889705) (xy 3.123035 -2.145862) (xy 3.153443 -2.604420) (xy 3.186763 -2.915439) (xy 3.230252 -3.106495)
     (xy 3.291168 -3.205167) (xy 3.376770 -3.239034) (xy 3.411174 -3.240689) (xy 3.600057 -3.159812) )(layer F.SilkS) (width  0.010000)
  )
  (fp_poly (pts (xy -2.496899 -3.457445) (xy -1.913151 -3.320976) (xy -1.347203 -3.081444) (xy -0.841547 -2.750026) (xy -0.700996 -2.627872) (xy -0.506326 -2.418530) (xy -0.441560 -2.260958) (xy -0.517206 -2.143088)
     (xy -0.743770 -2.052848) (xy -1.131761 -1.978171) (xy -1.285529 -1.956418) (xy -2.142200 -1.760400) (xy -2.911129 -1.413168) (xy -3.593580 -0.913897) (xy -4.190820 -0.261765) (xy -4.441348 0.096071)
     (xy -4.680822 0.417841) (xy -4.883379 0.587774) (xy -5.041010 0.601498) (xy -5.137991 0.476308) (xy -5.172391 0.263548) (xy -5.175046 -0.072830) (xy -5.150599 -0.485092) (xy -5.103694 -0.925503)
     (xy -5.038973 -1.346331) (xy -4.961080 -1.699841) (xy -4.911030 -1.856970) (xy -4.674159 -2.325468) (xy -4.349246 -2.761287) (xy -3.976089 -3.120066) (xy -3.594489 -3.357440) (xy -3.547820 -3.376503)
     (xy -3.055954 -3.479679) (xy -2.496899 -3.457445) )(layer F.SilkS) (width  0.010000)
  )
  (fp_poly (pts (xy 0.248940 -5.030901) (xy 0.582648 -5.016092) (xy 0.823010 -4.983954) (xy 1.010880 -4.929074) (xy 1.183562 -4.847943) (xy 1.641439 -4.534766) (xy 2.009642 -4.148906) (xy 2.163588 -3.907101)
     (xy 2.272851 -3.592627) (xy 2.330754 -3.199501) (xy 2.341922 -2.761380) (xy 2.310975 -2.311920) (xy 2.242538 -1.884777) (xy 2.141232 -1.513610) (xy 2.011680 -1.232073) (xy 1.858505 -1.073825)
     (xy 1.771372 -1.051430) (xy 1.645773 -1.133305) (xy 1.469916 -1.379382) (xy 1.242751 -1.791134) (xy 1.240364 -1.795806) (xy 0.810306 -2.490696) (xy 0.289676 -3.054747) (xy -0.338939 -3.501191)
     (xy -1.092951 -3.843261) (xy -1.692379 -4.024576) (xy -2.018127 -4.113409) (xy -2.207786 -4.187676) (xy -2.296858 -4.268054) (xy -2.320844 -4.375225) (xy -2.321034 -4.390770) (xy -2.292221 -4.518298)
     (xy -2.182534 -4.627080) (xy -1.957100 -4.745226) (xy -1.795517 -4.814350) (xy -1.540824 -4.910500) (xy -1.300579 -4.973832) (xy -1.026692 -5.011041) (xy -0.671076 -5.028819) (xy -0.218965 -5.033796)
     (xy 0.248940 -5.030901) )(layer F.SilkS) (width  0.010000)
  )
)
