(module LOGO (layer F.Cu)
  (at 0 0)
 (fp_text reference "G***" (at 0 0) (layer F.SilkS) hide
  (effects (font (thickness 0.3)))
  )
  (fp_text value "LOGO" (at 0.75 0) (layer F.SilkS) hide
  (effects (font (thickness 0.3)))
  )
  (fp_poly (pts (xy 0.149351 -9.993213) (xy 1.176692 -9.915128) (xy 2.074449 -9.766327) (xy 2.183352 -9.740163) (xy 3.347108 -9.360206) (xy 4.557588 -8.810650) (xy 5.738362 -8.135448) (xy 6.812995 -7.378552)
     (xy 7.705055 -6.583913) (xy 7.745950 -6.541405) (xy 7.994137 -6.258675) (xy 8.352508 -5.821532) (xy 8.774998 -5.287383) (xy 9.215538 -4.713629) (xy 9.259422 -4.655475) (xy 9.682124 -4.114096)
     (xy 10.078734 -3.641643) (xy 10.409161 -3.283512) (xy 10.633311 -3.085101) (xy 10.660104 -3.069439) (xy 10.952651 -2.925846) (xy 11.380845 -2.717613) (xy 11.772987 -2.527964) (xy 12.509335 -2.089495)
     (xy 13.009962 -1.584247) (xy 13.300173 -0.979300) (xy 13.396867 -0.415361) (xy 13.402335 0.149685) (xy 13.307691 0.593551) (xy 13.184427 0.874583) (xy 13.004677 1.198395) (xy 12.812316 1.449497)
     (xy 12.555144 1.669636) (xy 12.180960 1.900559) (xy 11.637564 2.184016) (xy 11.398251 2.303109) (xy 10.971137 2.520732) (xy 10.639240 2.717498) (xy 10.354365 2.937638) (xy 10.068314 3.225380)
     (xy 9.732890 3.624955) (xy 9.299897 4.180593) (xy 9.175399 4.343005) (xy 8.555944 5.140704) (xy 8.045322 5.765680) (xy 7.601642 6.260994) (xy 7.183015 6.669706) (xy 6.747549 7.034879)
     (xy 6.253354 7.399574) (xy 6.093311 7.511229) (xy 4.692070 8.359173) (xy 3.243293 9.008590) (xy 2.183352 9.341949) (xy 1.187098 9.521075) (xy 0.054772 9.602842) (xy -1.111103 9.587388)
     (xy -2.208002 9.474854) (xy -2.892623 9.335073) (xy -4.191329 8.915022) (xy -5.395042 8.349884) (xy -6.536233 7.616421) (xy -7.647368 6.691395) (xy -8.760918 5.551565) (xy -9.654529 4.495345)
     (xy -10.192234 3.829349) (xy -10.602559 3.336965) (xy -10.921109 2.985124) (xy -11.183487 2.740758) (xy -11.425299 2.570800) (xy -11.682150 2.442181) (xy -11.989645 2.321833) (xy -11.998181 2.318685)
     (xy -12.639198 1.998273) (xy -13.219642 1.555695) (xy -13.676232 1.049836) (xy -13.945687 0.539583) (xy -13.958970 0.494074) (xy -14.045787 -0.197409) (xy -12.950052 -0.197409) (xy -12.864736 0.234808)
     (xy -12.592329 0.624413) (xy -12.108141 0.996223) (xy -11.387479 1.375054) (xy -11.383938 1.376686) (xy -11.018990 1.554525) (xy -10.700736 1.741015) (xy -10.396965 1.967078) (xy -10.075469 2.263633)
     (xy -9.704037 2.661604) (xy -9.250458 3.191910) (xy -8.682523 3.885472) (xy -8.379913 4.260503) (xy -7.170181 5.590545) (xy -5.871447 6.689432) (xy -4.495505 7.548941) (xy -3.054149 8.160850)
     (xy -2.582039 8.302750) (xy -1.748567 8.455505) (xy -0.763478 8.521569) (xy 0.278932 8.503621) (xy 1.284367 8.404337) (xy 2.158531 8.226394) (xy 2.368912 8.162176) (xy 2.925227 7.949866)
     (xy 3.571735 7.665230) (xy 4.171364 7.368726) (xy 4.188239 7.359722) (xy 5.182846 6.776481) (xy 6.050242 6.145469) (xy 6.845151 5.416613) (xy 7.622298 4.539843) (xy 8.420330 3.487565)
     (xy 8.991226 2.735947) (xy 9.496459 2.181471) (xy 9.981105 1.782499) (xy 10.490241 1.497390) (xy 10.646722 1.430934) (xy 11.270227 1.162610) (xy 11.696210 0.923961) (xy 11.981189 0.675790)
     (xy 12.181686 0.378898) (xy 12.191949 0.359287) (xy 12.349680 -0.179806) (xy 12.249688 -0.681033) (xy 11.895387 -1.139533) (xy 11.290191 -1.550444) (xy 10.653329 -1.832119) (xy 10.276641 -1.993016)
     (xy 9.941857 -2.193169) (xy 9.610931 -2.468633) (xy 9.245816 -2.855463) (xy 8.808467 -3.389713) (xy 8.281561 -4.079793) (xy 7.502465 -5.074444) (xy 6.786757 -5.879022) (xy 6.081059 -6.539354)
     (xy 5.331998 -7.101264) (xy 4.486198 -7.610576) (xy 3.700955 -8.012441) (xy 2.590608 -8.482667) (xy 1.530462 -8.777209) (xy 0.426151 -8.914773) (xy -0.816694 -8.914062) (xy -0.841840 -8.912852)
     (xy -2.386573 -8.709668) (xy -3.853965 -8.255103) (xy -5.243129 -7.549639) (xy -6.553177 -6.593760) (xy -7.783220 -5.387948) (xy -8.187078 -4.916219) (xy -8.642535 -4.361260) (xy -9.129096 -3.768725)
     (xy -9.561421 -3.242532) (xy -9.674428 -3.105066) (xy -10.126793 -2.606024) (xy -10.585344 -2.234315) (xy -11.161784 -1.903022) (xy -11.319506 -1.824992) (xy -12.044154 -1.434960) (xy -12.538375 -1.070248)
     (xy -12.829616 -0.703456) (xy -12.945330 -0.307185) (xy -12.950052 -0.197409) (xy -14.045787 -0.197409) (xy -14.057780 -0.292926) (xy -13.908801 -1.008091) (xy -13.509707 -1.655230) (xy -12.858172 -2.238147)
     (xy -11.978223 -2.748019) (xy -11.562720 -2.957389) (xy -11.232584 -3.158242) (xy -10.936783 -3.396228) (xy -10.624282 -3.716998) (xy -10.244049 -4.166203) (xy -9.865112 -4.638261) (xy -9.399522 -5.215377)
     (xy -8.940458 -5.769480) (xy -8.537984 -6.241057) (xy -8.242165 -6.570594) (xy -8.220034 -6.593800) (xy -7.306007 -7.421950) (xy -6.227546 -8.199822) (xy -5.059595 -8.883543) (xy -3.877100 -9.429237)
     (xy -2.755322 -9.792954) (xy -1.912143 -9.933146) (xy -0.912090 -9.999559) (xy 0.149351 -9.993213) )(layer F.SilkS) (width  0.010000)
  )
  (fp_poly (pts (xy -3.281141 -0.680996) (xy -3.240443 -0.399261) (xy -3.320445 0.099047) (xy -3.429020 0.545296) (xy -3.634529 1.696394) (xy -3.625373 2.786212) (xy -3.393319 3.851583) (xy -2.930128 4.929341)
     (xy -2.227567 6.056318) (xy -2.182674 6.119268) (xy -1.930797 6.506222) (xy -1.759623 6.837837) (xy -1.710881 7.007610) (xy -1.820876 7.181965) (xy -2.126121 7.234423) (xy -2.589503 7.166735)
     (xy -3.173909 6.980652) (xy -3.293335 6.932974) (xy -4.362319 6.390952) (xy -5.235437 5.734847) (xy -5.900365 4.984332) (xy -6.344775 4.159083) (xy -6.556342 3.278774) (xy -6.522739 2.363080)
     (xy -6.422441 1.938330) (xy -6.191563 1.460594) (xy -5.791678 0.916262) (xy -5.281850 0.370131) (xy -4.721141 -0.113001) (xy -4.287568 -0.403792) (xy -3.788689 -0.665559) (xy -3.458552 -0.763861)
     (xy -3.281141 -0.680996) )(layer F.SilkS) (width  0.010000)
  )
  (fp_poly (pts (xy -1.718165 2.320510) (xy -1.404313 2.483408) (xy -1.106109 2.673632) (xy -0.131677 3.272862) (xy 0.776760 3.669048) (xy 1.687218 3.885692) (xy 2.578171 3.946625) (xy 3.124848 3.907685)
     (xy 3.814682 3.802928) (xy 4.542231 3.653020) (xy 5.202055 3.478627) (xy 5.527461 3.368586) (xy 5.802457 3.367251) (xy 5.921988 3.418164) (xy 6.033588 3.529639) (xy 6.018117 3.699308)
     (xy 5.869434 4.007021) (xy 5.542114 4.474995) (xy 5.053834 5.006567) (xy 4.474380 5.538694) (xy 3.873537 6.008332) (xy 3.321089 6.352438) (xy 3.217045 6.403176) (xy 2.433414 6.670862)
     (xy 1.608746 6.797427) (xy 0.833108 6.774989) (xy 0.336626 6.655224) (xy -0.265845 6.374259) (xy -0.735073 6.001807) (xy -1.153811 5.466470) (xy -1.287978 5.253523) (xy -1.600138 4.659363)
     (xy -1.844548 4.039784) (xy -2.011084 3.444354) (xy -2.089623 2.922637) (xy -2.070042 2.524202) (xy -1.942215 2.298615) (xy -1.896075 2.276271) (xy -1.718165 2.320510) )(layer F.SilkS) (width  0.010000)
  )
  (fp_poly (pts (xy 5.409413 -4.747905) (xy 5.720315 -4.414748) (xy 6.037190 -3.917091) (xy 6.338921 -3.302063) (xy 6.604394 -2.616795) (xy 6.812493 -1.908416) (xy 6.942103 -1.224056) (xy 6.975130 -0.741243)
     (xy 6.858257 0.143320) (xy 6.528548 0.950664) (xy 6.017361 1.636315) (xy 5.356058 2.155803) (xy 4.745821 2.420148) (xy 4.233393 2.527464) (xy 3.604933 2.594914) (xy 2.945475 2.620338)
     (xy 2.340052 2.601575) (xy 1.873696 2.536465) (xy 1.743783 2.496417) (xy 1.493168 2.318409) (xy 1.479647 2.075077) (xy 1.706547 1.758645) (xy 2.177193 1.361333) (xy 2.252804 1.305974)
     (xy 3.184767 0.477668) (xy 3.901434 -0.498383) (xy 4.395499 -1.608612) (xy 4.659657 -2.839454) (xy 4.692643 -3.224352) (xy 4.738335 -3.913378) (xy 4.788401 -4.380711) (xy 4.853747 -4.667790)
     (xy 4.945279 -4.816055) (xy 5.073903 -4.866943) (xy 5.125598 -4.869430) (xy 5.409413 -4.747905) )(layer F.SilkS) (width  0.010000)
  )
  (fp_poly (pts (xy -3.751818 -5.195126) (xy -2.874683 -4.990067) (xy -2.024294 -4.630150) (xy -1.264501 -4.132164) (xy -1.053310 -3.948617) (xy -0.760801 -3.634060) (xy -0.663484 -3.397295) (xy -0.777149 -3.220184)
     (xy -1.117582 -3.084591) (xy -1.700573 -2.972381) (xy -1.931623 -2.939695) (xy -3.218850 -2.645161) (xy -4.374235 -2.123413) (xy -5.399679 -1.373213) (xy -6.297087 -0.393325) (xy -6.673528 0.144356)
     (xy -7.033360 0.627844) (xy -7.337720 0.883183) (xy -7.574575 0.903804) (xy -7.720297 0.715696) (xy -7.771986 0.396004) (xy -7.775975 -0.109434) (xy -7.739242 -0.728894) (xy -7.668763 -1.390653)
     (xy -7.571514 -2.022984) (xy -7.454473 -2.554165) (xy -7.379268 -2.790267) (xy -7.023348 -3.494226) (xy -6.535136 -4.149085) (xy -5.974434 -4.688182) (xy -5.401045 -5.044859) (xy -5.330921 -5.073502)
     (xy -4.591847 -5.228534) (xy -3.751818 -5.195126) )(layer F.SilkS) (width  0.010000)
  )
  (fp_poly (pts (xy 0.374056 -7.559385) (xy 0.875481 -7.537133) (xy 1.236647 -7.488843) (xy 1.518940 -7.406380) (xy 1.778409 -7.284474) (xy 2.466410 -6.813897) (xy 3.019670 -6.234107) (xy 3.250987 -5.870774)
     (xy 3.415165 -5.398248) (xy 3.502170 -4.807541) (xy 3.518950 -4.149224) (xy 3.472450 -3.473869) (xy 3.369617 -2.832049) (xy 3.217395 -2.274336) (xy 3.022731 -1.851302) (xy 2.792572 -1.613519)
     (xy 2.661647 -1.579870) (xy 2.472923 -1.702894) (xy 2.208682 -2.072647) (xy 1.867347 -2.691341) (xy 1.863759 -2.698362) (xy 1.217559 -3.742497) (xy 0.435265 -4.590034) (xy -0.509287 -5.260857)
     (xy -1.642259 -5.774849) (xy -2.542952 -6.047291) (xy -3.032418 -6.180771) (xy -3.317399 -6.292363) (xy -3.451238 -6.413139) (xy -3.487278 -6.574172) (xy -3.487564 -6.597530) (xy -3.444270 -6.789152)
     (xy -3.279455 -6.952608) (xy -2.940719 -7.130132) (xy -2.697927 -7.233997) (xy -2.315227 -7.378472) (xy -1.954237 -7.473634) (xy -1.542698 -7.529543) (xy -1.008352 -7.556256) (xy -0.329015 -7.563735)
     (xy 0.374056 -7.559385) )(layer F.SilkS) (width  0.010000)
  )
)
