(module Molex_5051102291 (layer F.Cu) (tedit 5D4CF9F1)
  (attr smd)
  (fp_text reference REF** (at 0 1.3) (layer F.SilkS)
    (effects (font (size 1 1) (thickness 0.15)))
  )
  (fp_text value Molex_5051102291 (at 0 2.8) (layer F.Fab)
    (effects (font (size 0.5 0.5) (thickness 0.1)))
  )
  (fp_line (start -5.5 -0.68) (end 5.5 -0.68) (layer F.SilkS) (width 0.12))
  (fp_line (start -5.5 2) (end 5.5 2) (layer F.SilkS) (width 0.12))
  (fp_line (start 5.5 2) (end 5.5 3.62) (layer F.SilkS) (width 0.12))
  (fp_line (start -5.5 3.6) (end -9.01 3.62) (layer F.SilkS) (width 0.12))
  (fp_line (start 5.5 3.62) (end 8.9 3.62) (layer F.SilkS) (width 0.12))
  (fp_line (start -9.01 3.62) (end -9.01 1.96) (layer F.SilkS) (width 0.12))
  (fp_line (start 8.9 3.62) (end 8.9 1.96) (layer F.SilkS) (width 0.12))
  (fp_line (start -9.01 1.96) (end -7.7 1.96) (layer F.SilkS) (width 0.12))
  (fp_line (start 8.9 1.96) (end 7.7 1.96) (layer F.SilkS) (width 0.12))
  (fp_line (start -5.5 3.6) (end -5.5 2) (layer F.SilkS) (width 0.12))
  (fp_line (start -10.15 -0.9) (end 10.15 -0.9) (layer F.CrtYd) (width 0.05))
  (fp_line (start 10.15 -0.9) (end 10.15 3.85) (layer F.CrtYd) (width 0.05))
  (fp_line (start -10.15 3.85) (end 10.15 3.85) (layer F.CrtYd) (width 0.05))
  (fp_line (start -10.15 -0.9) (end -10.15 3.85) (layer F.CrtYd) (width 0.05))
  (fp_line (start -7.7 0.2) (end -5.5 0.2) (layer F.SilkS) (width 0.12))
  (fp_line (start 5.5 0.2) (end 7.7 0.2) (layer F.SilkS) (width 0.12))
  (fp_line (start 7.7 0.2) (end 7.7 1.9) (layer F.SilkS) (width 0.12))
  (fp_line (start -7.7 0.2) (end -7.7 1.9) (layer F.SilkS) (width 0.12))
  (fp_line (start -5.5 0.2) (end -5.5 -0.68) (layer F.SilkS) (width 0.12))
  (fp_line (start 5.5 0.2) (end 5.5 -0.68) (layer F.SilkS) (width 0.12))
  (pad 22 smd roundrect (at -5.25 0) (size 0.3 1) (layers F.Cu F.Paste F.Mask) (roundrect_rratio 0.25))
  (pad 21 smd roundrect (at -4.75 0) (size 0.3 1) (layers F.Cu F.Paste F.Mask) (roundrect_rratio 0.25))
  (pad 20 smd roundrect (at -4.25 0) (size 0.3 1) (layers F.Cu F.Paste F.Mask) (roundrect_rratio 0.25))
  (pad 19 smd roundrect (at -3.75 0) (size 0.3 1) (layers F.Cu F.Paste F.Mask) (roundrect_rratio 0.25))
  (pad 18 smd roundrect (at -3.25 0) (size 0.3 1) (layers F.Cu F.Paste F.Mask) (roundrect_rratio 0.25))
  (pad 17 smd roundrect (at -2.75 0) (size 0.3 1) (layers F.Cu F.Paste F.Mask) (roundrect_rratio 0.25))
  (pad 16 smd roundrect (at -2.25 0) (size 0.3 1) (layers F.Cu F.Paste F.Mask) (roundrect_rratio 0.25))
  (pad 15 smd roundrect (at -1.75 0) (size 0.3 1) (layers F.Cu F.Paste F.Mask) (roundrect_rratio 0.25))
  (pad 14 smd roundrect (at -1.25 0) (size 0.3 1) (layers F.Cu F.Paste F.Mask) (roundrect_rratio 0.25))
  (pad 13 smd roundrect (at -0.75 0) (size 0.3 1) (layers F.Cu F.Paste F.Mask) (roundrect_rratio 0.25))
  (pad 12 smd roundrect (at -0.25 0) (size 0.3 1) (layers F.Cu F.Paste F.Mask) (roundrect_rratio 0.25))
  (pad 11 smd roundrect (at 0.25 0) (size 0.3 1) (layers F.Cu F.Paste F.Mask) (roundrect_rratio 0.25))
  (pad 10 smd roundrect (at 0.75 0) (size 0.3 1) (layers F.Cu F.Paste F.Mask) (roundrect_rratio 0.25))
  (pad 9 smd roundrect (at 1.25 0) (size 0.3 1) (layers F.Cu F.Paste F.Mask) (roundrect_rratio 0.25))
  (pad 8 smd roundrect (at 1.75 0) (size 0.3 1) (layers F.Cu F.Paste F.Mask) (roundrect_rratio 0.25))
  (pad 7 smd roundrect (at 2.25 0) (size 0.3 1) (layers F.Cu F.Paste F.Mask) (roundrect_rratio 0.25))
  (pad 6 smd roundrect (at 2.75 0) (size 0.3 1) (layers F.Cu F.Paste F.Mask) (roundrect_rratio 0.25))
  (pad 5 smd roundrect (at 3.25 0) (size 0.3 1) (layers F.Cu F.Paste F.Mask) (roundrect_rratio 0.25))
  (pad 4 smd roundrect (at 3.75 0) (size 0.3 1) (layers F.Cu F.Paste F.Mask) (roundrect_rratio 0.25))
  (pad 3 smd roundrect (at 4.25 0) (size 0.3 1) (layers F.Cu F.Paste F.Mask) (roundrect_rratio 0.25))
  (pad 2 smd roundrect (at 4.75 0) (size 0.3 1) (layers F.Cu F.Paste F.Mask) (roundrect_rratio 0.25))
  (pad 1 smd roundrect (at 5.25 0) (size 0.3 1) (layers F.Cu F.Paste F.Mask) (roundrect_rratio 0.25))
  (pad 0 smd rect (at -7.85 2.7) (size 2 1.3) (layers F.Cu F.Paste F.Mask))
  (pad 0 smd rect (at 7.85 2.7) (size 2 1.3) (layers F.Cu F.Paste F.Mask))
)
