(module OSRAM_LED_LT_CP7P (layer F.Cu) (tedit 59BD4429)
  (fp_text reference REF** (at -1.5 2.5) (layer F.SilkS)
    (effects (font (size 0.7 0.7) (thickness 0.1)))
  )
  (fp_text value OSRAM_LED_LT_CP7P (at 0 -3.5) (layer F.Fab)
    (effects (font (size 0.4 0.4) (thickness 0.1)))
  )
  (fp_line (start 0.4 2.3) (end 0.4 2.1) (layer F.SilkS) (width 0.1))
  (fp_line (start 0.2 2.4) (end 0.4 2.3) (layer F.SilkS) (width 0.1))
  (fp_line (start 0.2 2.8) (end 0.2 2.4) (layer F.SilkS) (width 0.1))
  (fp_line (start 0.4 2.9) (end 0.2 2.8) (layer F.SilkS) (width 0.1))
  (fp_line (start 0.4 3.1) (end 0.4 2.9) (layer F.SilkS) (width 0.1))
  (fp_line (start -0.3 3.1) (end 0.4 3.1) (layer F.SilkS) (width 0.1))
  (fp_line (start -0.3 2.1) (end -0.3 3.1) (layer F.SilkS) (width 0.1))
  (fp_line (start 0.4 2.1) (end -0.3 2.1) (layer F.SilkS) (width 0.1))
  (fp_line (start 0.2 0.6) (end 0.5 0.6) (layer F.Fab) (width 0.05))
  (fp_line (start 0.2 -0.6) (end 0.2 0.6) (layer F.Fab) (width 0.05))
  (fp_line (start 0.5 -0.6) (end 0.2 -0.6) (layer F.Fab) (width 0.05))
  (fp_text user thermal (at 0 0 90) (layer F.Fab)
    (effects (font (size 0.25 0.25) (thickness 0.02)))
  )
  (fp_line (start 1.8 -1.25) (end 3.2 -1.25) (layer F.SilkS) (width 0.1))
  (fp_line (start 2.3 -1.55) (end 2.8 -1.25) (layer F.SilkS) (width 0.1))
  (fp_line (start 2.3 -0.95) (end 2.3 -1.55) (layer F.SilkS) (width 0.1))
  (fp_line (start 2.8 -1.25) (end 2.3 -0.95) (layer F.SilkS) (width 0.1))
  (fp_line (start 2.8 -1.55) (end 2.8 -0.95) (layer F.SilkS) (width 0.1))
  (fp_text user + (at -2.25 -1.25) (layer F.SilkS)
    (effects (font (size 1 1) (thickness 0.15)))
  )
  (fp_line (start 0.5 1.5) (end -0.5 1.5) (layer F.Fab) (width 0.05))
  (fp_line (start 0.5 0.6) (end 0.5 1.5) (layer F.Fab) (width 0.05))
  (fp_line (start -0.5 -1.5) (end 0.5 -1.5) (layer F.Fab) (width 0.05))
  (fp_line (start -0.5 -1.5) (end -0.5 1.5) (layer F.Fab) (width 0.05))
  (fp_line (start 0.5 -1.5) (end 0.5 -0.6) (layer F.Fab) (width 0.05))
  (pad 2 smd rect (at -1.1 0) (size 0.5 2.7) (layers F.Cu F.Paste F.Mask))
  (pad 1 smd rect (at 1.1 0) (size 0.5 2.7) (layers F.Cu F.Paste F.Mask))
  (pad 3 smd rect (at 0 0) (size 0.7 4) (layers F.Cu F.Paste F.Mask))
  (pad 3 smd rect (at 0 0) (size 6 6) (layers B.Cu))
  (pad 3 smd rect (at 0 -2.5 90) (size 1 5) (layers F.Cu))
  (pad 3 smd rect (at 0 2.5 90) (size 1 5) (layers F.Cu))
)
