(module PolyFuse2016L (layer F.Cu) (tedit 59239886)
  (fp_text reference REF** (at 0.1 3.6) (layer F.SilkS)
    (effects (font (size 1 1) (thickness 0.15)))
  )
  (fp_text value PolyFuse2016L (at 0 -3.7) (layer F.Fab)
    (effects (font (size 1 1) (thickness 0.15)))
  )
  (pad 1 smd rect (at -2.45 0) (size 1.5 4.6) (layers F.Cu F.Paste F.Mask))
  (pad 2 smd rect (at 2.45 0) (size 1.5 4.6) (layers F.Cu F.Paste F.Mask))
)
