(module LOGO (layer F.Cu)
  (at 0 0)
 (fp_text reference "G***" (at 0 0) (layer F.SilkS) hide
  (effects (font (thickness 0.3)))
  )
  (fp_text value "LOGO" (at 0.75 0) (layer F.SilkS) hide
  (effects (font (thickness 0.3)))
  )
  (fp_poly (pts (xy -3.438839 12.410138) (xy -3.109003 12.483419) (xy -2.834281 12.628877) (xy -2.617514 12.831892) (xy -2.461540 13.077849) (xy -2.369199 13.352130) (xy -2.343330 13.640116) (xy -2.386773 13.927192)
     (xy -2.502367 14.198740) (xy -2.692952 14.440143) (xy -2.961367 14.636782) (xy -3.002129 14.658297) (xy -3.294275 14.756934) (xy -3.612079 14.781936) (xy -3.917486 14.732274) (xy -4.038600 14.686287)
     (xy -4.318574 14.506902) (xy -4.525544 14.273275) (xy -4.659761 14.001564) (xy -4.721475 13.707928) (xy -4.710939 13.408524) (xy -4.628404 13.119511) (xy -4.474120 12.857047) (xy -4.248340 12.637290)
     (xy -4.004576 12.497933) (xy -3.803459 12.426193) (xy -3.617441 12.401958) (xy -3.438839 12.410138) )(layer F.SilkS) (width  0.010000)
  )
  (fp_poly (pts (xy 7.471091 11.068840) (xy 7.761518 11.194932) (xy 8.000644 11.387427) (xy 8.180432 11.631879) (xy 8.292843 11.913842) (xy 8.329842 12.218867) (xy 8.283390 12.532508) (xy 8.146840 12.838077)
     (xy 7.932618 13.095334) (xy 7.663818 13.279057) (xy 7.359419 13.383553) (xy 7.038397 13.403131) (xy 6.719730 13.332098) (xy 6.629400 13.293222) (xy 6.383953 13.149116) (xy 6.207408 12.975192)
     (xy 6.067130 12.738064) (xy 6.049468 12.700000) (xy 5.954184 12.378915) (xy 5.950670 12.061629) (xy 6.029643 11.762447) (xy 6.181818 11.495674) (xy 6.397912 11.275619) (xy 6.668639 11.116585)
     (xy 6.984716 11.032880) (xy 7.137400 11.023600) (xy 7.471091 11.068840) )(layer F.SilkS) (width  0.010000)
  )
  (fp_poly (pts (xy -10.842877 9.253882) (xy -10.516955 9.304103) (xy -10.251640 9.426012) (xy -10.025533 9.631518) (xy -9.922781 9.766037) (xy -9.852171 9.877172) (xy -9.809327 9.980765) (xy -9.787439 10.107695)
     (xy -9.779697 10.288843) (xy -9.779000 10.417980) (xy -9.781730 10.638887) (xy -9.794745 10.789430) (xy -9.825281 10.900800) (xy -9.880578 11.004188) (xy -9.932972 11.081522) (xy -10.169837 11.334810)
     (xy -10.460972 11.511483) (xy -10.787166 11.604650) (xy -11.129209 11.607417) (xy -11.301249 11.572446) (xy -11.517496 11.469421) (xy -11.731467 11.295064) (xy -11.917528 11.076925) (xy -12.050048 10.842552)
     (xy -12.088611 10.726258) (xy -12.124663 10.382164) (xy -12.070742 10.053447) (xy -11.932463 9.758641) (xy -11.724328 9.523692) (xy -11.506575 9.369521) (xy -11.283496 9.282062) (xy -11.020659 9.250776)
     (xy -10.842877 9.253882) )(layer F.SilkS) (width  0.010000)
  )
  (fp_poly (pts (xy -8.351938 -1.047485) (xy -6.550223 -0.961686) (xy -4.831577 -0.895258) (xy -3.179345 -0.848134) (xy -1.576872 -0.820248) (xy -0.007504 -0.811536) (xy 1.545416 -0.821931) (xy 3.098541 -0.851367)
     (xy 4.668526 -0.899780) (xy 6.272027 -0.967103) (xy 6.705600 -0.988151) (xy 6.973320 -1.001138) (xy 7.299852 -1.016435) (xy 7.642499 -1.032068) (xy 7.937500 -1.045146) (xy 8.636000 -1.075545)
     (xy 8.636000 -0.876132) (xy 8.630231 -0.730179) (xy 8.614205 -0.503120) (xy 8.589840 -0.214713) (xy 8.559054 0.115279) (xy 8.523766 0.467097) (xy 8.485894 0.820980) (xy 8.447358 1.157168)
     (xy 8.410075 1.455899) (xy 8.408220 1.469937) (xy 8.361213 1.798542) (xy 8.310708 2.085349) (xy 8.250080 2.356048) (xy 8.172704 2.636331) (xy 8.071954 2.951888) (xy 7.941205 3.328412)
     (xy 7.897312 3.451059) (xy 7.770735 3.811684) (xy 7.673490 4.116457) (xy 7.601775 4.388809) (xy 7.551791 4.652170) (xy 7.519735 4.929973) (xy 7.501809 5.245647) (xy 7.494210 5.622625)
     (xy 7.493000 5.943600) (xy 7.493000 6.985000) (xy 7.655572 7.289800) (xy 7.743396 7.434989) (xy 7.880168 7.637666) (xy 8.050771 7.876461) (xy 8.240086 8.130008) (xy 8.356425 8.280400)
     (xy 8.642991 8.651494) (xy 8.867855 8.957424) (xy 9.037361 9.208470) (xy 9.157855 9.414913) (xy 9.235684 9.587032) (xy 9.277193 9.735108) (xy 9.284379 9.783726) (xy 9.295156 9.919572)
     (xy 9.273320 9.998313) (xy 9.197215 10.055495) (xy 9.087055 10.107632) (xy 8.818571 10.187343) (xy 8.528498 10.205007) (xy 8.261229 10.159050) (xy 8.206631 10.138889) (xy 8.086240 10.077655)
     (xy 7.913220 9.976194) (xy 7.718074 9.852692) (xy 7.643645 9.803215) (xy 7.290653 9.579264) (xy 6.992182 9.423042) (xy 6.733285 9.328137) (xy 6.499018 9.288138) (xy 6.437903 9.285918)
     (xy 6.181514 9.307194) (xy 5.948698 9.381568) (xy 5.725949 9.518333) (xy 5.499759 9.726778) (xy 5.256622 10.016194) (xy 5.131312 10.184690) (xy 4.944800 10.431180) (xy 4.792653 10.600793)
     (xy 4.660153 10.705614) (xy 4.532583 10.757723) (xy 4.418864 10.769600) (xy 4.306097 10.759209) (xy 4.190734 10.722489) (xy 4.061140 10.651113) (xy 3.905682 10.536756) (xy 3.712726 10.371093)
     (xy 3.470638 10.145799) (xy 3.251200 9.934022) (xy 2.906908 9.604668) (xy 2.618368 9.344665) (xy 2.374131 9.147159) (xy 2.162750 9.005297) (xy 1.972777 8.912227) (xy 1.792766 8.861095)
     (xy 1.611269 8.845048) (xy 1.446971 8.853908) (xy 1.191844 8.902897) (xy 0.959396 9.000711) (xy 0.736897 9.157439) (xy 0.511618 9.383172) (xy 0.270832 9.687997) (xy 0.116903 9.908195)
     (xy -0.097253 10.195303) (xy -0.330616 10.457589) (xy -0.562608 10.674183) (xy -0.772647 10.824215) (xy -0.802292 10.840365) (xy -1.017204 10.905442) (xy -1.264570 10.912835) (xy -1.493571 10.862745)
     (xy -1.549400 10.837436) (xy -1.631111 10.778128) (xy -1.771208 10.659049) (xy -1.956295 10.492326) (xy -2.172972 10.290086) (xy -2.407842 10.064457) (xy -2.463800 10.009770) (xy -2.786273 9.698907)
     (xy -3.054235 9.455614) (xy -3.281108 9.271912) (xy -3.480314 9.139822) (xy -3.665277 9.051365) (xy -3.849417 8.998563) (xy -4.046157 8.973437) (xy -4.216400 8.967920) (xy -4.398092 8.973905)
     (xy -4.566584 8.998080) (xy -4.735410 9.047167) (xy -4.918099 9.127886) (xy -5.128184 9.246958) (xy -5.379196 9.411104) (xy -5.684666 9.627043) (xy -5.981153 9.844421) (xy -6.434720 10.171742)
     (xy -6.821594 10.430457) (xy -7.148605 10.622081) (xy -7.422584 10.748131) (xy -7.650362 10.810121) (xy -7.838768 10.809566) (xy -7.994633 10.747982) (xy -8.124788 10.626883) (xy -8.236063 10.447784)
     (xy -8.279416 10.354229) (xy -8.346384 10.171315) (xy -8.379438 9.996850) (xy -8.375215 9.814804) (xy -8.330350 9.609145) (xy -8.241478 9.363845) (xy -8.105236 9.062870) (xy -7.938431 8.729381)
     (xy -7.762522 8.377537) (xy -7.628649 8.084880) (xy -7.525753 7.823980) (xy -7.442770 7.567404) (xy -7.417898 7.475605) (xy -1.460484 7.475605) (xy -1.449380 7.631135) (xy -1.341543 7.812947)
     (xy -1.292171 7.870885) (xy -1.012048 8.108451) (xy -0.683176 8.266610) (xy -0.325051 8.341222) (xy 0.042831 8.328148) (xy 0.389924 8.228042) (xy 0.549784 8.138298) (xy 0.733897 8.004054)
     (xy 0.912544 7.850430) (xy 1.056010 7.702545) (xy 1.124516 7.607075) (xy 1.137291 7.489883) (xy 1.082974 7.368380) (xy 0.985980 7.282399) (xy 0.914460 7.264400) (xy 0.823615 7.300287)
     (xy 0.706099 7.391315) (xy 0.648931 7.449273) (xy 0.461525 7.612286) (xy 0.229521 7.749485) (xy -0.009998 7.842430) (xy -0.203200 7.873007) (xy -0.401027 7.842906) (xy -0.614061 7.764073)
     (xy -0.808422 7.653716) (xy -0.950228 7.529044) (xy -0.986738 7.475068) (xy -1.095619 7.334332) (xy -1.222262 7.282293) (xy -1.351076 7.324213) (xy -1.375241 7.343894) (xy -1.460484 7.475605)
     (xy -7.417898 7.475605) (xy -7.387237 7.362447) (xy -7.326398 7.105251) (xy -7.279969 6.860431) (xy -7.249436 6.619505) (xy -7.236282 6.373991) (xy -7.241993 6.115406) (xy -7.268053 5.835269)
     (xy -7.315947 5.525098) (xy -7.387161 5.176410) (xy -7.444390 4.940569) (xy -4.200292 4.940569) (xy -4.189883 5.301738) (xy -4.083399 5.632965) (xy -3.883102 5.929838) (xy -3.591257 6.187945)
     (xy -3.543411 6.220610) (xy -3.165788 6.412190) (xy -2.750967 6.520492) (xy -2.321110 6.544074) (xy -1.898382 6.481495) (xy -1.543167 6.350721) (xy -1.243346 6.162646) (xy -1.028644 5.930332)
     (xy -0.887319 5.640206) (xy -0.864676 5.566440) (xy -0.823774 5.304801) (xy -0.827610 5.046727) (xy 0.674804 5.046727) (xy 0.682364 5.354197) (xy 0.776724 5.660056) (xy 0.957124 5.951254)
     (xy 1.208017 6.211613) (xy 1.513853 6.424954) (xy 1.854200 6.573555) (xy 2.088420 6.619530) (xy 2.381189 6.636119) (xy 2.694170 6.624539) (xy 2.989032 6.586006) (xy 3.203245 6.530711)
     (xy 3.523950 6.364804) (xy 3.786929 6.119619) (xy 3.946140 5.874960) (xy 4.058087 5.547987) (xy 4.079809 5.205691) (xy 4.017610 4.864442) (xy 3.877795 4.540614) (xy 3.666667 4.250580)
     (xy 3.390531 4.010712) (xy 3.182188 3.890888) (xy 2.890847 3.790869) (xy 2.549605 3.733537) (xy 2.200473 3.722386) (xy 1.885461 3.760909) (xy 1.820536 3.777662) (xy 1.459975 3.926911)
     (xy 1.155897 4.141218) (xy 0.917527 4.407808) (xy 0.754088 4.713903) (xy 0.674804 5.046727) (xy -0.827610 5.046727) (xy -0.828128 5.011886) (xy -0.874516 4.733468) (xy -0.935505 4.560550)
     (xy -1.112149 4.282073) (xy -1.352549 4.025440) (xy -1.622853 3.824993) (xy -1.703225 3.781678) (xy -1.842479 3.719161) (xy -1.972258 3.678740) (xy -2.122009 3.655354) (xy -2.321179 3.643942)
     (xy -2.526918 3.640129) (xy -2.784618 3.640187) (xy -2.968428 3.649533) (xy -3.105915 3.672056) (xy -3.224644 3.711641) (xy -3.308916 3.750379) (xy -3.660945 3.971410) (xy -3.928774 4.243833)
     (xy -4.109105 4.563246) (xy -4.198644 4.925250) (xy -4.200292 4.940569) (xy -7.444390 4.940569) (xy -7.483179 4.780722) (xy -7.605485 4.329554) (xy -7.755565 3.814422) (xy -7.934903 3.226845)
     (xy -8.144985 2.558340) (xy -8.329243 1.981200) (xy -8.485966 1.486136) (xy -8.611992 1.070967) (xy -8.710991 0.719977) (xy -8.786630 0.417448) (xy -8.842579 0.147665) (xy -8.882507 -0.105089)
     (xy -8.910082 -0.356531) (xy -8.926267 -0.576323) (xy -8.956875 -1.078735) (xy -8.351938 -1.047485) )(layer F.SilkS) (width  0.010000)
  )
  (fp_poly (pts (xy 8.890453 6.350572) (xy 9.159249 6.506793) (xy 9.377843 6.723881) (xy 9.534868 6.988960) (xy 9.618956 7.289153) (xy 9.618739 7.611585) (xy 9.581694 7.783227) (xy 9.517495 7.946910)
     (xy 9.424726 8.118833) (xy 9.320379 8.273864) (xy 9.221450 8.386869) (xy 9.144931 8.432718) (xy 9.142465 8.432800) (xy 9.092508 8.395592) (xy 8.997829 8.296294) (xy 8.875588 8.153397)
     (xy 8.824196 8.089900) (xy 8.546654 7.735351) (xy 8.331707 7.445409) (xy 8.172881 7.210171) (xy 8.063702 7.019732) (xy 7.997695 6.864188) (xy 7.978977 6.796936) (xy 7.947765 6.570651)
     (xy 7.978239 6.416559) (xy 8.077221 6.321339) (xy 8.247726 6.272235) (xy 8.582823 6.268094) (xy 8.890453 6.350572) )(layer F.SilkS) (width  0.010000)
  )
  (fp_poly (pts (xy -7.860500 5.258315) (xy -7.813831 5.380472) (xy -7.765486 5.587591) (xy -7.765397 5.588000) (xy -7.718037 5.957501) (xy -7.718482 6.383565) (xy -7.765944 6.833529) (xy -7.799993 7.023177)
     (xy -7.857273 7.289883) (xy -7.908355 7.468559) (xy -7.963771 7.571391) (xy -8.034056 7.610563) (xy -8.129744 7.598257) (xy -8.255000 7.549446) (xy -8.541039 7.372226) (xy -8.762491 7.127560)
     (xy -8.911971 6.831972) (xy -8.982088 6.501985) (xy -8.965454 6.154126) (xy -8.936277 6.025790) (xy -8.835309 5.811365) (xy -8.664685 5.596310) (xy -8.452244 5.408589) (xy -8.225822 5.276166)
     (xy -8.168300 5.254312) (xy -8.019950 5.209963) (xy -7.923279 5.206388) (xy -7.860500 5.258315) )(layer F.SilkS) (width  0.010000)
  )
  (fp_poly (pts (xy 12.456017 3.430738) (xy 12.753705 3.604633) (xy 12.799120 3.641862) (xy 13.021631 3.884478) (xy 13.154397 4.161358) (xy 13.204841 4.489018) (xy 13.205768 4.546600) (xy 13.160908 4.888721)
     (xy 13.035366 5.184608) (xy 12.842700 5.425992) (xy 12.596466 5.604607) (xy 12.310223 5.712185) (xy 11.997528 5.740458) (xy 11.671939 5.681158) (xy 11.477209 5.600700) (xy 11.203038 5.411293)
     (xy 11.003868 5.169742) (xy 10.879724 4.892466) (xy 10.830632 4.595888) (xy 10.856618 4.296429) (xy 10.957707 4.010510) (xy 11.133926 3.754552) (xy 11.385301 3.544976) (xy 11.473900 3.494366)
     (xy 11.804937 3.374361) (xy 12.136035 3.353566) (xy 12.456017 3.430738) )(layer F.SilkS) (width  0.010000)
  )
  (fp_poly (pts (xy -10.452335 -1.186604) (xy -10.201609 -1.173701) (xy -9.940365 -1.156908) (xy -9.723394 -1.139762) (xy -9.715500 -1.139035) (xy -9.398000 -1.109514) (xy -9.398000 -0.781355) (xy -9.380090 -0.345565)
     (xy -9.330295 0.118402) (xy -9.254519 0.567611) (xy -9.158729 0.958911) (xy -9.078356 1.230575) (xy -9.027249 1.421712) (xy -9.006248 1.549339) (xy -9.016194 1.630470) (xy -9.057927 1.682122)
     (xy -9.132287 1.721310) (xy -9.197691 1.747829) (xy -9.434540 1.814209) (xy -9.716369 1.851819) (xy -9.996625 1.857050) (xy -10.224290 1.827436) (xy -10.602082 1.681422) (xy -10.935558 1.450707)
     (xy -11.209577 1.147910) (xy -11.371684 0.871116) (xy -11.441970 0.704025) (xy -11.482303 0.550347) (xy -11.499835 0.370646) (xy -11.502013 0.152400) (xy -11.475745 -0.205258) (xy -11.397089 -0.500345)
     (xy -11.254661 -0.763250) (xy -11.077100 -0.981787) (xy -10.871670 -1.204653) (xy -10.452335 -1.186604) )(layer F.SilkS) (width  0.010000)
  )
  (fp_poly (pts (xy 13.135319 -1.270000) (xy 13.185650 -1.046308) (xy 13.203770 -0.768129) (xy 13.190458 -0.477070) (xy 13.146492 -0.214740) (xy 13.113559 -0.108142) (xy 12.929866 0.240009) (xy 12.672848 0.532866)
     (xy 12.358616 0.761474) (xy 12.003285 0.916875) (xy 11.622967 0.990115) (xy 11.233778 0.972236) (xy 11.185917 0.963272) (xy 10.820709 0.839813) (xy 10.484947 0.632650) (xy 10.201669 0.359224)
     (xy 10.012730 0.075002) (xy 9.901467 -0.217528) (xy 9.837321 -0.547704) (xy 9.829467 -0.863899) (xy 9.835567 -0.921735) (xy 9.859367 -1.067920) (xy 9.897629 -1.142957) (xy 9.976927 -1.176572)
     (xy 10.077356 -1.192220) (xy 10.274368 -1.216345) (xy 10.539518 -1.245472) (xy 10.853279 -1.277782) (xy 11.196126 -1.311461) (xy 11.548532 -1.344690) (xy 11.890971 -1.375654) (xy 12.203917 -1.402537)
     (xy 12.467844 -1.423521) (xy 12.663225 -1.436789) (xy 12.745483 -1.440446) (xy 13.070367 -1.447800) (xy 13.135319 -1.270000) )(layer F.SilkS) (width  0.010000)
  )
  (fp_poly (pts (xy 9.562921 -4.298132) (xy 9.916831 -4.274062) (xy 10.350907 -4.240050) (xy 10.844416 -4.198059) (xy 11.376626 -4.150056) (xy 11.926802 -4.098005) (xy 12.474211 -4.043873) (xy 12.998121 -3.989624)
     (xy 13.477797 -3.937224) (xy 13.892508 -3.888638) (xy 13.925013 -3.884634) (xy 14.570476 -3.800203) (xy 15.170184 -3.712738) (xy 15.717785 -3.623632) (xy 16.206925 -3.534276) (xy 16.631251 -3.446062)
     (xy 16.984411 -3.360380) (xy 17.260051 -3.278624) (xy 17.451819 -3.202184) (xy 17.553361 -3.132453) (xy 17.566934 -3.086823) (xy 17.502535 -3.016115) (xy 17.354437 -2.927845) (xy 17.137704 -2.828291)
     (xy 16.867398 -2.723733) (xy 16.558584 -2.620452) (xy 16.226325 -2.524725) (xy 16.205200 -2.519156) (xy 15.607666 -2.378512) (xy 14.912934 -2.243892) (xy 14.125252 -2.115704) (xy 13.248866 -1.994350)
     (xy 12.288022 -1.880236) (xy 11.246968 -1.773767) (xy 10.129951 -1.675348) (xy 8.941216 -1.585383) (xy 7.685011 -1.504277) (xy 6.365583 -1.432435) (xy 4.987179 -1.370262) (xy 3.632200 -1.320694)
     (xy 3.322784 -1.312466) (xy 2.933920 -1.305112) (xy 2.478445 -1.298663) (xy 1.969195 -1.293148) (xy 1.419010 -1.288599) (xy 0.840726 -1.285045) (xy 0.247180 -1.282518) (xy -0.348789 -1.281048)
     (xy -0.934344 -1.280665) (xy -1.496648 -1.281400) (xy -2.022863 -1.283283) (xy -2.500151 -1.286345) (xy -2.915675 -1.290616) (xy -3.256598 -1.296127) (xy -3.510081 -1.302909) (xy -3.530600 -1.303676)
     (xy -5.142616 -1.369962) (xy -6.653393 -1.439997) (xy -8.063223 -1.513803) (xy -9.372398 -1.591400) (xy -10.581212 -1.672808) (xy -11.689956 -1.758048) (xy -12.698923 -1.847140) (xy -13.608405 -1.940104)
     (xy -14.418694 -2.036961) (xy -14.782800 -2.086298) (xy -15.149994 -2.141942) (xy -15.494505 -2.201051) (xy -15.802895 -2.260696) (xy -16.061725 -2.317946) (xy -16.257556 -2.369873) (xy -16.376950 -2.413545)
     (xy -16.408401 -2.440712) (xy -16.359246 -2.490342) (xy -16.216701 -2.551554) (xy -15.988141 -2.622945) (xy -15.680942 -2.703113) (xy -15.302480 -2.790656) (xy -14.860131 -2.884170) (xy -14.361270 -2.982254)
     (xy -13.813275 -3.083504) (xy -13.223520 -3.186519) (xy -12.599381 -3.289896) (xy -11.948236 -3.392233) (xy -11.277458 -3.492126) (xy -10.594426 -3.588173) (xy -9.906514 -3.678973) (xy -9.875296 -3.682947)
     (xy -9.615992 -3.715900) (xy -9.588039 -3.407636) (xy -9.530639 -3.102502) (xy -9.417399 -2.874935) (xy -9.242204 -2.713901) (xy -9.185560 -2.681470) (xy -9.074301 -2.636379) (xy -8.885255 -2.573259)
     (xy -8.639258 -2.498508) (xy -8.357142 -2.418530) (xy -8.144160 -2.361513) (xy -7.457025 -2.196855) (xy -6.740647 -2.054717) (xy -5.989007 -1.934867) (xy -5.196084 -1.837073) (xy -4.355859 -1.761106)
     (xy -3.462312 -1.706732) (xy -2.509421 -1.673722) (xy -1.491168 -1.661843) (xy -0.401531 -1.670864) (xy 0.765508 -1.700555) (xy 2.015971 -1.750683) (xy 3.355877 -1.821017) (xy 4.343400 -1.881706)
     (xy 5.083057 -1.936325) (xy 5.734105 -1.999423) (xy 6.309328 -2.073004) (xy 6.821512 -2.159071) (xy 7.283439 -2.259627) (xy 7.707895 -2.376676) (xy 7.902135 -2.439325) (xy 8.265862 -2.575485)
     (xy 8.543657 -2.711726) (xy 8.750774 -2.857265) (xy 8.902468 -3.021317) (xy 8.929237 -3.059778) (xy 9.006216 -3.192354) (xy 9.048426 -3.321656) (xy 9.065544 -3.487392) (xy 9.067800 -3.628470)
     (xy 9.062282 -3.838588) (xy 9.047878 -4.033185) (xy 9.029521 -4.160142) (xy 8.991243 -4.332483) (xy 9.562921 -4.298132) )(layer F.SilkS) (width  0.010000)
  )
  (fp_poly (pts (xy 7.527827 -4.141651) (xy 7.563032 -4.120688) (xy 7.590057 -4.089113) (xy 7.591082 -4.087742) (xy 7.663590 -3.941879) (xy 7.719559 -3.737948) (xy 7.755926 -3.506017) (xy 7.769629 -3.276156)
     (xy 7.757605 -3.078434) (xy 7.716791 -2.942918) (xy 7.708900 -2.931017) (xy 7.628383 -2.880256) (xy 7.464986 -2.819821) (xy 7.236536 -2.753480) (xy 6.960858 -2.685001) (xy 6.655781 -2.618152)
     (xy 6.339131 -2.556700) (xy 6.028734 -2.504413) (xy 5.742418 -2.465060) (xy 5.498008 -2.442408) (xy 5.378220 -2.438400) (xy 5.130800 -2.438400) (xy 5.129917 -2.654300) (xy 5.117487 -2.820631)
     (xy 5.086059 -3.040245) (xy 5.042882 -3.273570) (xy 4.995203 -3.481035) (xy 4.954296 -3.613275) (xy 4.954039 -3.671975) (xy 5.024483 -3.709178) (xy 5.115053 -3.727861) (xy 5.221550 -3.746849)
     (xy 5.410071 -3.781927) (xy 5.662916 -3.829742) (xy 5.962388 -3.886940) (xy 6.290787 -3.950167) (xy 6.412525 -3.973728) (xy 6.771421 -4.043005) (xy 7.043676 -4.094079) (xy 7.242368 -4.128216)
     (xy 7.380572 -4.146680) (xy 7.471366 -4.150737) (xy 7.527827 -4.141651) )(layer F.SilkS) (width  0.010000)
  )
  (fp_poly (pts (xy 0.394837 -12.062414) (xy 0.753208 -12.040194) (xy 1.031581 -11.995907) (xy 1.236445 -11.929108) (xy 1.264693 -11.915344) (xy 1.434185 -11.792263) (xy 1.643290 -11.578683) (xy 1.890142 -11.276851)
     (xy 2.172872 -10.889016) (xy 2.415539 -10.530624) (xy 2.700743 -10.110353) (xy 2.961891 -9.759668) (xy 3.213379 -9.469150) (xy 3.469602 -9.229379) (xy 3.744955 -9.030935) (xy 4.053832 -8.864397)
     (xy 4.410630 -8.720347) (xy 4.829743 -8.589364) (xy 5.325567 -8.462029) (xy 5.712838 -8.372953) (xy 6.165057 -8.269475) (xy 6.529350 -8.177811) (xy 6.817721 -8.091431) (xy 7.042177 -8.003807)
     (xy 7.214721 -7.908411) (xy 7.347359 -7.798713) (xy 7.452096 -7.668186) (xy 7.540936 -7.510300) (xy 7.618361 -7.336680) (xy 7.701728 -7.115421) (xy 7.789620 -6.845918) (xy 7.878244 -6.544232)
     (xy 7.963806 -6.226421) (xy 8.042511 -5.908549) (xy 8.110565 -5.606674) (xy 8.164174 -5.336858) (xy 8.199544 -5.115162) (xy 8.212882 -4.957645) (xy 8.200392 -4.880370) (xy 8.198983 -4.878864)
     (xy 8.116279 -4.838973) (xy 7.945064 -4.786418) (xy 7.697323 -4.723499) (xy 7.385036 -4.652516) (xy 7.020186 -4.575769) (xy 6.614755 -4.495559) (xy 6.180725 -4.414185) (xy 5.730079 -4.333947)
     (xy 5.274798 -4.257146) (xy 4.826866 -4.186081) (xy 4.398263 -4.123053) (xy 4.000973 -4.070362) (xy 3.962400 -4.065624) (xy 3.267565 -3.988315) (xy 2.525780 -3.919081) (xy 1.753926 -3.858711)
     (xy 0.968887 -3.807994) (xy 0.187546 -3.767718) (xy -0.573214 -3.738674) (xy -1.296511 -3.721650) (xy -1.965460 -3.717434) (xy -2.563180 -3.726816) (xy -2.946400 -3.742791) (xy -3.513757 -3.778031)
     (xy -4.102295 -3.821140) (xy -4.699880 -3.870771) (xy -5.294380 -3.925574) (xy -5.873660 -3.984198) (xy -6.425588 -4.045295) (xy -6.938030 -4.107515) (xy -7.398853 -4.169508) (xy -7.795924 -4.229924)
     (xy -8.117109 -4.287416) (xy -8.350275 -4.340632) (xy -8.369300 -4.345957) (xy -8.525700 -4.397180) (xy -8.606085 -4.446846) (xy -8.634131 -4.512991) (xy -8.636000 -4.549114) (xy -8.624820 -4.661705)
     (xy -8.594011 -4.853552) (xy -8.547674 -5.105121) (xy -8.489910 -5.396876) (xy -8.424819 -5.709284) (xy -8.356501 -6.022811) (xy -8.298937 -6.274686) (xy -2.335402 -6.274686) (xy -2.331153 -5.888941)
     (xy -2.263780 -5.533455) (xy -2.236956 -5.454032) (xy -2.037293 -5.053241) (xy -1.768359 -4.715166) (xy -1.442569 -4.446194) (xy -1.072334 -4.252714) (xy -0.670068 -4.141113) (xy -0.248182 -4.117777)
     (xy 0.180910 -4.189096) (xy 0.206679 -4.196544) (xy 0.615772 -4.365891) (xy 0.966373 -4.607015) (xy 1.252821 -4.907452) (xy 1.469460 -5.254735) (xy 1.610631 -5.636399) (xy 1.670674 -6.039977)
     (xy 1.643931 -6.453004) (xy 1.524744 -6.863014) (xy 1.470989 -6.981791) (xy 1.252740 -7.324861) (xy 0.962120 -7.634077) (xy 0.627250 -7.881798) (xy 0.470034 -7.965649) (xy 0.322963 -8.029247)
     (xy 0.189462 -8.069622) (xy 0.038749 -8.091881) (xy -0.159959 -8.101130) (xy -0.355600 -8.102600) (xy -0.605262 -8.100104) (xy -0.784077 -8.088971) (xy -0.922749 -8.063731) (xy -1.051983 -8.018918)
     (xy -1.193800 -7.953321) (xy -1.529587 -7.740575) (xy -1.835740 -7.455830) (xy -2.082664 -7.128689) (xy -2.161966 -6.985000) (xy -2.278386 -6.652702) (xy -2.335402 -6.274686) (xy -8.298937 -6.274686)
     (xy -8.289056 -6.317920) (xy -8.226586 -6.575080) (xy -8.173190 -6.774754) (xy -8.158523 -6.823854) (xy -8.089253 -7.033397) (xy -8.018393 -7.197597) (xy -7.931879 -7.326351) (xy -7.815650 -7.429553)
     (xy -7.655642 -7.517101) (xy -7.437793 -7.598890) (xy -7.148040 -7.684817) (xy -6.805218 -7.776203) (xy -6.085636 -7.986248) (xy -5.454292 -8.220004) (xy -4.899327 -8.483763) (xy -4.408881 -8.783816)
     (xy -3.971096 -9.126456) (xy -3.623827 -9.464094) (xy -3.409624 -9.706237) (xy -3.222147 -9.950829) (xy -3.046765 -10.220584) (xy -2.868844 -10.538221) (xy -2.673753 -10.926454) (xy -2.649574 -10.976615)
     (xy -2.527723 -11.219596) (xy -2.408603 -11.438325) (xy -2.304489 -11.611468) (xy -2.227657 -11.717691) (xy -2.216671 -11.729003) (xy -2.106921 -11.808885) (xy -1.958076 -11.874140) (xy -1.758361 -11.927033)
     (xy -1.496002 -11.969831) (xy -1.159226 -12.004798) (xy -0.736259 -12.034201) (xy -0.587849 -12.042432) (xy -0.050019 -12.063011) (xy 0.394837 -12.062414) )(layer F.SilkS) (width  0.010000)
  )
  (fp_poly (pts (xy -11.330960 -7.577310) (xy -11.207335 -7.547711) (xy -10.989094 -7.459508) (xy -10.803768 -7.320113) (xy -10.724446 -7.239241) (xy -10.564470 -7.048214) (xy -10.469949 -6.877758) (xy -10.425068 -6.687473)
     (xy -10.414000 -6.446270) (xy -10.459601 -6.113036) (xy -10.588128 -5.824998) (xy -10.787172 -5.592231) (xy -11.044322 -5.424813) (xy -11.347167 -5.332821) (xy -11.683297 -5.326331) (xy -11.776241 -5.340192)
     (xy -12.087179 -5.445373) (xy -12.341820 -5.633535) (xy -12.460425 -5.778279) (xy -12.613161 -6.078592) (xy -12.675754 -6.382867) (xy -12.657026 -6.678647) (xy -12.565799 -6.953475) (xy -12.410896 -7.194892)
     (xy -12.201138 -7.390442) (xy -11.945348 -7.527667) (xy -11.652348 -7.594108) (xy -11.330960 -7.577310) )(layer F.SilkS) (width  0.010000)
  )
  (fp_poly (pts (xy 9.080271 -12.262267) (xy 9.260147 -12.239947) (xy 9.418819 -12.193497) (xy 9.557916 -12.133684) (xy 9.903213 -11.918005) (xy 10.192402 -11.628043) (xy 10.405052 -11.285117) (xy 10.514668 -10.938184)
     (xy 10.546890 -10.559777) (xy 10.501719 -10.184243) (xy 10.405052 -9.898484) (xy 10.188012 -9.545285) (xy 9.902270 -9.261407) (xy 9.559902 -9.054904) (xy 9.172985 -8.933828) (xy 8.915400 -8.905170)
     (xy 8.699510 -8.907990) (xy 8.492364 -8.928786) (xy 8.356600 -8.958180) (xy 8.138053 -9.040202) (xy 7.960684 -9.137608) (xy 7.781967 -9.276041) (xy 7.684323 -9.363571) (xy 7.439817 -9.637868)
     (xy 7.279183 -9.941031) (xy 7.192714 -10.294516) (xy 7.174603 -10.490200) (xy 7.168922 -10.735147) (xy 7.186244 -10.924299) (xy 7.232145 -11.101958) (xy 7.262206 -11.186243) (xy 7.432837 -11.510804)
     (xy 7.678601 -11.806357) (xy 7.973031 -12.043840) (xy 8.117707 -12.125669) (xy 8.284438 -12.199637) (xy 8.435702 -12.242823) (xy 8.610899 -12.262998) (xy 8.839200 -12.267928) (xy 9.080271 -12.262267) )(layer F.SilkS) (width  0.010000)
  )
  (fp_poly (pts (xy -9.063352 -12.373412) (xy -8.884792 -12.242918) (xy -8.754523 -12.052007) (xy -8.690564 -11.807117) (xy -8.686990 -11.728951) (xy -8.731651 -11.492497) (xy -8.852818 -11.298759) (xy -9.030654 -11.158202)
     (xy -9.245320 -11.081292) (xy -9.476978 -11.078496) (xy -9.705788 -11.160278) (xy -9.733251 -11.177001) (xy -9.909827 -11.345513) (xy -10.012632 -11.561847) (xy -10.037206 -11.799685) (xy -9.979092 -12.032709)
     (xy -9.900180 -12.162462) (xy -9.708619 -12.338015) (xy -9.493283 -12.427398) (xy -9.272188 -12.437052) (xy -9.063352 -12.373412) )(layer F.SilkS) (width  0.010000)
  )
  (fp_poly (pts (xy 1.091456 -14.012169) (xy 1.372478 -13.890447) (xy 1.616759 -13.695665) (xy 1.807423 -13.428640) (xy 1.824334 -13.395026) (xy 1.901397 -13.151853) (xy 1.929794 -12.869657) (xy 1.907860 -12.594491)
     (xy 1.859383 -12.425170) (xy 1.790288 -12.285186) (xy 1.721653 -12.232449) (xy 1.626841 -12.256288) (xy 1.549400 -12.300971) (xy 1.399749 -12.380480) (xy 1.227787 -12.440416) (xy 1.015000 -12.484309)
     (xy 0.742878 -12.515691) (xy 0.392906 -12.538091) (xy 0.279400 -12.543194) (xy -0.431800 -12.573000) (xy -0.427889 -12.913511) (xy -0.416967 -13.125900) (xy -0.381763 -13.284567) (xy -0.309829 -13.436700)
     (xy -0.274146 -13.496368) (xy -0.062544 -13.752166) (xy 0.196692 -13.930830) (xy 0.486688 -14.033175) (xy 0.790568 -14.060017) (xy 1.091456 -14.012169) )(layer F.SilkS) (width  0.010000)
  )
  (fp_poly (pts (xy -6.307845 -15.710230) (xy -6.243281 -15.690185) (xy -5.958063 -15.548253) (xy -5.739329 -15.345958) (xy -5.591358 -15.100111) (xy -5.518428 -14.827525) (xy -5.524818 -14.545010) (xy -5.614806 -14.269379)
     (xy -5.792672 -14.017443) (xy -5.812411 -13.997229) (xy -6.076219 -13.794249) (xy -6.360949 -13.690496) (xy -6.665131 -13.686323) (xy -6.883400 -13.740917) (xy -7.121182 -13.872990) (xy -7.318455 -14.075171)
     (xy -7.462799 -14.323505) (xy -7.541794 -14.594040) (xy -7.543019 -14.862820) (xy -7.518522 -14.965818) (xy -7.373207 -15.265791) (xy -7.152190 -15.498294) (xy -6.940146 -15.625971) (xy -6.706792 -15.716284)
     (xy -6.509435 -15.743135) (xy -6.307845 -15.710230) )(layer F.SilkS) (width  0.010000)
  )
  (fp_poly (pts (xy 7.533858 -17.558238) (xy 7.833913 -17.428317) (xy 7.921130 -17.370419) (xy 8.145496 -17.149939) (xy 8.295908 -16.880123) (xy 8.371647 -16.580977) (xy 8.371997 -16.272506) (xy 8.296239 -15.974715)
     (xy 8.143655 -15.707612) (xy 7.986583 -15.546156) (xy 7.683473 -15.356100) (xy 7.356629 -15.264310) (xy 7.010540 -15.271855) (xy 6.915061 -15.290901) (xy 6.635342 -15.406317) (xy 6.392782 -15.600463)
     (xy 6.203409 -15.852691) (xy 6.083255 -16.142354) (xy 6.047502 -16.408400) (xy 6.092295 -16.741054) (xy 6.217164 -17.030017) (xy 6.407570 -17.267825) (xy 6.648980 -17.447014) (xy 6.926855 -17.560122)
     (xy 7.226659 -17.599685) (xy 7.533858 -17.558238) )(layer F.SilkS) (width  0.010000)
  )
  (fp_poly (pts (xy -9.480333 -18.595637) (xy -9.181880 -18.465785) (xy -8.938552 -18.264915) (xy -8.761335 -18.005008) (xy -8.661216 -17.698051) (xy -8.648638 -17.361549) (xy -8.725123 -17.062195) (xy -8.882645 -16.799148)
     (xy -9.103729 -16.583856) (xy -9.370898 -16.427767) (xy -9.666678 -16.342329) (xy -9.973594 -16.338991) (xy -10.148734 -16.378829) (xy -10.456924 -16.526341) (xy -10.697417 -16.748918) (xy -10.840549 -16.975754)
     (xy -10.947929 -17.291952) (xy -10.964242 -17.605539) (xy -10.898246 -17.902168) (xy -10.758701 -18.167493) (xy -10.554368 -18.387164) (xy -10.294007 -18.546834) (xy -9.986377 -18.632157) (xy -9.822926 -18.642485)
     (xy -9.480333 -18.595637) )(layer F.SilkS) (width  0.010000)
  )
  (fp_poly (pts (xy 2.486030 4.197600) (xy 2.850555 4.273498) (xy 3.151508 4.418955) (xy 3.381958 4.627189) (xy 3.534973 4.891420) (xy 3.603624 5.204866) (xy 3.606800 5.294284) (xy 3.562607 5.580914)
     (xy 3.430878 5.816189) (xy 3.212884 5.998105) (xy 3.132766 6.041053) (xy 2.899876 6.119494) (xy 2.615192 6.166284) (xy 2.324829 6.176907) (xy 2.074900 6.146849) (xy 2.068449 6.145257)
     (xy 1.808584 6.056966) (xy 1.595627 5.924594) (xy 1.389100 5.722808) (xy 1.383782 5.716783) (xy 1.218779 5.487986) (xy 1.144186 5.269976) (xy 1.147869 5.183140) (xy 2.142908 5.183140)
     (xy 2.182481 5.299680) (xy 2.274050 5.374010) (xy 2.336800 5.384800) (xy 2.444296 5.348161) (xy 2.486879 5.311396) (xy 2.535388 5.194813) (xy 2.516790 5.075131) (xy 2.449153 4.979032)
     (xy 2.350545 4.933204) (xy 2.247900 4.958447) (xy 2.162368 5.058144) (xy 2.142908 5.183140) (xy 1.147869 5.183140) (xy 1.153861 5.041919) (xy 1.167807 4.984221) (xy 1.297915 4.683681)
     (xy 1.500626 4.450120) (xy 1.768443 4.288010) (xy 2.093872 4.201823) (xy 2.469416 4.196032) (xy 2.486030 4.197600) )(layer F.SilkS) (width  0.010000)
  )
  (fp_poly (pts (xy -2.532272 4.098547) (xy -2.196686 4.124442) (xy -1.934742 4.192173) (xy -1.724033 4.310443) (xy -1.548093 4.480872) (xy -1.367921 4.758611) (xy -1.280520 5.041764) (xy -1.281578 5.316428)
     (xy -1.366783 5.568697) (xy -1.531822 5.784668) (xy -1.772384 5.950435) (xy -2.032000 6.041247) (xy -2.367245 6.087738) (xy -2.691114 6.062194) (xy -2.861446 6.023222) (xy -3.161017 5.903787)
     (xy -3.412274 5.727360) (xy -3.602166 5.509216) (xy -3.717644 5.264631) (xy -3.731304 5.139926) (xy -2.675394 5.139926) (xy -2.650441 5.259146) (xy -2.573553 5.351720) (xy -2.463800 5.384800)
     (xy -2.339202 5.342473) (xy -2.284974 5.281281) (xy -2.251158 5.136356) (xy -2.296802 5.017307) (xy -2.402300 4.948818) (xy -2.544559 4.954446) (xy -2.642178 5.027285) (xy -2.675394 5.139926)
     (xy -3.731304 5.139926) (xy -3.745660 5.008880) (xy -3.743925 4.990170) (xy -3.666310 4.719491) (xy -3.502624 4.470617) (xy -3.268394 4.265776) (xy -3.214238 4.231924) (xy -3.084285 4.161464)
     (xy -2.968336 4.119803) (xy -2.833005 4.100410) (xy -2.644907 4.096757) (xy -2.532272 4.098547) )(layer F.SilkS) (width  0.010000)
  )
  (fp_poly (pts (xy -0.490656 -4.759492) (xy -0.514321 -4.741917) (xy -0.520700 -4.740183) (xy -0.600772 -4.695589) (xy -0.584879 -4.623694) (xy -0.548640 -4.582160) (xy -0.518860 -4.532894) (xy -0.574040 -4.521200)
     (xy -0.647925 -4.496620) (xy -0.660400 -4.470400) (xy -0.619255 -4.425332) (xy -0.584200 -4.419600) (xy -0.516597 -4.392170) (xy -0.508000 -4.368800) (xy -0.546175 -4.324334) (xy -0.632616 -4.329006)
     (xy -0.690629 -4.356878) (xy -0.722016 -4.428689) (xy -0.725802 -4.558817) (xy -0.723171 -4.584700) (xy -0.699055 -4.710105) (xy -0.652257 -4.762125) (xy -0.565943 -4.769308) (xy -0.490656 -4.759492) )(layer F.SilkS) (width  0.010000)
  )
  (fp_poly (pts (xy 0.128605 -4.777465) (xy 0.147056 -4.756239) (xy 0.178520 -4.665435) (xy 0.158964 -4.571383) (xy 0.099840 -4.521878) (xy 0.090729 -4.521200) (xy 0.061411 -4.484028) (xy 0.069170 -4.445000)
     (xy 0.071356 -4.379530) (xy 0.051593 -4.368800) (xy 0.009491 -4.412723) (xy -0.036630 -4.521765) (xy -0.047203 -4.557050) (xy -0.069791 -4.673600) (xy 0.000000 -4.673600) (xy 0.038657 -4.624277)
     (xy 0.050800 -4.622800) (xy 0.100123 -4.661458) (xy 0.101600 -4.673600) (xy 0.062942 -4.722924) (xy 0.050800 -4.724400) (xy 0.001476 -4.685743) (xy 0.000000 -4.673600) (xy -0.069791 -4.673600)
     (xy -0.074125 -4.695958) (xy -0.054662 -4.769766) (xy -0.036891 -4.784872) (xy 0.055217 -4.822003) (xy 0.128605 -4.777465) )(layer F.SilkS) (width  0.010000)
  )
  (fp_poly (pts (xy 0.511875 -4.871015) (xy 0.646099 -4.781915) (xy 0.660400 -4.770350) (xy 0.787400 -4.665578) (xy 0.653512 -4.694498) (xy 0.534113 -4.690026) (xy 0.445685 -4.637397) (xy 0.417317 -4.558917)
     (xy 0.430424 -4.523426) (xy 0.432077 -4.474865) (xy 0.415890 -4.470400) (xy 0.379529 -4.515371) (xy 0.344844 -4.628182) (xy 0.335007 -4.680382) (xy 0.323947 -4.775200) (xy 0.406400 -4.775200)
     (xy 0.424986 -4.733386) (xy 0.440266 -4.741334) (xy 0.446346 -4.801622) (xy 0.440266 -4.809067) (xy 0.410066 -4.802094) (xy 0.406400 -4.775200) (xy 0.323947 -4.775200) (xy 0.319231 -4.815625)
     (xy 0.320090 -4.901892) (xy 0.324686 -4.913621) (xy 0.394781 -4.919165) (xy 0.511875 -4.871015) )(layer F.SilkS) (width  0.010000)
  )
  (fp_poly (pts (xy -1.079546 -4.946716) (xy -0.971685 -4.905550) (xy -0.969921 -4.904642) (xy -0.866445 -4.841964) (xy -0.814528 -4.793872) (xy -0.825894 -4.775812) (xy -0.884253 -4.791749) (xy -0.956251 -4.769990)
     (xy -1.017416 -4.670184) (xy -1.072081 -4.573693) (xy -1.129012 -4.518279) (xy -1.165022 -4.523288) (xy -1.168400 -4.544210) (xy -1.149556 -4.602207) (xy -1.107789 -4.700248) (xy -1.073145 -4.804755)
     (xy -1.098469 -4.863041) (xy -1.119018 -4.877676) (xy -1.175356 -4.928774) (xy -1.154818 -4.953122) (xy -1.079546 -4.946716) )(layer F.SilkS) (width  0.010000)
  )
  (fp_poly (pts (xy -1.337753 -5.113887) (xy -1.325666 -5.048801) (xy -1.336998 -4.932818) (xy -1.363749 -4.805464) (xy -1.397918 -4.706263) (xy -1.426866 -4.673600) (xy -1.465830 -4.715712) (xy -1.473200 -4.765040)
     (xy -1.506463 -4.880529) (xy -1.586187 -4.945347) (xy -1.657191 -4.943596) (xy -1.718656 -4.947345) (xy -1.727200 -4.969026) (xy -1.699992 -4.998079) (xy -1.506538 -4.998079) (xy -1.498600 -4.978400)
     (xy -1.452951 -4.929938) (xy -1.444802 -4.927600) (xy -1.422983 -4.966904) (xy -1.422400 -4.978400) (xy -1.461453 -5.027248) (xy -1.476199 -5.029200) (xy -1.506538 -4.998079) (xy -1.699992 -4.998079)
     (xy -1.684237 -5.014901) (xy -1.582595 -5.065867) (xy -1.463149 -5.106722) (xy -1.366774 -5.122261) (xy -1.337753 -5.113887) )(layer F.SilkS) (width  0.010000)
  )
  (fp_poly (pts (xy 0.861113 -5.175029) (xy 0.863600 -5.156200) (xy 0.905951 -5.094144) (xy 0.965200 -5.080000) (xy 1.047748 -5.058727) (xy 1.066800 -5.029200) (xy 1.024323 -4.987710) (xy 0.966794 -4.978400)
     (xy 0.894017 -4.953789) (xy 0.896029 -4.902200) (xy 0.902788 -4.835531) (xy 0.852786 -4.838417) (xy 0.759043 -4.906565) (xy 0.695421 -4.968358) (xy 0.610438 -5.072307) (xy 0.605620 -5.099679)
     (xy 0.728662 -5.099679) (xy 0.736600 -5.080000) (xy 0.782249 -5.031538) (xy 0.790398 -5.029200) (xy 0.812217 -5.068504) (xy 0.812800 -5.080000) (xy 0.773747 -5.128848) (xy 0.759001 -5.130800)
     (xy 0.728662 -5.099679) (xy 0.605620 -5.099679) (xy 0.598446 -5.140428) (xy 0.619877 -5.171558) (xy 0.713157 -5.224006) (xy 0.807128 -5.224309) (xy 0.861113 -5.175029) )(layer F.SilkS) (width  0.010000)
  )
  (fp_poly (pts (xy 0.014263 -7.385127) (xy 0.303983 -7.261307) (xy 0.543631 -7.072278) (xy 0.727817 -6.832283) (xy 0.851151 -6.555566) (xy 0.908244 -6.256370) (xy 0.893706 -5.948936) (xy 0.802147 -5.647509)
     (xy 0.628178 -5.366331) (xy 0.509060 -5.238216) (xy 0.240177 -5.052934) (xy -0.086784 -4.950979) (xy -0.355600 -4.929193) (xy -0.569184 -4.938398) (xy -0.735115 -4.976005) (xy -0.906241 -5.055519)
     (xy -0.953227 -5.081920) (xy -1.229275 -5.292139) (xy -1.320566 -5.410200) (xy 0.406400 -5.410200) (xy 0.431800 -5.384800) (xy 0.457200 -5.410200) (xy 0.431800 -5.435600) (xy 0.406400 -5.410200)
     (xy -1.320566 -5.410200) (xy -1.359848 -5.461000) (xy -0.609600 -5.461000) (xy -0.584200 -5.435600) (xy -0.558800 -5.461000) (xy -0.584200 -5.486400) (xy -0.609600 -5.461000) (xy -1.359848 -5.461000)
     (xy -1.431273 -5.553368) (xy -1.507366 -5.731931) (xy -1.148235 -5.731931) (xy -1.121763 -5.704483) (xy -1.023168 -5.690185) (xy -0.993599 -5.689600) (xy -0.874814 -5.694463) (xy -0.838230 -5.701746)
     (xy -0.638368 -5.701746) (xy -0.588434 -5.693611) (xy -0.522545 -5.702951) (xy -0.521759 -5.720292) (xy -0.579932 -5.730668) (xy -0.189143 -5.730668) (xy -0.179711 -5.700148) (xy -0.080277 -5.695034)
     (xy -0.038100 -5.696519) (xy 0.055587 -5.704200) (xy 0.051346 -5.716597) (xy 0.035072 -5.720295) (xy 0.326748 -5.720295) (xy 0.366167 -5.690754) (xy 0.386468 -5.689600) (xy 0.444604 -5.704360)
     (xy 0.441056 -5.722678) (xy 0.448415 -5.775343) (xy 0.496089 -5.827080) (xy 0.550848 -5.874591) (xy 0.524404 -5.868902) (xy 0.472729 -5.844530) (xy 0.365402 -5.777180) (xy 0.326748 -5.720295)
     (xy 0.035072 -5.720295) (xy 0.011946 -5.725550) (xy -0.067760 -5.763585) (xy -0.067202 -5.807532) (xy -0.067982 -5.816600) (xy 0.101600 -5.816600) (xy 0.127000 -5.791200) (xy 0.152400 -5.816600)
     (xy 0.127000 -5.842000) (xy 0.101600 -5.816600) (xy -0.067982 -5.816600) (xy -0.069081 -5.829372) (xy -0.117249 -5.797680) (xy -0.189143 -5.730668) (xy -0.579932 -5.730668) (xy -0.589749 -5.732419)
     (xy -0.619125 -5.724303) (xy -0.638368 -5.701746) (xy -0.838230 -5.701746) (xy -0.814635 -5.706443) (xy -0.812800 -5.709235) (xy -0.855922 -5.734531) (xy -0.955020 -5.750003) (xy -1.064697 -5.752579)
     (xy -1.139553 -5.739188) (xy -1.148235 -5.731931) (xy -1.507366 -5.731931) (xy -1.552993 -5.839002) (xy -1.016000 -5.839002) (xy -0.999676 -5.792846) (xy -0.962215 -5.833112) (xy -0.945817 -5.870039)
     (xy -0.944714 -5.886340) (xy -0.576771 -5.886340) (xy -0.569575 -5.849928) (xy -0.540683 -5.793620) (xy -0.522473 -5.835506) (xy -0.518476 -5.854700) (xy -0.460197 -5.928460) (xy -0.402676 -5.943600)
     (xy -0.322171 -5.965597) (xy -0.304800 -5.994400) (xy -0.264567 -6.033642) (xy -0.179595 -6.044169) (xy -0.103475 -6.022829) (xy -0.088760 -6.007100) (xy -0.078921 -6.009101) (xy -0.080167 -6.015323)
     (xy 0.220708 -6.015323) (xy 0.231025 -6.014555) (xy 0.315734 -6.011369) (xy 0.358025 -5.991826) (xy 0.438824 -5.948771) (xy 0.451812 -5.969000) (xy 0.660400 -5.969000) (xy 0.685800 -5.943600)
     (xy 0.711200 -5.969000) (xy 0.685800 -5.994400) (xy 0.660400 -5.969000) (xy 0.451812 -5.969000) (xy 0.454209 -5.972732) (xy 0.439453 -6.018174) (xy 0.439849 -6.099826) (xy 0.458125 -6.121400)
     (xy 0.609600 -6.121400) (xy 0.635000 -6.096000) (xy 0.660400 -6.121400) (xy 0.635000 -6.146800) (xy 0.609600 -6.121400) (xy 0.458125 -6.121400) (xy 0.459145 -6.122603) (xy 0.518693 -6.187810)
     (xy 0.565602 -6.263930) (xy 0.596806 -6.330036) (xy 0.579353 -6.326973) (xy 0.502970 -6.252340) (xy 0.499101 -6.248400) (xy 0.382923 -6.140136) (xy 0.277120 -6.056670) (xy 0.276126 -6.056007)
     (xy 0.220708 -6.015323) (xy -0.080167 -6.015323) (xy -0.084344 -6.036181) (xy -0.076969 -6.131970) (xy -0.047750 -6.213981) (xy -0.014183 -6.287122) (xy -0.027066 -6.285223) (xy -0.094175 -6.210300)
     (xy -0.204390 -6.126494) (xy -0.308943 -6.096000) (xy -0.439858 -6.063697) (xy -0.538676 -5.984802) (xy -0.576771 -5.886340) (xy -0.944714 -5.886340) (xy -0.942267 -5.922479) (xy -0.965782 -5.917841)
     (xy -1.014195 -5.852800) (xy -1.016000 -5.839002) (xy -1.552993 -5.839002) (xy -1.557234 -5.848952) (xy -1.591149 -6.070600) (xy -1.168400 -6.070600) (xy -1.143000 -6.045200) (xy -1.117600 -6.070600)
     (xy -1.143000 -6.096000) (xy -1.168400 -6.070600) (xy -1.591149 -6.070600) (xy -1.600218 -6.129867) (xy -1.354667 -6.129867) (xy -1.347694 -6.099667) (xy -1.320800 -6.096000) (xy -1.278986 -6.114587)
     (xy -1.285633 -6.127366) (xy -1.002202 -6.127366) (xy -0.969685 -6.077947) (xy -0.904743 -6.022206) (xy -0.858737 -6.053070) (xy -0.841469 -6.140854) (xy -0.850853 -6.167273) (xy -0.889109 -6.182110)
     (xy -0.902640 -6.156682) (xy -0.954342 -6.121541) (xy -0.982239 -6.130835) (xy -1.002202 -6.127366) (xy -1.285633 -6.127366) (xy -1.286934 -6.129867) (xy -1.347222 -6.135947) (xy -1.354667 -6.129867)
     (xy -1.600218 -6.129867) (xy -1.605172 -6.162237) (xy -1.603063 -6.182914) (xy -1.473200 -6.182914) (xy -1.463215 -6.147115) (xy -1.458826 -6.151034) (xy -1.420887 -6.203960) (xy -1.406994 -6.223000)
     (xy -0.812800 -6.223000) (xy -0.787400 -6.197600) (xy -0.762000 -6.223000) (xy -0.787400 -6.248400) (xy -0.812800 -6.223000) (xy -1.406994 -6.223000) (xy -1.369926 -6.273800) (xy -1.322145 -6.342887)
     (xy -1.339830 -6.339602) (xy -1.384300 -6.305680) (xy -1.455624 -6.228270) (xy -1.473200 -6.182914) (xy -1.603063 -6.182914) (xy -1.575349 -6.454528) (xy -1.295664 -6.454528) (xy -1.289273 -6.406088)
     (xy -1.270193 -6.400800) (xy -1.211368 -6.440368) (xy -1.169012 -6.501257) (xy -1.140460 -6.572096) (xy -1.047928 -6.572096) (xy -1.038049 -6.547777) (xy -0.988268 -6.522025) (xy -0.971550 -6.535163)
     (xy -0.918974 -6.589439) (xy 0.516188 -6.589439) (xy 0.528549 -6.561050) (xy 0.579699 -6.506513) (xy 0.609105 -6.517701) (xy 0.609600 -6.524802) (xy 0.573517 -6.567770) (xy 0.550950 -6.583451)
     (xy 0.516188 -6.589439) (xy -0.918974 -6.589439) (xy -0.916772 -6.591712) (xy -0.813041 -6.686636) (xy -0.749766 -6.741839) (xy 0.414588 -6.741839) (xy 0.426949 -6.713450) (xy 0.478099 -6.658913)
     (xy 0.507505 -6.670101) (xy 0.508000 -6.677202) (xy 0.471917 -6.720170) (xy 0.449350 -6.735851) (xy 0.414588 -6.741839) (xy -0.749766 -6.741839) (xy -0.747533 -6.743787) (xy -0.644580 -6.837176)
     (xy -0.589899 -6.896992) (xy -0.589023 -6.904019) (xy -0.442404 -6.904019) (xy -0.439228 -6.886764) (xy -0.381000 -6.839470) (xy -0.250942 -6.784372) (xy -0.066171 -6.764192) (xy -0.050800 -6.764375)
     (xy 0.177800 -6.769117) (xy 0.055568 -6.790267) (xy 0.270933 -6.790267) (xy 0.277906 -6.760067) (xy 0.304800 -6.756400) (xy 0.346614 -6.774987) (xy 0.338666 -6.790267) (xy 0.278378 -6.796347)
     (xy 0.270933 -6.790267) (xy 0.055568 -6.790267) (xy -0.025400 -6.804277) (xy -0.192181 -6.837675) (xy -0.337951 -6.874052) (xy -0.355600 -6.879372) (xy -0.442404 -6.904019) (xy -0.589023 -6.904019)
     (xy -0.588426 -6.908800) (xy -0.643288 -6.878104) (xy -0.743439 -6.800559) (xy -0.795162 -6.756400) (xy -0.910540 -6.664418) (xy -0.999098 -6.610176) (xy -1.020766 -6.604000) (xy -1.047928 -6.572096)
     (xy -1.140460 -6.572096) (xy -1.140108 -6.572968) (xy -1.174555 -6.578576) (xy -1.188697 -6.573529) (xy -1.256179 -6.522973) (xy -1.295664 -6.454528) (xy -1.575349 -6.454528) (xy -1.573099 -6.476570)
     (xy -1.459030 -6.775298) (xy -1.260977 -7.041766) (xy -1.194504 -7.104568) (xy -0.922648 -7.295999) (xy -0.630596 -7.400520) (xy -0.320139 -7.429496) (xy 0.014263 -7.385127) )(layer F.SilkS) (width  0.010000)
  )
  (fp_poly (pts (xy 1.024218 -5.546700) (xy 1.097681 -5.460945) (xy 1.202990 -5.458768) (xy 1.298135 -5.463681) (xy 1.315148 -5.428565) (xy 1.253087 -5.379457) (xy 1.206500 -5.361906) (xy 1.139026 -5.327239)
     (xy 1.155700 -5.300948) (xy 1.209243 -5.252565) (xy 1.215099 -5.199555) (xy 1.181100 -5.184849) (xy 1.114004 -5.207818) (xy 0.998757 -5.260007) (xy 0.977900 -5.270266) (xy 0.868613 -5.337871)
     (xy 0.816502 -5.394896) (xy 0.829991 -5.424316) (xy 0.907597 -5.412360) (xy 0.973431 -5.406501) (xy 0.988905 -5.464949) (xy 0.982824 -5.523236) (xy 0.971609 -5.618765) (xy 0.984839 -5.619385)
     (xy 1.024218 -5.546700) )(layer F.SilkS) (width  0.010000)
  )
  (fp_poly (pts (xy -1.681482 -5.616541) (xy -1.621551 -5.554261) (xy -1.561359 -5.457064) (xy -1.517439 -5.358763) (xy -1.506328 -5.293168) (xy -1.518463 -5.283200) (xy -1.576834 -5.323174) (xy -1.586449 -5.343547)
     (xy -1.629347 -5.369899) (xy -1.724605 -5.321197) (xy -1.728986 -5.318147) (xy -1.842613 -5.255713) (xy -1.937268 -5.231124) (xy -1.980876 -5.252220) (xy -1.981200 -5.256496) (xy -1.940996 -5.293435)
     (xy -1.842568 -5.352147) (xy -1.826216 -5.360737) (xy -1.721033 -5.431758) (xy -1.695973 -5.507104) (xy -1.704658 -5.546203) (xy -1.714467 -5.619769) (xy -1.681482 -5.616541) )(layer F.SilkS) (width  0.010000)
  )
  (fp_poly (pts (xy -1.765968 -5.879480) (xy -1.707555 -5.813279) (xy -1.704877 -5.757314) (xy -1.772304 -5.763993) (xy -1.866714 -5.757158) (xy -1.897390 -5.716514) (xy -1.965644 -5.647305) (xy -2.063343 -5.656733)
     (xy -2.129847 -5.710478) (xy -2.159505 -5.786101) (xy -2.140406 -5.812394) (xy -2.081054 -5.803227) (xy -2.064931 -5.778817) (xy -2.026686 -5.749848) (xy -1.966091 -5.803900) (xy -1.864142 -5.880366)
     (xy -1.765968 -5.879480) )(layer F.SilkS) (width  0.010000)
  )
  (fp_poly (pts (xy 1.315635 -5.882348) (xy 1.379860 -5.825555) (xy 1.398215 -5.787372) (xy 1.414620 -5.692356) (xy 1.398387 -5.654428) (xy 1.362753 -5.693255) (xy 1.351874 -5.718531) (xy 1.311076 -5.773795)
     (xy 1.244645 -5.740439) (xy 1.142122 -5.701466) (xy 1.054366 -5.735592) (xy 1.020010 -5.827706) (xy 1.033054 -5.876634) (xy 1.049643 -5.854700) (xy 1.104801 -5.802600) (xy 1.177896 -5.794933)
     (xy 1.218807 -5.835453) (xy 1.219200 -5.842000) (xy 1.249566 -5.891649) (xy 1.315635 -5.882348) )(layer F.SilkS) (width  0.010000)
  )
  (fp_poly (pts (xy -2.037554 -6.705600) (xy -1.970402 -6.595886) (xy -1.872066 -6.562959) (xy -1.775599 -6.611308) (xy -1.739462 -6.665124) (xy -1.698131 -6.743358) (xy -1.683047 -6.732358) (xy -1.679839 -6.677660)
     (xy -1.716063 -6.544239) (xy -1.815933 -6.462878) (xy -1.879600 -6.451600) (xy -1.986267 -6.485492) (xy -2.021840 -6.512560) (xy -2.067173 -6.607559) (xy -2.077737 -6.703060) (xy -2.072673 -6.832600)
     (xy -2.037554 -6.705600) )(layer F.SilkS) (width  0.010000)
  )
  (fp_poly (pts (xy 1.016000 -6.850992) (xy 1.166109 -6.840439) (xy 1.284613 -6.815096) (xy 1.287986 -6.813811) (xy 1.341708 -6.783845) (xy 1.340186 -6.739013) (xy 1.277830 -6.653123) (xy 1.245371 -6.614181)
     (xy 1.148431 -6.512710) (xy 1.071773 -6.455950) (xy 1.056064 -6.451600) (xy 1.034627 -6.479606) (xy 1.061456 -6.521362) (xy 1.096308 -6.628308) (xy 1.042683 -6.731000) (xy 1.168400 -6.731000)
     (xy 1.193800 -6.705600) (xy 1.219200 -6.731000) (xy 1.193800 -6.756400) (xy 1.168400 -6.731000) (xy 1.042683 -6.731000) (xy 1.041075 -6.734078) (xy 0.949536 -6.797322) (xy 0.886244 -6.832738)
     (xy 0.903463 -6.847837) (xy 1.011565 -6.850994) (xy 1.016000 -6.850992) )(layer F.SilkS) (width  0.010000)
  )
  (fp_poly (pts (xy -1.505958 -7.247352) (xy -1.397634 -7.200935) (xy -1.371600 -7.151930) (xy -1.408475 -7.121877) (xy -1.444086 -7.128946) (xy -1.532719 -7.118890) (xy -1.599197 -7.045728) (xy -1.611520 -6.947475)
     (xy -1.607478 -6.934847) (xy -1.593658 -6.865073) (xy -1.624643 -6.866455) (xy -1.684006 -6.929071) (xy -1.739900 -7.014838) (xy -1.805844 -7.145867) (xy -1.710267 -7.145867) (xy -1.703294 -7.115667)
     (xy -1.676400 -7.112000) (xy -1.634586 -7.130587) (xy -1.642534 -7.145867) (xy -1.702822 -7.151947) (xy -1.710267 -7.145867) (xy -1.805844 -7.145867) (xy -1.810228 -7.154577) (xy -1.816104 -7.230510)
     (xy -1.753232 -7.260712) (xy -1.680555 -7.264400) (xy -1.505958 -7.247352) )(layer F.SilkS) (width  0.010000)
  )
  (fp_poly (pts (xy 1.167623 -7.230963) (xy 1.168400 -7.217744) (xy 1.128874 -7.165475) (xy 1.033783 -7.090990) (xy 0.918358 -7.017662) (xy 0.817829 -6.968869) (xy 0.781403 -6.960967) (xy 0.788990 -6.990202)
     (xy 0.858738 -7.062988) (xy 0.914400 -7.112000) (xy 1.055628 -7.221671) (xy 1.137086 -7.260098) (xy 1.167623 -7.230963) )(layer F.SilkS) (width  0.010000)
  )
  (fp_poly (pts (xy 0.711200 -7.528366) (xy 0.719569 -7.377840) (xy 0.748433 -7.322429) (xy 0.803428 -7.356741) (xy 0.841146 -7.404021) (xy 0.905044 -7.461165) (xy 0.939263 -7.459670) (xy 0.928403 -7.406231)
     (xy 0.862779 -7.309131) (xy 0.817906 -7.256550) (xy 0.663378 -7.086600) (xy 0.661889 -7.277100) (xy 0.652020 -7.414811) (xy 0.617066 -7.460452) (xy 0.544626 -7.422761) (xy 0.504343 -7.388091)
     (xy 0.422345 -7.330463) (xy 0.390487 -7.341010) (xy 0.405656 -7.401382) (xy 0.464740 -7.493225) (xy 0.535376 -7.571116) (xy 0.711200 -7.741531) (xy 0.711200 -7.528366) )(layer F.SilkS) (width  0.010000)
  )
  (fp_poly (pts (xy -1.445282 -7.601713) (xy -1.353560 -7.507086) (xy -1.350884 -7.503750) (xy -1.250760 -7.407031) (xy -1.160263 -7.392565) (xy -1.139537 -7.398962) (xy -1.072900 -7.417465) (xy -1.086702 -7.381079)
     (xy -1.111121 -7.350112) (xy -1.198344 -7.276728) (xy -1.283628 -7.289607) (xy -1.383269 -7.393000) (xy -1.408239 -7.427606) (xy -1.480451 -7.551580) (xy -1.490189 -7.613080) (xy -1.445282 -7.601713) )(layer F.SilkS) (width  0.010000)
  )
  (fp_poly (pts (xy -1.072747 -7.835871) (xy -1.022509 -7.755957) (xy -0.996658 -7.699814) (xy -0.948636 -7.564031) (xy -0.930382 -7.464465) (xy -0.932926 -7.445814) (xy -0.962832 -7.452833) (xy -1.013827 -7.534046)
     (xy -1.038387 -7.586629) (xy -1.086767 -7.722132) (xy -1.104623 -7.822714) (xy -1.102120 -7.840629) (xy -1.072747 -7.835871) )(layer F.SilkS) (width  0.010000)
  )
  (fp_poly (pts (xy 0.293652 -7.850090) (xy 0.324755 -7.803969) (xy 0.354768 -7.721585) (xy 0.317587 -7.685465) (xy 0.277026 -7.621818) (xy 0.284994 -7.539596) (xy 0.289040 -7.441965) (xy 0.252118 -7.421097)
     (xy 0.202457 -7.479360) (xy 0.183726 -7.531100) (xy 0.153282 -7.606044) (xy 0.117368 -7.589533) (xy 0.104363 -7.570672) (xy 0.051470 -7.514411) (xy 0.027711 -7.542803) (xy 0.036559 -7.642197)
     (xy 0.055559 -7.715604) (xy 0.152400 -7.715604) (xy 0.183699 -7.688062) (xy 0.203200 -7.696200) (xy 0.252103 -7.763496) (xy 0.254000 -7.778397) (xy 0.222700 -7.805939) (xy 0.203200 -7.797800)
     (xy 0.154296 -7.730505) (xy 0.152400 -7.715604) (xy 0.055559 -7.715604) (xy 0.061577 -7.738851) (xy 0.127242 -7.873843) (xy 0.207026 -7.911523) (xy 0.293652 -7.850090) )(layer F.SilkS) (width  0.010000)
  )
  (fp_poly (pts (xy -0.698500 -7.971590) (xy -0.634399 -7.959870) (xy -0.647700 -7.941957) (xy -0.705371 -7.875006) (xy -0.711200 -7.841369) (xy -0.687085 -7.790991) (xy -0.663911 -7.795631) (xy -0.598667 -7.789261)
     (xy -0.584713 -7.773229) (xy -0.594825 -7.728301) (xy -0.627247 -7.721600) (xy -0.680004 -7.685433) (xy -0.675120 -7.620000) (xy -0.674127 -7.539090) (xy -0.699351 -7.518400) (xy -0.750311 -7.561090)
     (xy -0.780782 -7.632700) (xy -0.814537 -7.823454) (xy -0.790571 -7.934783) (xy -0.707667 -7.971699) (xy -0.698500 -7.971590) )(layer F.SilkS) (width  0.010000)
  )
  (fp_poly (pts (xy -0.162200 -7.980716) (xy -0.155807 -7.977424) (xy -0.066516 -7.884648) (xy -0.051201 -7.766333) (xy -0.100152 -7.654551) (xy -0.203658 -7.581374) (xy -0.279400 -7.569200) (xy -0.395978 -7.596711)
     (xy -0.447040 -7.630160) (xy -0.500662 -7.739711) (xy -0.492217 -7.782675) (xy -0.402009 -7.782675) (xy -0.386589 -7.692446) (xy -0.326184 -7.628216) (xy -0.247536 -7.639671) (xy -0.182005 -7.713828)
     (xy -0.161726 -7.785535) (xy -0.164870 -7.887979) (xy -0.220273 -7.923114) (xy -0.252221 -7.924800) (xy -0.358454 -7.884329) (xy -0.402009 -7.782675) (xy -0.492217 -7.782675) (xy -0.478111 -7.854436)
     (xy -0.400266 -7.949441) (xy -0.288003 -7.999832) (xy -0.162200 -7.980716) )(layer F.SilkS) (width  0.010000)
  )
)
