(module RL_mm7150_Centered (layer F.Cu) (tedit 589E5F12)
  (attr smd)
  (fp_text reference U3 (at 0.06 -1.33) (layer F.SilkS)
    (effects (font (size 1 1) (thickness 0.15)))
  )
  (fp_text value mm7150 (at 0.06 2.48) (layer F.Fab)
    (effects (font (size 1 1) (thickness 0.15)))
  )
  (fp_circle (center -7.45 7.41) (end -6.97 8.08) (layer F.SilkS) (width 0.15))
  (fp_text user 16 (at -7.52 5.82) (layer F.SilkS)
    (effects (font (size 1 1) (thickness 0.15)))
  )
  (fp_text user 1 (at -5.54 8.15) (layer F.SilkS)
    (effects (font (size 1 1) (thickness 0.15)))
  )
  (fp_line (start -8.93 -9.17) (end 9.17 -9.17) (layer F.SilkS) (width 0.15))
  (fp_line (start 9.17 -9.17) (end 9.17 8.83) (layer F.SilkS) (width 0.15))
  (fp_line (start 9.17 8.93) (end -8.83 8.93) (layer F.SilkS) (width 0.15))
  (fp_line (start -8.93 8.83) (end -8.93 -9.17) (layer F.SilkS) (width 0.15))
  (fp_circle (center 7.75 7.43) (end 8.23 8.1) (layer F.SilkS) (width 0.15))
  (fp_circle (center -7.55 -7.79) (end -7.07 -7.12) (layer F.SilkS) (width 0.15))
  (pad 15 smd rect (at -7.43 1.26) (size 2.8 2.08) (layers F.Cu F.Paste F.Mask))
  (pad 16 smd rect (at -7.43 3.79) (size 2.8 2.08) (layers F.Cu F.Paste F.Mask))
  (pad 11 smd rect (at -1.26 -7.61) (size 2.08 2.8) (layers F.Cu F.Paste F.Mask))
  (pad 8 smd rect (at 7.61 -3.83) (size 2.8 2.08) (layers F.Cu F.Paste F.Mask))
  (pad 7 smd rect (at 7.61 -1.29) (size 2.8 2.08) (layers F.Cu F.Paste F.Mask))
  (pad 4 smd rect (at 3.83 7.43) (size 2.08 2.8) (layers F.Cu F.Paste F.Mask))
  (pad 1 smd rect (at -3.79 7.43) (size 2.08 2.8) (layers F.Cu F.Paste F.Mask))
  (pad 13 smd rect (at -7.43 -3.83) (size 2.8 2.08) (layers F.Cu F.Paste F.Mask))
  (pad 14 smd rect (at -7.43 -1.29) (size 2.8 2.08) (layers F.Cu F.Paste F.Mask))
  (pad 6 smd rect (at 7.61 1.26) (size 2.8 2.08) (layers F.Cu F.Paste F.Mask))
  (pad 5 smd rect (at 7.61 3.79) (size 2.8 2.08) (layers F.Cu F.Paste F.Mask))
  (pad 2 smd rect (at -1.26 7.43) (size 2.08 2.8) (layers F.Cu F.Paste F.Mask))
  (pad 12 smd rect (at -3.79 -7.61) (size 2.08 2.8) (layers F.Cu F.Paste F.Mask))
  (pad 9 smd rect (at 3.83 -7.61) (size 2.08 2.8) (layers F.Cu F.Paste F.Mask))
  (pad 3 smd rect (at 1.28 7.43) (size 2.08 2.8) (layers F.Cu F.Paste F.Mask))
  (pad 10 smd rect (at 1.28 -7.61) (size 2.08 2.8) (layers F.Cu F.Paste F.Mask))
)
