(module RL_PushButton_KSC351JLFS (layer F.Cu) (tedit 57CA0055)
  (attr smd)
  (fp_text reference SW1 (at 5.5 0 180) (layer F.SilkS)
    (effects (font (size 1 1) (thickness 0.15)))
  )
  (fp_text value "Tactile Switch SPST" (at -4 0 180) (layer F.Fab)
    (effects (font (size 1 1) (thickness 0.15)))
  )
  (fp_circle (center 0 0) (end 2 0) (layer F.SilkS) (width 0.15))
  (pad 1 smd rect (at -2.9 -2) (size 2.8 1.5) (layers F.Cu F.Paste F.Mask))
  (pad 1 smd rect (at 2.9 -2) (size 2.8 1.5) (layers F.Cu F.Paste F.Mask))
  (pad 2 smd rect (at -2.9 2) (size 2.8 1.5) (layers F.Cu F.Paste F.Mask))
  (pad 2 smd rect (at 2.9 2) (size 2.8 1.5) (layers F.Cu F.Paste F.Mask))
)
