(module RR111-1DC2-332 (layer F.Cu) (tedit 5EBE39BA)
  (fp_text reference REF** (at 0.635 -1.905) (layer F.SilkS)
    (effects (font (size 1 1) (thickness 0.015)))
  )
  (fp_text value RR111-1DC2-332 (at 10.795 1.905) (layer F.Fab)
    (effects (font (size 1 1) (thickness 0.015)))
  )
  (fp_line (start -0.95 0.95) (end -0.95 -0.95) (layer F.CrtYd) (width 0.05))
  (fp_line (start 0.95 0.95) (end -0.95 0.95) (layer F.CrtYd) (width 0.05))
  (fp_line (start 0.95 -0.95) (end 0.95 0.95) (layer F.CrtYd) (width 0.05))
  (fp_line (start -0.95 -0.95) (end 0.95 -0.95) (layer F.CrtYd) (width 0.05))
  (fp_circle (center -1.1 -0.3) (end -1.008297 -0.3) (layer F.Fab) (width 0.1))
  (fp_circle (center -1.1 -0.3) (end -1.008297 -0.3) (layer F.SilkS) (width 0.1))
  (fp_line (start -0.731 0.731) (end -0.731 -0.731) (layer F.SilkS) (width 0.127))
  (fp_line (start 0.731 0.731) (end -0.731 0.731) (layer F.SilkS) (width 0.127))
  (fp_line (start 0.731 -0.731) (end 0.731 0.731) (layer F.SilkS) (width 0.127))
  (fp_line (start -0.731 -0.731) (end 0.731 -0.731) (layer F.SilkS) (width 0.127))
  (fp_line (start -0.7 0.7) (end -0.7 -0.7) (layer F.Fab) (width 0.127))
  (fp_line (start 0.7 0.7) (end -0.7 0.7) (layer F.Fab) (width 0.127))
  (fp_line (start 0.7 -0.7) (end 0.7 0.7) (layer F.Fab) (width 0.127))
  (fp_line (start -0.7 -0.7) (end 0.7 -0.7) (layer F.Fab) (width 0.127))
  (pad 1 smd rect (at -0.325 -0.325) (size 0.385 0.385) (layers F.Cu F.Paste F.Mask))
  (pad 4 smd rect (at 0.325 -0.325) (size 0.385 0.385) (layers F.Cu F.Paste F.Mask))
  (pad 3 smd rect (at 0.325 0.325) (size 0.385 0.385) (layers F.Cu F.Paste F.Mask))
  (pad 2 smd rect (at -0.325 0.325) (size 0.385 0.385) (layers F.Cu F.Paste F.Mask))
)
