(module Wurth_66200411122_4pin (layer F.Cu) (tedit 5D0E3D44)
  (fp_text reference REF** (at 4.8 2.4) (layer F.SilkS)
    (effects (font (size 1 1) (thickness 0.15)))
  )
  (fp_text value Wurth_66200411122_4pin (at 4.5 1.4) (layer F.Fab)
    (effects (font (size 0.3 0.3) (thickness 0.075)))
  )
  (fp_line (start -4 -2) (end 13.1 -2) (layer F.CrtYd) (width 0.1))
  (fp_line (start 13.1 -2) (end 13.1 2.5) (layer F.CrtYd) (width 0.1))
  (fp_line (start 13.1 2.5) (end -4 2.5) (layer F.CrtYd) (width 0.1))
  (fp_line (start -4 2.5) (end -4 -2) (layer F.CrtYd) (width 0.1))
  (fp_line (start 3.2 -2) (end 3.2 -2.9) (layer F.CrtYd) (width 0.1))
  (fp_line (start 3.2 -2.9) (end 5.5 -2.9) (layer F.CrtYd) (width 0.1))
  (fp_line (start 5.5 -2.9) (end 5.5 -2) (layer F.CrtYd) (width 0.1))
  (pad 4 thru_hole circle (at 0 0) (size 2 2) (drill 1) (layers *.Cu *.Mask))
  (pad 3 thru_hole circle (at 3 0) (size 2 2) (drill 1) (layers *.Cu *.Mask))
  (pad 2 thru_hole circle (at 6 0) (size 2 2) (drill 1) (layers *.Cu *.Mask))
  (pad 1 thru_hole circle (at 9 0) (size 2 2) (drill 1) (layers *.Cu *.Mask))
  (pad "" np_thru_hole circle (at -3 1.96) (size 2 2) (drill 1.4) (layers *.Cu *.Mask))
  (pad "" np_thru_hole circle (at 12 1.96) (size 2 2) (drill 1.4) (layers *.Cu *.Mask))
)
